%!PS-Adobe-3.0 EPSF-3.0
%%BoundingBox: 0 0 612 324
%%Creator: yExport 1.5
%%Producer: org.freehep.graphicsio.ps.EPSGraphics2D Revision: 12753 
%%For: 
%%Title: 
%%CreationDate: Saturday, April 28, 2018 11:14:57 PM CDT
%%LanguageLevel: 3
%%EndComments
%%BeginProlog
100 dict dup begin

%
% File: org/freehep/graphicsio.ps/PSProlog.txt
% Author: Charles Loomis
%

% Redefinitions which save some space in the output file.  These are also
% the same as the PDF operators.
/q {gsave} def
/Q {grestore} def

/n {newpath} def
/m {moveto} def
/l {lineto} def
/c {curveto} def
/h {closepath} def

/re {4 -2 roll moveto
     dup 0 exch rlineto exch 0 rlineto
     neg 0 exch rlineto closepath} def

/f {fill} def
/f* {eofill} def
/F {gsave vg&FC fill grestore} def
/F* {gsave vg&FC eofill grestore} def

/s {closepath stroke} def
/S {stroke} def

/b {closepath gsave vg&FC fill grestore
    gsave stroke grestore newpath} def
/B {gsave vg&FC fill grestore gsave stroke grestore newpath} def
/b* {closepath gsave vg&FC eofill grestore
    gsave stroke grestore newpath} def
/B* {gsave vg&FC eofill grestore gsave stroke grestore newpath} def

/g {1 array astore /vg&fcolor exch def} def
/G {setgray} def
/k {4 array astore /vg&fcolor exch def} def
/K {setcmykcolor} def
/rg {3 array astore /vg&fcolor exch def} def
/RG {setrgbcolor} def

% Initialize the fill color.
0 0 0 rg

/vg&FC {mark vg&fcolor aload pop
        counttomark 1 eq {G} if
        counttomark 3 eq {RG} if
        counttomark 4 eq {K} if
        cleartomark } def

/vg&DFC {/vg&fcolor exch def} def

/vg&C {mark exch aload pop
       counttomark 1 eq {G} if
       counttomark 3 eq {RG} if
       counttomark 4 eq {K} if
       cleartomark } def

/w {setlinewidth} def
/j {setlinejoin} def
/J {setlinecap} def
/M {setmiterlimit} def
/d {setdash} def
/i {setflat} def

/W {clip} def
/W* {eoclip} def

% Setup the default graphics state.
% (black; 1 pt. linewidth; miter join; butt-ends; solid)
/defaultGraphicsState {0 g 1 w 0 j 0 J [] 0 d} def

% Emulation of the rectangle operators for PostScript implementations
% which do not implement all Level 2 features.  This is an INCOMPLETE
% emulation; only the "x y width height rect..." form is emulated.
/*rf {gsave newpath re fill grestore} def
/*rs {gsave newpath re stroke grestore} def
/*rc {newpath re clip} def
/rf  /rectfill where {pop /rectfill}{/*rf} ifelse load def
/rs  /rectstroke where {pop /rectstroke}{/*rs} ifelse load def
/rc  /rectclip where {pop /rectclip}{/*rc} ifelse load def

% Emulation of the selectfont operator.  This includes a 20% increase in
% the fontsize which is necessary to get sizes similar to the Java fonts.
/*sf {exch findfont exch
      dup type /arraytype eq {makefont}{scalefont} ifelse setfont} bind def
/sf /selectfont where {pop {1.2 mul selectfont}}{{1.2 mul *sf}} ifelse def

% Special version of stroke which allows the dash pattern to continue
% across path segments.  (This may be needed for PostScript although
% modern printers seem to do this correctly.)
/vg&stroke {
  currentdash pop length 0 eq
  {stroke}
  {
    currentdash /vg&doffset exch def pop
    flattenpath
    {m vg&resetdash}
    {2 copy
     currentpoint
     3 -1 roll sub dup mul
     3 1 roll sub dup mul
     add sqrt
     3 1 roll l
     currentdash 3 -1 roll add setdash}
     {}
     {h vg&resetdash}
     pathforall
     stroke
     vg&resetdash
  } ifelse
} def
/vg&resetdash {currentdash pop vg&doffset setdash} def

% Initialize variables for safety.
/delta 0 def
/xv 0 def  /yv 0 def  /width 0 def  /height 0 def

% Initialize to portrait INTERNATIONAL (Letter-height, A4-width) page.
/pw 595 def  /ph 791  def  /po true def /ftp false def

% Initialize margins to 20 points.
/ml 20 def  /mr 20 def  /mt 20 def  /mb 20 def

% Temporary matrices.
/smatrix 0 def  /nmatrix 0 def

% set page size (usage: <page width><page height> setpagesize)
/setpagesize {/ph exch def /pw exch def} def

% set page orientation (usage: portrait or landscape)
/portrait {/po true def} def
/landscape {/po false def} def

% force natural size for image (usage: naturalsize)
/naturalsize {/ftp false def} def

% resize image to fill page (usage: fittopage)
/fittopage {/ftp true def} def

% set margins of the page (usage: <left><bottom><top><right> setmargins)
/setmargins {/mr exch def /mt exch def /mb exch def /ml exch def} def

% set the graphic's size (usage: <width><height> setsize)
/setsize {/gh exch def /gw exch def} def

% set the graphic's origin (usage: <x0><y0> setorigin)
/setorigin {/gy exch def /gx exch def} def

% calculate image center
/imagecenter {pw ml sub mr sub 2 div ml add
              ph mt sub mb sub 2 div mb add} def

% calculate the necessary scaling
/imagescale {po {gw}{gh} ifelse pw ml sub mr sub div
             po {gh}{gw} ifelse ph mt sub mb sub div
             2 copy lt {exch} if pop
             ftp not {1 2 copy lt {exch} if pop} if
             1 exch div /sfactor exch def
             /gw gw sfactor mul def /gh gh sfactor mul def} def

% calculate image origin
/imageorigin {pw ml sub mr sub 2 div ml add
              po {gw}{gh} ifelse 2 div sub
              ph mt sub mb sub 2 div mb add
              po {gh}{gw} ifelse 2 div po {add}{sub} ifelse} def

% calculate the clipping origin
/cliporigin  {pw ml sub mr sub 2 div ml add
              po {gw}{gh} ifelse 2 div sub floor
              ph mt sub mb sub 2 div mb add
              po {gh}{gw} ifelse 2 div sub floor} def

% Set the clipping region to the bounding box.
/cliptobounds {cliporigin po {gw}{gh} ifelse 1 add
                          po {gh}{gw} ifelse 1 add rc} def

% set the base transformation matrix (usage: setbasematrix)
/setbasematrix {imageorigin translate
                po {0}{90} ifelse rotate
                sfactor sfactor neg scale
                /defaultmatrix matrix currentmatrix def} def

% The lower-right bias in drawing 1 pt. wide lines.
/bias  {q 0.5 0.5 translate} def
/unbias {Q} def

% Define the composite fonts used to print Unicode strings.
% Undefine particular values in an encoding array.
/vg&undef { {exch dup 3 -1 roll /.notdef put} forall } def
/vg&redef { {3 -1 roll dup 4 2 roll put} forall } def

% usage: key encoding basefontname vg&newbasefont font
/vg&newbasefont {
findfont dup length dict copy
  begin
    currentdict /FID undef
    /Encoding exch def
    dup /FontName exch def
    currentdict
  end
definefont
} def

% usage: key encoding basefontname vg&newskewedbasefont font
/vg&newskewedbasefont {
findfont dup length dict copy
  begin
    currentdict /FID undef
    /Encoding exch def
    dup /FontName exch def
    exch FontMatrix exch matrix concatmatrix /FontMatrix exch def
    currentdict
  end
definefont
} def

% usage: basekey suffix vg&nconcat name
/vg&nconcat {
  2 {dup length string cvs exch} repeat
  dup length 3 -1 roll dup length 3 -1 roll add string
  dup 0 4 -1 roll dup length 5 1 roll putinterval
  dup 4 -2 roll exch putinterval cvn
} def

%usage: fontname vg&skewmatrix matrix
/vg&skewmatrix {
findfont dup /FontInfo known
  {
    /FontInfo get dup /ItalicAngle known
    {
      [ 1 0 4 -1 roll /ItalicAngle get neg dup sin exch cos div 1 0 0 ]
    }
    {pop matrix} ifelse
  }
  {pop matrix} ifelse
} def

% usage: newfontname basefontname vg&newcompositefont --
/vg&newcompositefont {
/vg&fstyle exch def
/vg&bfont exch def
/vg&fname exch def
<<
/FontStyleBits vg&fstyle
/FontType 0
/FontMatrix matrix
/FontName vg&fname
/FMapType 2
/Encoding [ 0 1 255 {pop 6} for ]
          dup 16#00 0 put % Latin
          dup 16#03 1 put % Greek
          dup 16#20 2 put % Punctuation
          dup 16#21 3 put % Arrows
          dup 16#22 4 put % MathOps
          dup 16#27 5 put % Dingbats

/FDepVector [
vg&bfont /-UC-Latin vg&nconcat UCLatinEncoding
vg&bfont vg&newbasefont

vg&bfont vg&skewmatrix
vg&bfont /-UC-Greek vg&nconcat UCGreekEncoding
/Symbol vg&newskewedbasefont

vg&bfont /-UC-Punctuation vg&nconcat UCPunctuationEncoding
vg&bfont vg&newbasefont

/Arrows-UC findfont
/MathOps-UC findfont
/Dingbats-UC findfont
/Undefined-UC findfont ]
>>
vg&fname exch definefont pop
} def

% Null encoding vector (all elements set to .notdef)
/NullEncoding [ 256 {/.notdef} repeat ] def

% Unicode Latin encoding (unicode codes \u0000-\u00ff)
/UCLatinEncoding
  ISOLatin1Encoding dup length array copy
  dup 16#60 /grave put
  [ 16#90 16#91 16#92 16#93 16#94 16#95 16#96
    16#97 16#98 16#9a 16#9b 16#9d 16#9e 16#9f
  ] vg&undef
  def

% Unicode Greek encoding (unicode codes \u0370-\u03ff)
/UCGreekEncoding
  NullEncoding dup length array copy
  << 16#91 /Alpha    16#92 /Beta      16#93 /Gamma    16#94 /Delta
     16#95 /Epsilon  16#96 /Zeta      16#97 /Eta      16#98 /Theta
     16#99 /Iota     16#9a /Kappa     16#9b /Lambda   16#9c /Mu
     16#9d /Nu       16#9e /Xi        16#9f /Omicron  16#a0 /Pi
     16#a1 /Rho      16#a3 /Sigma     16#a4 /Tau      16#a5 /Upsilon
     16#a6 /Phi      16#a7 /Chi       16#a8 /Psi      16#a9 /Omega
     16#b1 /alpha    16#b2 /beta      16#b3 /gamma    16#b4 /delta
     16#b5 /epsilon  16#b6 /zeta      16#b7 /eta      16#b8 /theta
     16#b9 /iota     16#ba /kappa     16#bb /lambda   16#bc /mu
     16#bd /nu       16#be /xi        16#bf /omicron  16#c0 /pi
     16#c1 /rho      16#c2 /sigma1    16#c3 /sigma    16#c4 /tau
     16#c5 /upsilon  16#c6 /phi1      16#c7 /chi      16#c8 /psi
     16#c9 /omega    16#7e /semicolon 16#87 /dotmath  16#d1 /theta1
     16#d2 /Upsilon1 16#d5 /phi       16#d6 /omega1
  >> vg&redef
  def

% Unicode punctuation encoding (unicode codes \u2000-\u206f)
/UCPunctuationEncoding
  NullEncoding dup length array copy
  << 16#10 /hyphen          16#11 /hyphen              16#12 /endash
     16#13 /emdash          16#18 /quoteleft           16#19 /quoteright
     16#1a /quotesinglbase  16#1b /quotesingle         16#1c /quotedblleft
     16#1d /quotedblright   16#1e /quotedblbase        16#1f /quotedbl
     16#20 /dagger          16#21 /daggerdbl           16#22 /bullet
     16#24 /period          16#26 /ellipsis            16#27 /periodcentered
     16#30 /perthousand     16#44 /fraction
     16#70 /zerosuperior    16#74 /foursuperior        16#75 /fivesuperior
     16#76 /sixsuperior     16#77 /sevensuperior       16#78 /eightsuperior
     16#79 /ninesuperior    16#7b /hyphensuperior      16#7d /parenleftsuperior
     16#7e /parenrightsuperior
     16#80 /zeroinferior    16#84 /fourinferior        16#85 /fiveinferior
     16#81 /oneinferior     16#82 /twoinferior         16#83 /threeinferior
     16#86 /sixinferior     16#87 /seveninferior       16#88 /eightinferior
     16#89 /nineinferior    16#8b /hypheninferior      16#8d /parenleftinferior
     16#8e /parenrightinferior
  >> vg&redef
  def

% Unicode mathematical operators encoding (unicode codes \u2200-\u22ff)
/UCMathOpsEncoding
  NullEncoding dup length array copy
  << 16#00 /universal       16#02 /partialdiff         16#03 /existential
     16#05 /emptyset        16#06 /Delta               16#07 /gradient
     16#08 /element         16#09 /notelement          16#0b /suchthat
     16#0f /product         16#11 /summation           16#12 /minus
     16#15 /fraction        16#17 /asteriskmath        16#19 /bullet
     16#1a /radical         16#1d /proportional        16#1e /infinity
     16#20 /angle           16#23 /bar                 16#27 /logicaland
     16#28 /logicalor       16#29 /intersection        16#2a /union
     16#2b /integral        16#34 /therefore           16#36 /colon
     16#3c /similar         16#45 /congruent           16#48 /approxequal
     16#60 /notequal        16#61 /equivalence         16#64 /lessequal
     16#65 /greaterequal    16#82 /propersubset        16#83 /propersuperset
     16#86 /reflexsubset    16#87 /reflexsuperset      16#95 /circleplus
     16#97 /circlemultiply  16#a5 /perpendicular       16#03 /existential
     16#c0 /logicaland      16#c1 /logicalor           16#c2 /intersection
     16#c3 /union           16#c4 /diamond             16#c5 /dotmath
  >> vg&redef
  def

% Unicode arrows encoding (unicode codes \u2190-\u21ff)
% Also includes those "Letterlike" unicode characters
% which are available in the symbol font. (unicode codes \u2100-\u214f)
/UCArrowsEncoding
  NullEncoding dup length array copy
  << 16#11 /Ifraktur        16#1c /Rfraktur            16#22 /trademarkserif
     16#35 /aleph
     16#90 /arrowleft       16#91 /arrowup             16#92 /arrowright
     16#93 /arrowdown       16#94 /arrowboth           16#d0 /arrowdblleft
     16#d1 /arrowdblup      16#d2 /arrowdblright       16#d3 /arrowdbldown
     16#d4 /arrowdblboth
  >> vg&redef
  def

/ZapfDingbats findfont /Encoding get
dup length array copy /UCDingbatsEncoding exch def
16#20 1 16#7f {
  dup 16#20 sub exch
  UCDingbatsEncoding exch get
  UCDingbatsEncoding 3 1 roll put
} for
16#a0 1 16#ff {
  dup 16#40 sub exch
  UCDingbatsEncoding exch get
  UCDingbatsEncoding 3 1 roll put
} for
UCDingbatsEncoding [ 16#c0 1 16#ff {} for ] vg&undef
[ 16#00  16#05 16#0a 16#0b  16#28 16#4c 16#4e  16#53 16#54 16#55  16#57 16#5f
  16#60  16#68 16#69 16#6a  16#6b 16#6c 16#6d  16#6e 16#6f 16#70  16#71 16#72
  16#73  16#74 16#75 16#95  16#96 16#97 16#b0  16#bf
] vg&undef pop

% Define the base fonts which don't change.
/Undefined-UC NullEncoding       /Helvetica    vg&newbasefont pop
/MathOps-UC   UCMathOpsEncoding  /Symbol       vg&newbasefont pop
/Arrows-UC    UCArrowsEncoding   /Symbol       vg&newbasefont pop
/Dingbats-UC  UCDingbatsEncoding /ZapfDingbats vg&newbasefont pop

% Make the SansSerif composite fonts.
/SansSerif /Helvetica 16#00 vg&newcompositefont
/SansSerif-Bold /Helvetica-Bold 16#01 vg&newcompositefont
/SansSerif-Italic /Helvetica-Oblique 16#02 vg&newcompositefont
/SansSerif-BoldItalic /Helvetica-BoldOblique 16#03 vg&newcompositefont

% Make the Serif composite fonts.
/Serif /Times-Roman 16#00 vg&newcompositefont
/Serif-Bold /Times-Bold 16#01 vg&newcompositefont
/Serif-Italic /Times-Italic 16#02 vg&newcompositefont
/Serif-BoldItalic /Times-BoldItalic 16#03 vg&newcompositefont

% Make the Monospaced composite fonts.
/Monospaced /Courier 16#00 vg&newcompositefont
/Monospaced-Bold /Courier-Bold 16#01 vg&newcompositefont
/Monospaced-Italic /Courier-Oblique 16#02 vg&newcompositefont
/Monospaced-BoldItalic /Courier-BoldOblique 16#03 vg&newcompositefont

% Make the Dialog composite fonts.
/Dialog /Helvetica 16#00 vg&newcompositefont
/Dialog-Bold /Helvetica-Bold 16#01 vg&newcompositefont
/Dialog-Italic /Helvetica-Oblique 16#02 vg&newcompositefont
/Dialog-BoldItalic /Helvetica-BoldOblique 16#03 vg&newcompositefont

% Make the DialogInput composite fonts.
/DialogInput /Courier 16#00 vg&newcompositefont
/DialogInput-Bold /Courier-Bold 16#01 vg&newcompositefont
/DialogInput-Italic /Courier-Oblique 16#02 vg&newcompositefont
/DialogInput-BoldItalic /Courier-BoldOblique 16#03 vg&newcompositefont

% Make the Typewriter composite fonts (JDK 1.1 only).
/Typewriter /Courier 16#00 vg&newcompositefont
/Typewriter-Bold /Courier-Bold 16#01 vg&newcompositefont
/Typewriter-Italic /Courier-Oblique 16#02 vg&newcompositefont
/Typewriter-BoldItalic /Courier-BoldOblique 16#03 vg&newcompositefont


/cfontH {
 dup /fontsize exch def /SansSerif exch sf
 /vg&fontstyles [{cfontH} {cfontHB} {cfontHI} {cfontHBI}] def
} def
/cfontHB {
  dup /fontsize exch def /SansSerif-Bold exch sf
 /vg&fontstyles [{cfontH} {cfontHB} {cfontHI} {cfontHBI}] def
} def
/cfontHI {
 dup /fontsize exch def /SansSerif-Italic exch sf
 /vg&fontstyles [{cfontH} {cfontHB} {cfontHI} {cfontHBI}] def
} def
/cfontHBI {
 dup /fontsize exch def /SansSerif-BoldItalic exch sf
 /vg&fontstyles [{cfontH} {cfontHB} {cfontHI} {cfontHBI}] def
} def

/cfontT {
 dup /fontsize exch def /Serif exch sf
 /vg&fontstyles [{cfontT} {cfontTB} {cfontTI} {cfontTBI}] def
} def
/cfontTB {
 dup /fontsize exch def /Serif-Bold exch sf
 /vg&fontstyles [{cfontT} {cfontTB} {cfontTI} {cfontTBI}] def
} def
/cfontTI {
 dup /fontsize exch def /Serif-Italic exch sf
 /vg&fontstyles [{cfontT} {cfontTB} {cfontTI} {cfontTBI}] def
} def
/cfontTBI {
 dup /fontsize exch def /Serif-BoldItalic exch sf
 /vg&fontstyles [{cfontT} {cfontTB} {cfontTI} {cfontTBI}] def
} def

/cfontC {
 dup /fontsize exch def /Typewriter exch sf
 /vg&fontstyles [{cfontC} {cfontCB} {cfontCI} {cfontCBI}] def
} def
/cfontCB {
 dup /fontsize exch def /Typewriter-Bold exch sf
 /vg&fontstyles [{cfontC} {cfontCB} {cfontCI} {cfontCBI}] def
} def
/cfontCI {
 dup /fontsize exch def /Typewriter-Italic exch sf
 /vg&fontstyles [{cfontC} {cfontCB} {cfontCI} {cfontCBI}] def
} def
/cfontCBI {
 dup /fontsize exch def /Typewriter-BoldItalic exch sf
 /vg&fontstyles [{cfontC} {cfontCB} {cfontCI} {cfontCBI}] def
} def

% Darken or lighten the current color.
/darken {0.7 exch exp 3 copy
         q 4 -1 roll vg&C
         currentrgbcolor 3 {4 -2 roll mul} repeat
         3 array astore Q} def

/displayColorMap
<< /Cr   [1.00 0.00 0.00]       /Cg     [0.00 1.00 0.00]
   /Cb   [0.00 0.00 1.00]       /Cc     [1.00 0.00 0.00 0.00]
   /Cm   [0.00 1.00 0.00 0.00]  /Cy     [0.00 0.00 1.00 0.00]
   /Co   [1.00 0.78 0.00]       /Cp     [1.00 0.67 0.67]
   /Cw   [1   ]                 /Cgrl   [0.75]
   /Cgr  [0.50]                 /Cgrd   [0.25]
   /Ck   [0   ]
   /CGr  [1.00 0.00 0.00]       /CGg    [0.00 1.00 0.00]
   /CGb  [0.00 0.00 1.00]       /CGc    [1.00 0.00 0.00 0.00]
   /CGm  [0.00 1.00 0.00 0.00]  /CGy    [0.00 0.00 1.00 0.00]
   /CGo  [1.00 0.78 0.00]       /CGp    [1.00 0.67 0.67]
   /CGw  [1   ]                 /CGgrl  [0.75]
   /CGgr [0.50]                 /CGgrd  [0.25]
   /CGk  [0   ]
   /CIr  [1.00 0.00 0.00]       /CIg    [0.00 1.00 0.00]
   /CIb  [0.00 0.00 1.00]       /CIc    [1.00 0.00 0.00 0.00]
   /CIm  [0.00 1.00 0.00 0.00]  /CIy    [0.00 0.00 1.00 0.00]
   /CIo  [1.00 0.78 0.00]       /CIp    [1.00 0.67 0.67]
   /CIw  [1   ]                 /CIgrl  [0.75]
   /CIgr [0.50]                 /CIgrd  [0.25]
   /CIk  [0   ]
>> def

/printColorMap
<< /Cr   [1.00 0.33 0.33]       /Cg     [0.33 1.00 0.33]
   /Cb   [0.33 0.33 1.00]       /Cc     [1.00 0.00 0.00 0.00]
   /Cm   [0.00 1.00 0.00 0.00]  /Cy     [0.00 0.00 1.00 0.00]
   /Co   [1.00 0.78 0.00]       /Cp     [1.00 0.67 0.67]
   /Cw   [1   ]                 /Cgrl   [0.75]
   /Cgr  [0.50]                 /Cgrd   [0.25]
   /Ck   [0   ]
   /CGr  [1.00 0.33 0.33]       /CGg    [0.33 1.00 0.33]
   /CGb  [0.33 0.33 1.00]       /CGc    [1.00 0.00 0.00 0.00]
   /CGm  [0.00 1.00 0.00 0.00]  /CGy    [0.00 0.00 1.00 0.00]
   /CGo  [1.00 0.78 0.00]       /CGp    [1.00 0.67 0.67]
   /CGw  [1   ]                 /CGgrl  [0.75]
   /CGgr [0.50]                 /CGgrd  [0.25]
   /CGk  [0   ]
   /CIr  [1.00 0.33 0.33]       /CIg    [0.33 1.00 0.33]
   /CIb  [0.33 0.33 1.00]       /CIc    [1.00 0.00 0.00 0.00]
   /CIm  [0.00 1.00 0.00 0.00]  /CIy    [0.00 0.00 1.00 0.00]
   /CIo  [1.00 0.78 0.00]       /CIp    [1.00 0.67 0.67]
   /CIw  [1   ]                 /CIgrl  [0.75]
   /CIgr [0.50]                 /CIgrd  [0.25]
   /CIk  [0   ]
>> def

/grayColorMap
<< /Cr   [0   ]                 /Cg     [0   ]
   /Cb   [0   ]                 /Cc     [0   ]
   /Cm   [0   ]                 /Cy     [0   ]
   /Co   [0   ]                 /Cp     [0   ]
   /Cw   [0   ]                 /Cgrl   [0   ]
   /Cgr  [0   ]                 /Cgrd   [0   ]
   /Ck   [0   ]
   /CGr  [0.75]                 /CGg    [1   ]
   /CGb  [0.50]                 /CGc    [0.75]
   /CGm  [0.50]                 /CGy    [1   ]
   /CGo  [0.75]                 /CGp    [1   ]
   /CGw  [0   ]                 /CGgrl  [0.25]
   /CGgr [0.50]                 /CGgrd  [0.75]
   /CGk  [1   ]
   /CIr  [1   ]                 /CIg    [1   ]
   /CIb  [1   ]                 /CIc    [1   ]
   /CIm  [1   ]                 /CIy    [1   ]
   /CIo  [1   ]                 /CIp    [1   ]
   /CIw  [1   ]                 /CIgrl  [1   ]
   /CIgr [1   ]                 /CIgrd  [1   ]
   /CIk  [1   ]
>> def

/bwColorMap
<< /Cr   [0   ]                 /Cg     [0   ]
   /Cb   [0   ]                 /Cc     [0   ]
   /Cm   [0   ]                 /Cy     [0   ]
   /Co   [0   ]                 /Cp     [0   ]
   /Cw   [0   ]                 /Cgrl   [0   ]
   /Cgr  [0   ]                 /Cgrd   [0   ]
   /Ck   [0   ]
   /CGr  [1   ]                 /CGg    [1   ]
   /CGb  [1   ]                 /CGc    [1   ]
   /CGm  [1   ]                 /CGy    [1   ]
   /CGo  [1   ]                 /CGp    [1   ]
   /CGw  [0   ]                 /CGgrl  [1   ]
   /CGgr [1   ]                 /CGgrd  [1   ]
   /CGk  [1   ]
   /CIr  [1   ]                 /CIg    [1   ]
   /CIb  [1   ]                 /CIc    [1   ]
   /CIm  [1   ]                 /CIy    [1   ]
   /CIo  [1   ]                 /CIp    [1   ]
   /CIw  [1   ]                 /CIgrl  [1   ]
   /CIgr [1   ]                 /CIgrd  [1   ]
   /CIk  [1   ]
>> def

%
% The following routines handle the alignment of and printing of
% tagged strings.
%

% Predefine the bounding box values.
/bbllx 0 def /bblly 0 def /bburx 0 def /bbury 0 def

% This routine pops the first unicode character off of a string and returns
% the remainder of the string, the character code of first character,
% and a "true" if the string was non-zero length.
% <string>      popfirst <remaining string> <true>
% <null string> popfirst <false>
/popfirst {
  dup length 1 gt
    {dup 0 get /vg&fbyte exch def
     dup 1 get /vg&cbyte exch def
     dup length 2 sub 2 exch getinterval true}
    {pop false} ifelse
} def

% This routine shows a single unicode character given the font and
% character codes.
% <font code> <char code> unicharshow --
/unicharshow {
  2 string
  dup 0 5 -1 roll put
  dup 1 4 -1 roll put
  internalshow
} def

% This is an internal routine to alternate between determining the
% bounding box for stringsize and showing the string for recshow.
% <string> internalshow --
/internalshow {show} def

% This is an internal routine to alternate between determining the
% bounding box for stringsize and stroking various ornaments.
% <string> internalstroke --
/internalstroke {S} def

% Sets up internalshow to use the null device to determine string size.
% -- nullinternalshow --
/nullinternalshow {/internalshow {false charpath flattenpath
                                  pathbbox updatebbox} def} def

% Sets up internalstroke to use the null device to determine string size.
% -- nullinternalstroke --
/nullinternalstroke {
 /internalstroke {flattenpath pathbbox updatebbox} def} def

% This routine tests to see if the character code matches the first
% character of a string.
% <char code> <string> testchar <char code> <true or false>
/testchar {exch dup 3 -1 roll 0 get eq} def

% Raise the text baseline for superscripts.
% -- raise --
/raise {
  0 fontsize 2 div rmoveto
  /fontsize fontsize 2 mul 3 div def
  currentfont /FontName get fontsize sf
} def

% Un-raise the text baseline for superscripts.
% -- unraise --
/unraise {
  /fontsize fontsize 1.5 mul def
  0 fontsize 2 div neg rmoveto
} def

% Lower the text baseline for subscripts.
% -- lower --
/lower {
  0 fontsize 3 div neg rmoveto
  /fontsize fontsize 2 mul 3 div def
  currentfont /FontName get fontsize sf
} def

% Un-lower the text baseline for subscripts.
% -- unlower --
/unlower {
  /fontsize fontsize 1.5 mul def
  0 fontsize 3 div rmoveto
} def

% Compare the top two elements on the stack and leave only the
% larger one.
/maxval {2 copy gt {pop} {exch pop} ifelse} def

% Tokenize a string.  Do not use the usual PostScript token because
% parentheses will not be interpreted correctly because of rescanning
% of the string.
/vg&token {/vg&string exch def /vg&index -1 def /vg&level 0 def
0 2 vg&string length 2 sub {
  dup dup 1 add exch vg&string exch get 8 bitshift vg&string 3 -1 roll get or
  dup 16#f0fe eq {pop 1}{16#f0ff eq {-1}{0} ifelse} ifelse
  /vg&level exch vg&level add def
  vg&level 0 eq {/vg&index exch def exit} if pop
} for
vg&index 0 ge {
  vg&string vg&index 2 add dup vg&string length exch sub getinterval
  vg&index 2 gt {vg&string 2 vg&index 2 sub getinterval}{()} ifelse
  true}
{false} ifelse
} bind def

% Recursively show an unicode string.
% <string> recshow --
/recshow {
  popfirst
  {
    % Test to see if this is a string attribute.
    vg&fbyte 16#f0 and 16#e0 eq
    {
      q

      % Font style.
      currentfont dup /FontStyleBits known {/FontStyleBits get}{pop 0} ifelse
      vg&cbyte or vg&fontstyles exch get fontsize exch exec

      vg&token pop recshow currentpoint Q m recshow
    }
    {
      vg&fbyte 16#F8 and 16#F0 eq {

        % Superscript and/or subscript.
        vg&cbyte 16#00 eq {
          vg&token pop exch vg&token pop 3 -1 roll
          q raise recshow unraise currentpoint pop Q exch
          q lower recshow unlower currentpoint pop Q
          maxval currentpoint exch pop m recshow } if

        % Strikeout.
        vg&cbyte 16#01 eq {
          vg&token pop currentpoint 3 -1 roll recshow
          q 0 J vg&underline vg&uthick w
          currentpoint 4 -2 roll fontsize 3 div add moveto
          fontsize 3 div add lineto internalstroke Q
          recshow} if

        % Underline.
        vg&cbyte 16#02 eq {
          vg&token pop currentpoint 3 -1 roll recshow
          q 0 J vg&underline vg&uthick w
          currentpoint 4 -2 roll vg&uoffset add moveto
          vg&uoffset add lineto internalstroke Q
          recshow} if

        % Dashed underline.
        vg&cbyte 16#03 eq {
          vg&token pop currentpoint 3 -1 roll recshow
          q 0 J [ vg&uthick 5 mul vg&uthick 2 mul] 0 d
          vg&underline vg&uthick w
          currentpoint 4 -2 roll vg&uoffset add moveto
          vg&uoffset add lineto internalstroke Q
          recshow} if

        % Dotted underline.
        vg&cbyte 16#04 eq {
          vg&token pop currentpoint 3 -1 roll recshow
          q 1 J [ 0 vg&uthick 3 mul] 0 d
          vg&underline vg&uthick w
          currentpoint 4 -2 roll vg&uoffset add moveto
          vg&uoffset add lineto internalstroke Q
          recshow} if

        % Thick underline.
        vg&cbyte 16#05 eq {
          vg&token pop currentpoint 3 -1 roll recshow
          q 0 J vg&underline vg&uthick 2 mul w
          currentpoint 4 -2 roll vg&uoffset vg&uthick 2 div sub add moveto
          vg&uoffset vg&uthick 2 div sub add lineto internalstroke Q
          recshow} if

        % Gray thick underline.
        vg&cbyte 16#06 eq {
          vg&token pop currentpoint 3 -1 roll recshow
          q 0 J vg&underline vg&uthick 2 mul w 0.5 setgray
          currentpoint 4 -2 roll vg&uoffset vg&uthick 2 div sub add moveto
          vg&uoffset vg&uthick 2 div sub add lineto internalstroke Q
          recshow} if

        % Overbar.
        vg&cbyte 16#07 eq {
          vg&token pop dup stringsize relative 4 1 roll pop pop exch
          3 -1 roll recshow
          q 0 J vg&underline vg&uthick w
          vg&uoffset neg add dup currentpoint pop exch m l internalstroke Q
          recshow} if
      }
      {
        vg&fbyte vg&cbyte unicharshow recshow
      } ifelse
    } ifelse
  } if
} def

% Get the underline position and thickness from the current font.
/vg&underline {

currentfont dup /FontType get 0 eq {/FDepVector get 0 get} if
dup dup /FontInfo known {
  /FontInfo get dup
  dup /UnderlinePosition known {
    /UnderlinePosition get /vg&uoffset exch def
  }
  {
    pop /vg&uoffset 0 def
  } ifelse
  dup /UnderlineThickness known {
    /UnderlineThickness get /vg&uthick exch def
  }
  {
    pop /vg&uthick 0 def
  } ifelse
}
{
  pop /vg&uoffset 0 def /vg&uthick 0 def
} ifelse
/FontMatrix get
currentfont dup /FontType get 0 eq
{/FontMatrix get matrix concatmatrix}{pop} ifelse
dup 0 vg&uoffset 3 -1 roll transform /vg&uoffset exch def pop
0 vg&uthick 3 -1 roll transform /vg&uthick exch def pop
} def

% Make a frame with the coordinates on the stack.
% <llx> <lly> <urx> <ury> frame --
/frame {4 copy m 3 1 roll exch l 4 -2 roll l l h} def

% Resets the accumulated bounding box to a degenerate box at the
% current point.
% -- resetbbox --
/resetbbox {
  currentpoint 2 copy
  /bbury exch def
  /bburx exch def
  /bblly exch def
  /bbllx exch def
} def

% Update the accumulated bounding box.
% <llx'> <lly'> <urx'> <ury'> updatebbox --
/updatebbox {
  dup bbury gt {/bbury exch def} {pop} ifelse
  dup bburx gt {/bburx exch def} {pop} ifelse
  dup bblly lt {/bblly exch def} {pop} ifelse
  dup bbllx lt {/bbllx exch def} {pop} ifelse
} def

% Set the bounding box to the values on the stack.
% <llx'> <lly'> <urx'> <ury'> updatebbox --
/restorebbox {
  /bbury exch def /bburx exch def /bblly exch def /bbllx exch def
} def

% Push the accumulated bounding box onto the stack.
% -- pushbbox <llx> <lly> <urx> <ury>
/pushbbox {bbllx bblly bburx bbury} def

% Make the relative bounding box relative to the currentpoint.
% <llx'> <lly'> <urx'> <ury'> inflate <llx> <lly> <urx> <ury>
/inflate {
  2 {fontsize 0.2 mul add 4 1 roll} repeat
  2 {fontsize 0.2 mul sub 4 1 roll} repeat
} def

% Make the relative bounding box relative to the currentpoint.
% <llx'> <lly'> <urx'> <ury'> relative <llx> <lly> <urx> <ury>
/relative {
  currentpoint 3 -1 roll add 3 1 roll add exch 4 2 roll
  currentpoint 3 -1 roll add 3 1 roll add exch 4 2 roll
} def

% Returns the size of a string appropriate for recshow.
% <string> stringsize <llx> <lly> <urx> <ury>
/stringsize {
  pushbbox /internalshow load /internalstroke load 7 -1 roll
  q
  nulldevice 0 0 m
  nullinternalshow nullinternalstroke
  resetbbox
  recshow
  /internalstroke exch def /internalshow exch def
  pushbbox 8 -4 roll restorebbox
  Q
} def

% Calculate values for string positioning.
/calcval {4 copy
  3 -1 roll sub /widy exch def sub neg /widx exch def
  pop pop /dy exch def /dx exch def} def

% Utilities to position a string.
% First letter (U=upper, C=center, B=baseline, L=lower)
% Second letter (L=left, C=center, R=right)
/align [
{calcval dx neg widy dy add neg rmoveto} % UL
{calcval dx neg widy 2 div dy add neg rmoveto} % CL
{calcval dx neg 0 rmoveto} % BL
{calcval dx neg dy neg rmoveto} % LL
{calcval widx dx add neg widy dy add neg rmoveto} % UR
{calcval widx dx add neg widy 2 div dy add neg rmoveto} % CR
{calcval widx dx add neg 0 rmoveto} % BR
{calcval widx dx add neg dy neg rmoveto} % LR
{calcval widx 2 div dx add neg widy dy add neg rmoveto} % UC
{calcval widx 2 div dx add neg widy 2 div dy add neg rmoveto} % CC
{calcval widx 2 div dx add neg 0 rmoveto} % BC
{calcval widx 2 div dx add neg dy neg rmoveto} % LC
] def

/vg&str {m q 1 -1 scale dup stringsize 4 copy align 11 -1 roll get exec
         q inflate relative frame exch exec Q recshow Q} def

end /procDict exch def
%%EndProlog

%%BeginSetup
save
procDict begin
printColorMap begin
612 324 setpagesize
0 0 0 0 setmargins
0 0 setorigin
612 324 setsize
naturalsize
portrait
imagescale
cliptobounds
setbasematrix
/Helvetica 10 sf
defaultGraphicsState
%%EndSetup

0.00000 0.00000 0.00000 RG
[ 1.00000 0.00000 0.00000 1.00000 0.00000 0.00000 ] defaultmatrix matrix concatmatrix setmatrix
cliprestore
1.00000 1.00000 1.00000 RG
newpath
0.00000 0.00000 m
612.000 0.00000 l
612.000 324.000 l
0.00000 324.000 l
0.00000 0.00000 l
h
f
0.00000 0.00000 0.00000 RG
0.00000 0.00000 0.00000 RG
[ 1.00000 0.00000 0.00000 1.00000 0.00000 0.00000 ] defaultmatrix matrix concatmatrix setmatrix
cliprestore
1.00000 1.00000 1.00000 RG
newpath
0.00000 0.00000 m
612.000 0.00000 l
612.000 324.000 l
0.00000 324.000 l
0.00000 0.00000 l
h
f
0.00000 0.00000 0.00000 RG
0 0 612 324 rc
q
[ 1.00000 0.00000 0.00000 1.00000 0.00000 0.00000 ] concat
[ 1.00000 0.00000 0.00000 1.00000 -15.0000 13.0000 ] concat
1.00000 1.00000 1.00000 RG
newpath
15.0000 -13.0000 m
627.000 -13.0000 l
627.000 311.000 l
15.0000 311.000 l
15.0000 -13.0000 l
h
f
0.00000 0.00000 0.00000 RG
[ 1.00000 0.00000 0.00000 1.00000 -15.0000 13.0000 ] defaultmatrix matrix concatmatrix setmatrix
[ 1.00000 0.00000 0.00000 1.00000 -15.0000 13.0000 ] defaultmatrix matrix concatmatrix setmatrix
[ 1.00000 0.00000 0.00000 1.00000 0.00000 0.00000 ] defaultmatrix matrix concatmatrix setmatrix
[ 1.00000 0.00000 0.00000 1.00000 -15.0000 13.0000 ] defaultmatrix matrix concatmatrix setmatrix
1.00000 .800000 0.00000 RG
newpath
469.919 253.454 m
474.419 246.248 l
482.909 245.954 l
478.919 238.454 l
482.909 230.954 l
474.419 230.660 l
469.919 223.454 l
465.419 230.660 l
456.928 230.954 l
460.919 238.454 l
456.928 245.954 l
465.419 246.248 l
h
f*
0 J
1.45000 M
0.00000 0.00000 0.00000 RG
newpath
469.919 253.454 m
474.419 246.248 l
482.909 245.954 l
478.919 238.454 l
482.909 230.954 l
474.419 230.660 l
469.919 223.454 l
465.419 230.660 l
456.928 230.954 l
460.919 238.454 l
456.928 245.954 l
465.419 246.248 l
h
S
2 J
10.0000 M
0 J
1.45000 M
newpath
503.538 241.519 m
506.835 232.925 l
508.054 232.925 l
511.569 241.519 l
510.288 241.519 l
509.272 238.909 l
505.694 238.909 l
504.741 241.519 l
503.538 241.519 l
h
506.022 237.987 m
508.929 237.987 l
508.038 235.612 l
507.757 234.894 507.554 234.300 507.429 233.831  c
507.314 234.383 507.158 234.930 506.960 235.472  c
506.022 237.987 l
h
512.354 241.519 m
512.354 235.300 l
513.292 235.300 l
513.292 236.175 l
513.750 235.498 514.412 235.159 515.276 235.159  c
515.651 235.159 515.998 235.227 516.315 235.362  c
516.633 235.498 516.870 235.675 517.026 235.894  c
517.182 236.112 517.292 236.367 517.354 236.659  c
517.386 236.857 517.401 237.201 517.401 237.690  c
517.401 241.519 l
516.354 241.519 l
516.354 237.737 l
516.354 237.300 516.313 236.977 516.229 236.769  c
516.146 236.560 516.000 236.391 515.792 236.261  c
515.584 236.131 515.339 236.065 515.057 236.065  c
514.610 236.065 514.222 236.209 513.893 236.495  c
513.565 236.782 513.401 237.321 513.401 238.112  c
513.401 241.519 l
512.354 241.519 l
h
526.425 240.753 m
526.029 241.086 525.651 241.321 525.292 241.456  c
524.932 241.591 524.544 241.659 524.128 241.659  c
523.440 241.659 522.914 241.492 522.550 241.159  c
522.185 240.826 522.003 240.399 522.003 239.878  c
522.003 239.576 522.071 239.297 522.206 239.042  c
522.341 238.787 522.524 238.584 522.753 238.433  c
522.982 238.282 523.237 238.170 523.518 238.097  c
523.716 238.034 524.029 237.977 524.456 237.925  c
525.300 237.831 525.925 237.711 526.331 237.565  c
526.331 237.420 526.331 237.331 526.331 237.300  c
526.331 236.862 526.232 236.555 526.034 236.378  c
525.763 236.149 525.362 236.034 524.831 236.034  c
524.341 236.034 523.977 236.120 523.737 236.292  c
523.498 236.464 523.321 236.769 523.206 237.206  c
522.175 237.065 l
522.268 236.628 522.425 236.274 522.643 236.003  c
522.862 235.732 523.175 235.524 523.581 235.378  c
523.987 235.232 524.456 235.159 524.987 235.159  c
525.518 235.159 525.951 235.222 526.284 235.347  c
526.617 235.472 526.862 235.628 527.018 235.815  c
527.175 236.003 527.284 236.242 527.347 236.534  c
527.378 236.711 527.393 237.034 527.393 237.503  c
527.393 238.909 l
527.393 239.888 527.417 240.508 527.464 240.769  c
527.511 241.029 527.602 241.279 527.737 241.519  c
526.628 241.519 l
526.524 241.300 526.456 241.045 526.425 240.753  c
h
526.331 238.394 m
525.946 238.550 525.373 238.685 524.612 238.800  c
524.175 238.862 523.867 238.933 523.690 239.011  c
523.513 239.089 523.375 239.201 523.276 239.347  c
523.177 239.492 523.128 239.659 523.128 239.847  c
523.128 240.128 523.235 240.362 523.448 240.550  c
523.662 240.737 523.972 240.831 524.378 240.831  c
524.784 240.831 525.146 240.742 525.464 240.565  c
525.781 240.388 526.013 240.144 526.159 239.831  c
526.274 239.591 526.331 239.242 526.331 238.784  c
526.331 238.394 l
h
533.099 239.237 m
534.130 239.378 l
534.015 240.086 533.724 240.644 533.255 241.050  c
532.786 241.456 532.213 241.659 531.536 241.659  c
530.682 241.659 529.997 241.381 529.481 240.823  c
528.966 240.266 528.708 239.466 528.708 238.425  c
528.708 237.758 528.820 237.172 529.044 236.667  c
529.268 236.162 529.606 235.784 530.059 235.534  c
530.513 235.284 531.010 235.159 531.552 235.159  c
532.218 235.159 532.768 235.328 533.200 235.667  c
533.632 236.006 533.911 236.492 534.036 237.128  c
533.005 237.284 l
532.911 236.867 532.739 236.552 532.489 236.339  c
532.239 236.125 531.937 236.019 531.583 236.019  c
531.052 236.019 530.619 236.209 530.286 236.589  c
529.953 236.969 529.786 237.571 529.786 238.394  c
529.786 239.237 529.947 239.847 530.270 240.222  c
530.593 240.597 531.010 240.784 531.520 240.784  c
531.937 240.784 532.283 240.659 532.559 240.409  c
532.835 240.159 533.015 239.769 533.099 239.237  c
h
539.099 239.237 m
540.130 239.378 l
540.015 240.086 539.724 240.644 539.255 241.050  c
538.786 241.456 538.213 241.659 537.536 241.659  c
536.682 241.659 535.997 241.381 535.481 240.823  c
534.966 240.266 534.708 239.466 534.708 238.425  c
534.708 237.758 534.820 237.172 535.044 236.667  c
535.268 236.162 535.606 235.784 536.059 235.534  c
536.513 235.284 537.010 235.159 537.552 235.159  c
538.218 235.159 538.768 235.328 539.200 235.667  c
539.632 236.006 539.911 236.492 540.036 237.128  c
539.005 237.284 l
538.911 236.867 538.739 236.552 538.489 236.339  c
538.239 236.125 537.937 236.019 537.583 236.019  c
537.052 236.019 536.619 236.209 536.286 236.589  c
535.953 236.969 535.786 237.571 535.786 238.394  c
535.786 239.237 535.947 239.847 536.270 240.222  c
536.593 240.597 537.010 240.784 537.520 240.784  c
537.937 240.784 538.283 240.659 538.559 240.409  c
538.835 240.159 539.015 239.769 539.099 239.237  c
h
545.286 239.519 m
546.380 239.644 l
546.213 240.279 545.895 240.774 545.427 241.128  c
544.958 241.482 544.364 241.659 543.645 241.659  c
542.739 241.659 542.018 241.378 541.481 240.815  c
540.945 240.253 540.677 239.466 540.677 238.456  c
540.677 237.414 540.947 236.604 541.489 236.026  c
542.031 235.448 542.729 235.159 543.583 235.159  c
544.416 235.159 545.096 235.440 545.622 236.003  c
546.148 236.565 546.411 237.362 546.411 238.394  c
546.411 238.456 546.411 238.550 546.411 238.675  c
541.770 238.675 l
541.812 239.362 542.005 239.886 542.349 240.245  c
542.692 240.604 543.125 240.784 543.645 240.784  c
544.031 240.784 544.362 240.683 544.638 240.479  c
544.914 240.276 545.130 239.956 545.286 239.519  c
h
541.833 237.815 m
545.302 237.815 l
545.260 237.284 545.130 236.888 544.911 236.628  c
544.567 236.222 544.130 236.019 543.599 236.019  c
543.109 236.019 542.700 236.180 542.372 236.503  c
542.044 236.826 541.864 237.263 541.833 237.815  c
h
547.710 243.909 m
547.710 235.300 l
548.663 235.300 l
548.663 236.097 l
548.892 235.784 549.150 235.550 549.436 235.394  c
549.723 235.237 550.069 235.159 550.475 235.159  c
551.007 235.159 551.475 235.295 551.882 235.565  c
552.288 235.836 552.593 236.222 552.796 236.722  c
552.999 237.222 553.100 237.769 553.100 238.362  c
553.100 238.998 552.988 239.571 552.765 240.081  c
552.541 240.591 552.210 240.982 551.772 241.253  c
551.335 241.524 550.877 241.659 550.397 241.659  c
550.043 241.659 549.725 241.584 549.444 241.433  c
549.163 241.282 548.934 241.097 548.757 240.878  c
548.757 243.909 l
547.710 243.909 l
h
548.663 238.440 m
548.663 239.242 548.824 239.834 549.147 240.214  c
549.470 240.594 549.861 240.784 550.319 240.784  c
550.788 240.784 551.189 240.586 551.522 240.190  c
551.856 239.795 552.022 239.180 552.022 238.347  c
552.022 237.555 551.861 236.964 551.538 236.573  c
551.215 236.183 550.824 235.987 550.366 235.987  c
549.918 235.987 549.522 236.196 549.179 236.612  c
548.835 237.029 548.663 237.638 548.663 238.440  c
h
556.681 240.581 m
556.837 241.503 l
556.535 241.565 556.269 241.597 556.040 241.597  c
555.655 241.597 555.358 241.537 555.149 241.417  c
554.941 241.297 554.793 241.138 554.704 240.940  c
554.615 240.742 554.571 240.326 554.571 239.690  c
554.571 236.112 l
553.806 236.112 l
553.806 235.300 l
554.571 235.300 l
554.571 233.753 l
555.618 233.128 l
555.618 235.300 l
556.681 235.300 l
556.681 236.112 l
555.618 236.112 l
555.618 239.753 l
555.618 240.055 555.636 240.248 555.673 240.331  c
555.709 240.414 555.769 240.482 555.852 240.534  c
555.936 240.586 556.056 240.612 556.212 240.612  c
556.337 240.612 556.493 240.602 556.681 240.581  c
h
557.718 234.144 m
557.718 232.925 l
558.780 232.925 l
558.780 234.144 l
557.718 234.144 l
h
557.718 241.519 m
557.718 235.300 l
558.780 235.300 l
558.780 241.519 l
557.718 241.519 l
h
560.384 241.519 m
560.384 235.300 l
561.321 235.300 l
561.321 236.175 l
561.780 235.498 562.441 235.159 563.306 235.159  c
563.681 235.159 564.027 235.227 564.345 235.362  c
564.662 235.498 564.899 235.675 565.056 235.894  c
565.212 236.112 565.321 236.367 565.384 236.659  c
565.415 236.857 565.431 237.201 565.431 237.690  c
565.431 241.519 l
564.384 241.519 l
564.384 237.737 l
564.384 237.300 564.342 236.977 564.259 236.769  c
564.175 236.560 564.030 236.391 563.821 236.261  c
563.613 236.131 563.368 236.065 563.087 236.065  c
562.639 236.065 562.251 236.209 561.923 236.495  c
561.595 236.782 561.431 237.321 561.431 238.112  c
561.431 241.519 l
560.384 241.519 l
h
566.854 242.034 m
567.886 242.190 l
567.927 242.503 568.047 242.732 568.245 242.878  c
568.505 243.076 568.860 243.175 569.307 243.175  c
569.797 243.175 570.175 243.076 570.440 242.878  c
570.706 242.680 570.886 242.409 570.979 242.065  c
571.042 241.847 571.068 241.394 571.057 240.706  c
570.599 241.248 570.026 241.519 569.339 241.519  c
568.485 241.519 567.823 241.209 567.354 240.589  c
566.886 239.969 566.651 239.232 566.651 238.378  c
566.651 237.784 566.758 237.235 566.972 236.729  c
567.185 236.224 567.495 235.836 567.901 235.565  c
568.307 235.295 568.787 235.159 569.339 235.159  c
570.078 235.159 570.688 235.456 571.167 236.050  c
571.167 235.300 l
572.136 235.300 l
572.136 240.675 l
572.136 241.644 572.037 242.331 571.839 242.737  c
571.641 243.144 571.328 243.464 570.901 243.698  c
570.474 243.933 569.948 244.050 569.323 244.050  c
568.584 244.050 567.985 243.883 567.526 243.550  c
567.068 243.216 566.844 242.711 566.854 242.034  c
h
567.729 238.300 m
567.729 239.112 567.891 239.706 568.214 240.081  c
568.537 240.456 568.943 240.644 569.432 240.644  c
569.922 240.644 570.331 240.456 570.659 240.081  c
570.987 239.706 571.151 239.123 571.151 238.331  c
571.151 237.571 570.982 236.998 570.643 236.612  c
570.305 236.227 569.896 236.034 569.417 236.034  c
568.948 236.034 568.550 236.224 568.222 236.604  c
567.893 236.985 567.729 237.550 567.729 238.300  c
h
576.643 239.659 m
577.675 239.503 l
577.737 239.920 577.901 240.237 578.167 240.456  c
578.432 240.675 578.810 240.784 579.300 240.784  c
579.779 240.784 580.136 240.688 580.370 240.495  c
580.604 240.302 580.722 240.071 580.722 239.800  c
580.722 239.560 580.617 239.373 580.409 239.237  c
580.263 239.144 579.904 239.024 579.331 238.878  c
578.560 238.680 578.026 238.511 577.729 238.370  c
577.432 238.229 577.206 238.034 577.050 237.784  c
576.893 237.534 576.815 237.253 576.815 236.940  c
576.815 236.670 576.878 236.414 577.003 236.175  c
577.128 235.935 577.300 235.737 577.518 235.581  c
577.685 235.466 577.909 235.367 578.190 235.284  c
578.472 235.201 578.779 235.159 579.112 235.159  c
579.591 235.159 580.016 235.229 580.386 235.370  c
580.755 235.511 581.029 235.701 581.206 235.940  c
581.383 236.180 581.503 236.498 581.565 236.894  c
580.534 237.034 l
580.492 236.722 580.360 236.474 580.136 236.292  c
579.912 236.110 579.591 236.019 579.175 236.019  c
578.696 236.019 578.352 236.099 578.143 236.261  c
577.935 236.422 577.831 236.612 577.831 236.831  c
577.831 236.966 577.873 237.086 577.956 237.190  c
578.050 237.305 578.185 237.399 578.362 237.472  c
578.466 237.513 578.779 237.602 579.300 237.737  c
580.050 237.946 580.571 238.112 580.862 238.237  c
581.154 238.362 581.383 238.545 581.550 238.784  c
581.716 239.024 581.800 239.326 581.800 239.690  c
581.800 240.045 581.698 240.375 581.495 240.683  c
581.292 240.990 580.998 241.229 580.612 241.401  c
580.227 241.573 579.789 241.659 579.300 241.659  c
578.487 241.659 577.870 241.490 577.448 241.151  c
577.026 240.813 576.758 240.315 576.643 239.659  c
h
585.362 240.581 m
585.518 241.503 l
585.216 241.565 584.951 241.597 584.722 241.597  c
584.336 241.597 584.039 241.537 583.831 241.417  c
583.623 241.297 583.474 241.138 583.386 240.940  c
583.297 240.742 583.253 240.326 583.253 239.690  c
583.253 236.112 l
582.487 236.112 l
582.487 235.300 l
583.253 235.300 l
583.253 233.753 l
584.300 233.128 l
584.300 235.300 l
585.362 235.300 l
585.362 236.112 l
584.300 236.112 l
584.300 239.753 l
584.300 240.055 584.318 240.248 584.354 240.331  c
584.391 240.414 584.451 240.482 584.534 240.534  c
584.617 240.586 584.737 240.612 584.893 240.612  c
585.018 240.612 585.175 240.602 585.362 240.581  c
h
590.462 240.753 m
590.066 241.086 589.688 241.321 589.329 241.456  c
588.970 241.591 588.582 241.659 588.165 241.659  c
587.477 241.659 586.951 241.492 586.587 241.159  c
586.222 240.826 586.040 240.399 586.040 239.878  c
586.040 239.576 586.108 239.297 586.243 239.042  c
586.378 238.787 586.561 238.584 586.790 238.433  c
587.019 238.282 587.274 238.170 587.556 238.097  c
587.753 238.034 588.066 237.977 588.493 237.925  c
589.337 237.831 589.962 237.711 590.368 237.565  c
590.368 237.420 590.368 237.331 590.368 237.300  c
590.368 236.862 590.269 236.555 590.071 236.378  c
589.800 236.149 589.399 236.034 588.868 236.034  c
588.378 236.034 588.014 236.120 587.774 236.292  c
587.535 236.464 587.358 236.769 587.243 237.206  c
586.212 237.065 l
586.306 236.628 586.462 236.274 586.681 236.003  c
586.899 235.732 587.212 235.524 587.618 235.378  c
588.024 235.232 588.493 235.159 589.024 235.159  c
589.556 235.159 589.988 235.222 590.321 235.347  c
590.655 235.472 590.899 235.628 591.056 235.815  c
591.212 236.003 591.321 236.242 591.384 236.534  c
591.415 236.711 591.431 237.034 591.431 237.503  c
591.431 238.909 l
591.431 239.888 591.454 240.508 591.501 240.769  c
591.548 241.029 591.639 241.279 591.774 241.519  c
590.665 241.519 l
590.561 241.300 590.493 241.045 590.462 240.753  c
h
590.368 238.394 m
589.983 238.550 589.410 238.685 588.649 238.800  c
588.212 238.862 587.905 238.933 587.727 239.011  c
587.550 239.089 587.412 239.201 587.313 239.347  c
587.214 239.492 587.165 239.659 587.165 239.847  c
587.165 240.128 587.272 240.362 587.485 240.550  c
587.699 240.737 588.009 240.831 588.415 240.831  c
588.821 240.831 589.183 240.742 589.501 240.565  c
589.819 240.388 590.050 240.144 590.196 239.831  c
590.311 239.591 590.368 239.242 590.368 238.784  c
590.368 238.394 l
h
595.370 240.581 m
595.526 241.503 l
595.224 241.565 594.959 241.597 594.729 241.597  c
594.344 241.597 594.047 241.537 593.839 241.417  c
593.630 241.297 593.482 241.138 593.393 240.940  c
593.305 240.742 593.261 240.326 593.261 239.690  c
593.261 236.112 l
592.495 236.112 l
592.495 235.300 l
593.261 235.300 l
593.261 233.753 l
594.307 233.128 l
594.307 235.300 l
595.370 235.300 l
595.370 236.112 l
594.307 236.112 l
594.307 239.753 l
594.307 240.055 594.326 240.248 594.362 240.331  c
594.399 240.414 594.459 240.482 594.542 240.534  c
594.625 240.586 594.745 240.612 594.901 240.612  c
595.026 240.612 595.182 240.602 595.370 240.581  c
h
600.657 239.519 m
601.751 239.644 l
601.584 240.279 601.266 240.774 600.798 241.128  c
600.329 241.482 599.735 241.659 599.016 241.659  c
598.110 241.659 597.389 241.378 596.852 240.815  c
596.316 240.253 596.048 239.466 596.048 238.456  c
596.048 237.414 596.319 236.604 596.860 236.026  c
597.402 235.448 598.100 235.159 598.954 235.159  c
599.787 235.159 600.467 235.440 600.993 236.003  c
601.519 236.565 601.782 237.362 601.782 238.394  c
601.782 238.456 601.782 238.550 601.782 238.675  c
597.141 238.675 l
597.183 239.362 597.376 239.886 597.720 240.245  c
598.063 240.604 598.496 240.784 599.016 240.784  c
599.402 240.784 599.733 240.683 600.009 240.479  c
600.285 240.276 600.501 239.956 600.657 239.519  c
h
597.204 237.815 m
600.673 237.815 l
600.631 237.284 600.501 236.888 600.282 236.628  c
599.938 236.222 599.501 236.019 598.970 236.019  c
598.480 236.019 598.071 236.180 597.743 236.503  c
597.415 236.826 597.235 237.263 597.204 237.815  c
h
f
2 J
10.0000 M
1.00000 .800000 0.00000 RG
newpath
484.919 280.454 m
484.919 288.738 478.203 295.454 469.919 295.454  c
461.635 295.454 454.919 288.738 454.919 280.454  c
454.919 272.170 461.635 265.454 469.919 265.454  c
478.203 265.454 484.919 272.170 484.919 280.454  c
h
f
0 J
1.45000 M
0.00000 0.00000 0.00000 RG
newpath
484.919 280.454 m
484.919 288.738 478.203 295.454 469.919 295.454  c
461.635 295.454 454.919 288.738 454.919 280.454  c
454.919 272.170 461.635 265.454 469.919 265.454  c
478.203 265.454 484.919 272.170 484.919 280.454  c
h
S
2 J
10.0000 M
0 J
1.45000 M
newpath
503.476 286.817 m
503.476 278.224 l
504.633 278.224 l
509.148 284.974 l
509.148 278.224 l
510.242 278.224 l
510.242 286.817 l
509.070 286.817 l
504.555 280.067 l
504.555 286.817 l
503.476 286.817 l
h
511.627 283.708 m
511.627 282.552 511.945 281.698 512.580 281.145  c
513.111 280.687 513.762 280.458 514.533 280.458  c
515.387 280.458 516.088 280.737 516.635 281.294  c
517.182 281.851 517.455 282.625 517.455 283.614  c
517.455 284.416 517.335 285.047 517.096 285.505  c
516.856 285.963 516.504 286.320 516.041 286.575  c
515.577 286.830 515.075 286.958 514.533 286.958  c
513.668 286.958 512.968 286.679 512.432 286.122  c
511.895 285.565 511.627 284.760 511.627 283.708  c
h
512.705 283.708 m
512.705 284.500 512.879 285.093 513.228 285.489  c
513.577 285.885 514.012 286.083 514.533 286.083  c
515.064 286.083 515.502 285.885 515.846 285.489  c
516.189 285.093 516.361 284.489 516.361 283.677  c
516.361 282.906 516.187 282.323 515.838 281.927  c
515.489 281.531 515.054 281.333 514.533 281.333  c
514.012 281.333 513.577 281.528 513.228 281.919  c
512.879 282.310 512.705 282.906 512.705 283.708  c
h
518.691 286.817 m
518.691 280.599 l
519.629 280.599 l
519.629 281.474 l
520.087 280.797 520.749 280.458 521.613 280.458  c
521.988 280.458 522.335 280.526 522.652 280.661  c
522.970 280.797 523.207 280.974 523.363 281.192  c
523.519 281.411 523.629 281.666 523.691 281.958  c
523.723 282.156 523.738 282.500 523.738 282.989  c
523.738 286.817 l
522.691 286.817 l
522.691 283.036 l
522.691 282.599 522.650 282.276 522.566 282.067  c
522.483 281.859 522.337 281.690 522.129 281.560  c
521.920 281.429 521.676 281.364 521.394 281.364  c
520.946 281.364 520.558 281.507 520.230 281.794  c
519.902 282.080 519.738 282.619 519.738 283.411  c
519.738 286.817 l
518.691 286.817 l
h
524.943 284.239 m
524.943 283.177 l
528.193 283.177 l
528.193 284.239 l
524.943 284.239 l
h
533.424 286.052 m
533.028 286.385 532.650 286.619 532.291 286.755  c
531.932 286.890 531.543 286.958 531.127 286.958  c
530.439 286.958 529.913 286.791 529.549 286.458  c
529.184 286.125 529.002 285.698 529.002 285.177  c
529.002 284.875 529.070 284.596 529.205 284.341  c
529.340 284.086 529.523 283.882 529.752 283.731  c
529.981 283.580 530.236 283.468 530.517 283.395  c
530.715 283.333 531.028 283.276 531.455 283.224  c
532.299 283.130 532.924 283.010 533.330 282.864  c
533.330 282.718 533.330 282.630 533.330 282.599  c
533.330 282.161 533.231 281.854 533.033 281.677  c
532.762 281.448 532.361 281.333 531.830 281.333  c
531.340 281.333 530.976 281.419 530.736 281.591  c
530.497 281.763 530.320 282.067 530.205 282.505  c
529.174 282.364 l
529.267 281.927 529.424 281.573 529.642 281.302  c
529.861 281.031 530.174 280.823 530.580 280.677  c
530.986 280.531 531.455 280.458 531.986 280.458  c
532.517 280.458 532.950 280.520 533.283 280.645  c
533.616 280.770 533.861 280.927 534.017 281.114  c
534.174 281.302 534.283 281.541 534.346 281.833  c
534.377 282.010 534.392 282.333 534.392 282.802  c
534.392 284.208 l
534.392 285.187 534.416 285.807 534.463 286.067  c
534.510 286.328 534.601 286.578 534.736 286.817  c
533.627 286.817 l
533.523 286.599 533.455 286.343 533.424 286.052  c
h
533.330 283.692 m
532.945 283.849 532.372 283.984 531.611 284.099  c
531.174 284.161 530.866 284.231 530.689 284.310  c
530.512 284.388 530.374 284.500 530.275 284.645  c
530.176 284.791 530.127 284.958 530.127 285.145  c
530.127 285.427 530.234 285.661 530.447 285.849  c
530.661 286.036 530.971 286.130 531.377 286.130  c
531.783 286.130 532.145 286.041 532.463 285.864  c
532.780 285.687 533.012 285.442 533.158 285.130  c
533.273 284.890 533.330 284.541 533.330 284.083  c
533.330 283.692 l
h
540.098 284.536 m
541.129 284.677 l
541.014 285.385 540.723 285.942 540.254 286.349  c
539.785 286.755 539.212 286.958 538.535 286.958  c
537.681 286.958 536.996 286.679 536.480 286.122  c
535.965 285.565 535.707 284.765 535.707 283.724  c
535.707 283.057 535.819 282.471 536.043 281.966  c
536.267 281.461 536.605 281.083 537.058 280.833  c
537.512 280.583 538.009 280.458 538.551 280.458  c
539.217 280.458 539.767 280.627 540.199 280.966  c
540.631 281.304 540.910 281.791 541.035 282.427  c
540.004 282.583 l
539.910 282.166 539.738 281.851 539.488 281.638  c
539.238 281.424 538.936 281.317 538.582 281.317  c
538.051 281.317 537.618 281.507 537.285 281.888  c
536.952 282.268 536.785 282.869 536.785 283.692  c
536.785 284.536 536.946 285.145 537.269 285.520  c
537.592 285.895 538.009 286.083 538.519 286.083  c
538.936 286.083 539.282 285.958 539.558 285.708  c
539.835 285.458 540.014 285.067 540.098 284.536  c
h
546.098 284.536 m
547.129 284.677 l
547.014 285.385 546.723 285.942 546.254 286.349  c
545.785 286.755 545.212 286.958 544.535 286.958  c
543.681 286.958 542.996 286.679 542.480 286.122  c
541.965 285.565 541.707 284.765 541.707 283.724  c
541.707 283.057 541.819 282.471 542.043 281.966  c
542.267 281.461 542.605 281.083 543.058 280.833  c
543.512 280.583 544.009 280.458 544.551 280.458  c
545.217 280.458 545.767 280.627 546.199 280.966  c
546.631 281.304 546.910 281.791 547.035 282.427  c
546.004 282.583 l
545.910 282.166 545.738 281.851 545.488 281.638  c
545.238 281.424 544.936 281.317 544.582 281.317  c
544.051 281.317 543.618 281.507 543.285 281.888  c
542.952 282.268 542.785 282.869 542.785 283.692  c
542.785 284.536 542.946 285.145 543.269 285.520  c
543.592 285.895 544.009 286.083 544.519 286.083  c
544.936 286.083 545.282 285.958 545.558 285.708  c
545.835 285.458 546.014 285.067 546.098 284.536  c
h
552.285 284.817 m
553.379 284.942 l
553.212 285.578 552.894 286.073 552.426 286.427  c
551.957 286.781 551.363 286.958 550.644 286.958  c
549.738 286.958 549.017 286.677 548.480 286.114  c
547.944 285.552 547.676 284.765 547.676 283.755  c
547.676 282.713 547.946 281.903 548.488 281.325  c
549.030 280.747 549.728 280.458 550.582 280.458  c
551.415 280.458 552.095 280.739 552.621 281.302  c
553.147 281.864 553.410 282.661 553.410 283.692  c
553.410 283.755 553.410 283.849 553.410 283.974  c
548.769 283.974 l
548.811 284.661 549.004 285.185 549.348 285.544  c
549.691 285.903 550.124 286.083 550.644 286.083  c
551.030 286.083 551.361 285.981 551.637 285.778  c
551.913 285.575 552.129 285.255 552.285 284.817  c
h
548.832 283.114 m
552.301 283.114 l
552.259 282.583 552.129 282.187 551.910 281.927  c
551.566 281.520 551.129 281.317 550.598 281.317  c
550.108 281.317 549.699 281.479 549.371 281.802  c
549.043 282.125 548.863 282.562 548.832 283.114  c
h
554.709 289.208 m
554.709 280.599 l
555.662 280.599 l
555.662 281.395 l
555.891 281.083 556.149 280.849 556.435 280.692  c
556.722 280.536 557.068 280.458 557.474 280.458  c
558.006 280.458 558.474 280.593 558.881 280.864  c
559.287 281.135 559.592 281.520 559.795 282.020  c
559.998 282.520 560.099 283.067 560.099 283.661  c
560.099 284.297 559.988 284.869 559.764 285.380  c
559.540 285.890 559.209 286.281 558.771 286.552  c
558.334 286.823 557.876 286.958 557.396 286.958  c
557.042 286.958 556.724 286.882 556.443 286.731  c
556.162 286.580 555.933 286.395 555.756 286.177  c
555.756 289.208 l
554.709 289.208 l
h
555.662 283.739 m
555.662 284.541 555.823 285.132 556.146 285.513  c
556.469 285.893 556.860 286.083 557.318 286.083  c
557.787 286.083 558.188 285.885 558.521 285.489  c
558.855 285.093 559.021 284.479 559.021 283.645  c
559.021 282.854 558.860 282.263 558.537 281.872  c
558.214 281.481 557.823 281.286 557.365 281.286  c
556.917 281.286 556.521 281.494 556.178 281.911  c
555.834 282.328 555.662 282.937 555.662 283.739  c
h
563.680 285.880 m
563.836 286.802 l
563.534 286.864 563.268 286.895 563.039 286.895  c
562.654 286.895 562.357 286.836 562.148 286.716  c
561.940 286.596 561.792 286.437 561.703 286.239  c
561.614 286.041 561.570 285.625 561.570 284.989  c
561.570 281.411 l
560.805 281.411 l
560.805 280.599 l
561.570 280.599 l
561.570 279.052 l
562.617 278.427 l
562.617 280.599 l
563.680 280.599 l
563.680 281.411 l
562.617 281.411 l
562.617 285.052 l
562.617 285.354 562.635 285.547 562.672 285.630  c
562.708 285.713 562.768 285.781 562.851 285.833  c
562.935 285.885 563.055 285.911 563.211 285.911  c
563.336 285.911 563.492 285.901 563.680 285.880  c
h
564.717 279.442 m
564.717 278.224 l
565.779 278.224 l
565.779 279.442 l
564.717 279.442 l
h
564.717 286.817 m
564.717 280.599 l
565.779 280.599 l
565.779 286.817 l
564.717 286.817 l
h
567.383 286.817 m
567.383 280.599 l
568.320 280.599 l
568.320 281.474 l
568.779 280.797 569.440 280.458 570.305 280.458  c
570.680 280.458 571.026 280.526 571.344 280.661  c
571.661 280.797 571.898 280.974 572.055 281.192  c
572.211 281.411 572.320 281.666 572.383 281.958  c
572.414 282.156 572.430 282.500 572.430 282.989  c
572.430 286.817 l
571.383 286.817 l
571.383 283.036 l
571.383 282.599 571.341 282.276 571.258 282.067  c
571.174 281.859 571.029 281.690 570.820 281.560  c
570.612 281.429 570.367 281.364 570.086 281.364  c
569.638 281.364 569.250 281.507 568.922 281.794  c
568.594 282.080 568.430 282.619 568.430 283.411  c
568.430 286.817 l
567.383 286.817 l
h
573.853 287.333 m
574.885 287.489 l
574.926 287.802 575.046 288.031 575.244 288.177  c
575.504 288.375 575.859 288.474 576.307 288.474  c
576.796 288.474 577.174 288.375 577.439 288.177  c
577.705 287.979 577.885 287.708 577.978 287.364  c
578.041 287.145 578.067 286.692 578.057 286.005  c
577.598 286.547 577.025 286.817 576.338 286.817  c
575.484 286.817 574.822 286.507 574.353 285.888  c
573.885 285.268 573.650 284.531 573.650 283.677  c
573.650 283.083 573.757 282.533 573.971 282.028  c
574.184 281.523 574.494 281.135 574.900 280.864  c
575.307 280.593 575.786 280.458 576.338 280.458  c
577.077 280.458 577.687 280.755 578.166 281.349  c
578.166 280.599 l
579.135 280.599 l
579.135 285.974 l
579.135 286.942 579.036 287.630 578.838 288.036  c
578.640 288.442 578.327 288.763 577.900 288.997  c
577.473 289.231 576.947 289.349 576.322 289.349  c
575.583 289.349 574.984 289.182 574.525 288.849  c
574.067 288.515 573.843 288.010 573.853 287.333  c
h
574.728 283.599 m
574.728 284.411 574.890 285.005 575.213 285.380  c
575.536 285.755 575.942 285.942 576.432 285.942  c
576.921 285.942 577.330 285.755 577.658 285.380  c
577.986 285.005 578.150 284.422 578.150 283.630  c
578.150 282.869 577.981 282.297 577.642 281.911  c
577.304 281.526 576.895 281.333 576.416 281.333  c
575.947 281.333 575.549 281.523 575.221 281.903  c
574.892 282.283 574.728 282.849 574.728 283.599  c
h
583.642 284.958 m
584.674 284.802 l
584.736 285.218 584.900 285.536 585.166 285.755  c
585.432 285.974 585.809 286.083 586.299 286.083  c
586.778 286.083 587.135 285.987 587.369 285.794  c
587.603 285.601 587.721 285.369 587.721 285.099  c
587.721 284.859 587.616 284.672 587.408 284.536  c
587.262 284.442 586.903 284.323 586.330 284.177  c
585.559 283.979 585.025 283.810 584.728 283.669  c
584.432 283.528 584.205 283.333 584.049 283.083  c
583.892 282.833 583.814 282.552 583.814 282.239  c
583.814 281.968 583.877 281.713 584.002 281.474  c
584.127 281.234 584.299 281.036 584.517 280.880  c
584.684 280.765 584.908 280.666 585.189 280.583  c
585.471 280.500 585.778 280.458 586.111 280.458  c
586.590 280.458 587.015 280.528 587.385 280.669  c
587.754 280.810 588.028 281.000 588.205 281.239  c
588.382 281.479 588.502 281.797 588.564 282.192  c
587.533 282.333 l
587.491 282.020 587.359 281.773 587.135 281.591  c
586.911 281.408 586.590 281.317 586.174 281.317  c
585.695 281.317 585.351 281.398 585.142 281.560  c
584.934 281.721 584.830 281.911 584.830 282.130  c
584.830 282.265 584.872 282.385 584.955 282.489  c
585.049 282.604 585.184 282.698 585.361 282.770  c
585.465 282.812 585.778 282.901 586.299 283.036  c
587.049 283.244 587.570 283.411 587.861 283.536  c
588.153 283.661 588.382 283.843 588.549 284.083  c
588.715 284.323 588.799 284.625 588.799 284.989  c
588.799 285.343 588.697 285.674 588.494 285.981  c
588.291 286.289 587.997 286.528 587.611 286.700  c
587.226 286.872 586.788 286.958 586.299 286.958  c
585.486 286.958 584.869 286.789 584.447 286.450  c
584.025 286.112 583.757 285.614 583.642 284.958  c
h
592.361 285.880 m
592.517 286.802 l
592.215 286.864 591.950 286.895 591.721 286.895  c
591.335 286.895 591.038 286.836 590.830 286.716  c
590.622 286.596 590.473 286.437 590.385 286.239  c
590.296 286.041 590.252 285.625 590.252 284.989  c
590.252 281.411 l
589.486 281.411 l
589.486 280.599 l
590.252 280.599 l
590.252 279.052 l
591.299 278.427 l
591.299 280.599 l
592.361 280.599 l
592.361 281.411 l
591.299 281.411 l
591.299 285.052 l
591.299 285.354 591.317 285.547 591.353 285.630  c
591.390 285.713 591.450 285.781 591.533 285.833  c
591.616 285.885 591.736 285.911 591.892 285.911  c
592.017 285.911 592.174 285.901 592.361 285.880  c
h
597.461 286.052 m
597.065 286.385 596.687 286.619 596.328 286.755  c
595.969 286.890 595.581 286.958 595.164 286.958  c
594.476 286.958 593.950 286.791 593.586 286.458  c
593.221 286.125 593.039 285.698 593.039 285.177  c
593.039 284.875 593.107 284.596 593.242 284.341  c
593.377 284.086 593.560 283.882 593.789 283.731  c
594.018 283.580 594.273 283.468 594.555 283.395  c
594.752 283.333 595.065 283.276 595.492 283.224  c
596.336 283.130 596.961 283.010 597.367 282.864  c
597.367 282.718 597.367 282.630 597.367 282.599  c
597.367 282.161 597.268 281.854 597.070 281.677  c
596.799 281.448 596.398 281.333 595.867 281.333  c
595.377 281.333 595.013 281.419 594.773 281.591  c
594.534 281.763 594.357 282.067 594.242 282.505  c
593.211 282.364 l
593.305 281.927 593.461 281.573 593.680 281.302  c
593.898 281.031 594.211 280.823 594.617 280.677  c
595.023 280.531 595.492 280.458 596.023 280.458  c
596.555 280.458 596.987 280.520 597.320 280.645  c
597.654 280.770 597.898 280.927 598.055 281.114  c
598.211 281.302 598.320 281.541 598.383 281.833  c
598.414 282.010 598.430 282.333 598.430 282.802  c
598.430 284.208 l
598.430 285.187 598.453 285.807 598.500 286.067  c
598.547 286.328 598.638 286.578 598.773 286.817  c
597.664 286.817 l
597.560 286.599 597.492 286.343 597.461 286.052  c
h
597.367 283.692 m
596.982 283.849 596.409 283.984 595.648 284.099  c
595.211 284.161 594.904 284.231 594.726 284.310  c
594.549 284.388 594.411 284.500 594.312 284.645  c
594.213 284.791 594.164 284.958 594.164 285.145  c
594.164 285.427 594.271 285.661 594.484 285.849  c
594.698 286.036 595.008 286.130 595.414 286.130  c
595.820 286.130 596.182 286.041 596.500 285.864  c
596.818 285.687 597.049 285.442 597.195 285.130  c
597.310 284.890 597.367 284.541 597.367 284.083  c
597.367 283.692 l
h
602.369 285.880 m
602.525 286.802 l
602.223 286.864 601.958 286.895 601.728 286.895  c
601.343 286.895 601.046 286.836 600.838 286.716  c
600.629 286.596 600.481 286.437 600.392 286.239  c
600.304 286.041 600.260 285.625 600.260 284.989  c
600.260 281.411 l
599.494 281.411 l
599.494 280.599 l
600.260 280.599 l
600.260 279.052 l
601.307 278.427 l
601.307 280.599 l
602.369 280.599 l
602.369 281.411 l
601.307 281.411 l
601.307 285.052 l
601.307 285.354 601.325 285.547 601.361 285.630  c
601.398 285.713 601.458 285.781 601.541 285.833  c
601.624 285.885 601.744 285.911 601.900 285.911  c
602.025 285.911 602.182 285.901 602.369 285.880  c
h
607.656 284.817 m
608.750 284.942 l
608.583 285.578 608.266 286.073 607.797 286.427  c
607.328 286.781 606.734 286.958 606.016 286.958  c
605.109 286.958 604.388 286.677 603.851 286.114  c
603.315 285.552 603.047 284.765 603.047 283.755  c
603.047 282.713 603.318 281.903 603.859 281.325  c
604.401 280.747 605.099 280.458 605.953 280.458  c
606.786 280.458 607.466 280.739 607.992 281.302  c
608.518 281.864 608.781 282.661 608.781 283.692  c
608.781 283.755 608.781 283.849 608.781 283.974  c
604.141 283.974 l
604.182 284.661 604.375 285.185 604.719 285.544  c
605.062 285.903 605.495 286.083 606.016 286.083  c
606.401 286.083 606.732 285.981 607.008 285.778  c
607.284 285.575 607.500 285.255 607.656 284.817  c
h
604.203 283.114 m
607.672 283.114 l
607.630 282.583 607.500 282.187 607.281 281.927  c
606.937 281.520 606.500 281.317 605.969 281.317  c
605.479 281.317 605.070 281.479 604.742 281.802  c
604.414 282.125 604.234 282.562 604.203 283.114  c
h
f
2 J
10.0000 M
1.00000 .800000 0.00000 RG
newpath
489.000 107.000 m
493.500 99.7942 l
501.990 99.5000 l
498.000 92.0000 l
501.990 84.5000 l
493.500 84.2058 l
489.000 77.0000 l
484.500 84.2058 l
476.010 84.5000 l
480.000 92.0000 l
476.010 99.5000 l
484.500 99.7942 l
h
f*
0 J
1.45000 M
0.00000 0.00000 0.00000 RG
newpath
489.000 107.000 m
493.500 99.7942 l
501.990 99.5000 l
498.000 92.0000 l
501.990 84.5000 l
493.500 84.2058 l
489.000 77.0000 l
484.500 84.2058 l
476.010 84.5000 l
480.000 92.0000 l
476.010 99.5000 l
484.500 99.7942 l
h
S
2 J
10.0000 M
1.00000 .800000 0.00000 RG
newpath
82.0000 145.000 m
82.0000 153.284 75.2843 160.000 67.0000 160.000  c
58.7157 160.000 52.0000 153.284 52.0000 145.000  c
52.0000 136.716 58.7157 130.000 67.0000 130.000  c
75.2843 130.000 82.0000 136.716 82.0000 145.000  c
h
f
0 J
1.45000 M
0.00000 0.00000 0.00000 RG
newpath
82.0000 145.000 m
82.0000 153.284 75.2843 160.000 67.0000 160.000  c
58.7157 160.000 52.0000 153.284 52.0000 145.000  c
52.0000 136.716 58.7157 130.000 67.0000 130.000  c
75.2843 130.000 82.0000 136.716 82.0000 145.000  c
h
S
2 J
10.0000 M
0 J
1.45000 M
newpath
32.8799 123.948 m
33.9424 123.854 l
33.9945 124.292 34.1143 124.646 34.3018 124.917  c
34.4893 125.188 34.7783 125.409 35.1689 125.581  c
35.5596 125.753 35.9997 125.839 36.4893 125.839  c
36.9163 125.839 37.2965 125.774 37.6299 125.644  c
37.9632 125.513 38.2106 125.336 38.3721 125.112  c
38.5335 124.888 38.6143 124.646 38.6143 124.386  c
38.6143 124.115 38.5361 123.878 38.3799 123.675  c
38.2236 123.472 37.9684 123.302 37.6143 123.167  c
37.3747 123.073 36.8617 122.933 36.0752 122.745  c
35.2887 122.558 34.7393 122.381 34.4268 122.214  c
34.0101 121.995 33.7028 121.727 33.5049 121.409  c
33.3070 121.091 33.2080 120.735 33.2080 120.339  c
33.2080 119.912 33.3304 119.508 33.5752 119.128  c
33.8200 118.748 34.1794 118.461 34.6533 118.269  c
35.1273 118.076 35.6507 117.979 36.2236 117.979  c
36.8590 117.979 37.4215 118.081 37.9111 118.284  c
38.4007 118.487 38.7757 118.789 39.0361 119.190  c
39.2965 119.591 39.4372 120.042 39.4580 120.542  c
38.3643 120.620 l
38.3018 120.078 38.1012 119.670 37.7627 119.394  c
37.4242 119.118 36.9268 118.979 36.2705 118.979  c
35.5830 118.979 35.0830 119.104 34.7705 119.354  c
34.4580 119.604 34.3018 119.907 34.3018 120.261  c
34.3018 120.573 34.4111 120.828 34.6299 121.026  c
34.8486 121.224 35.4189 121.427 36.3408 121.636  c
37.2627 121.844 37.8955 122.026 38.2393 122.183  c
38.7393 122.422 39.1090 122.716 39.3486 123.065  c
39.5882 123.414 39.7080 123.823 39.7080 124.292  c
39.7080 124.750 39.5778 125.180 39.3174 125.581  c
39.0570 125.982 38.6820 126.295 38.1924 126.519  c
37.7028 126.743 37.1507 126.854 36.5361 126.854  c
35.7549 126.854 35.1012 126.743 34.5752 126.519  c
34.0492 126.295 33.6377 125.953 33.3408 125.495  c
33.0439 125.037 32.8903 124.521 32.8799 123.948  c
h
43.4463 126.714 m
43.4463 119.136 l
40.6182 119.136 l
40.6182 118.120 l
47.4307 118.120 l
47.4307 119.136 l
44.5869 119.136 l
44.5869 126.714 l
43.4463 126.714 l
h
47.6514 126.714 m
50.9482 118.120 l
52.1670 118.120 l
55.6826 126.714 l
54.4014 126.714 l
53.3857 124.104 l
49.8076 124.104 l
48.8545 126.714 l
47.6514 126.714 l
h
50.1357 123.183 m
53.0420 123.183 l
52.1514 120.808 l
51.8701 120.089 51.6670 119.495 51.5420 119.026  c
51.4274 119.578 51.2712 120.125 51.0732 120.667  c
50.1357 123.183 l
h
56.6084 126.714 m
56.6084 118.120 l
60.4209 118.120 l
61.1917 118.120 61.7751 118.198 62.1709 118.354  c
62.5667 118.511 62.8844 118.784 63.1240 119.175  c
63.3636 119.565 63.4834 119.995 63.4834 120.464  c
63.4834 121.078 63.2855 121.594 62.8896 122.011  c
62.4938 122.427 61.8844 122.693 61.0615 122.808  c
61.3636 122.953 61.5928 123.094 61.7490 123.229  c
62.0824 123.532 62.3949 123.912 62.6865 124.370  c
64.1865 126.714 l
62.7490 126.714 l
61.6240 124.933 l
61.2907 124.412 61.0173 124.016 60.8037 123.745  c
60.5902 123.474 60.3975 123.284 60.2256 123.175  c
60.0537 123.065 59.8792 122.985 59.7021 122.933  c
59.5771 122.912 59.3688 122.901 59.0771 122.901  c
57.7490 122.901 l
57.7490 126.714 l
56.6084 126.714 l
h
57.7490 121.917 m
60.2021 121.917 l
60.7126 121.917 61.1162 121.862 61.4131 121.753  c
61.7100 121.644 61.9339 121.472 62.0850 121.237  c
62.2360 121.003 62.3115 120.745 62.3115 120.464  c
62.3115 120.058 62.1631 119.724 61.8662 119.464  c
61.5693 119.203 61.1032 119.073 60.4678 119.073  c
57.7490 119.073 l
57.7490 121.917 l
h
67.4463 126.714 m
67.4463 119.136 l
64.6182 119.136 l
64.6182 118.120 l
71.4307 118.120 l
71.4307 119.136 l
68.5869 119.136 l
68.5869 126.714 l
67.4463 126.714 l
h
f
2 J
10.0000 M
1.00000 .800000 0.00000 RG
newpath
252.000 38.0000 m
252.000 46.2843 245.284 53.0000 237.000 53.0000  c
228.716 53.0000 222.000 46.2843 222.000 38.0000  c
222.000 29.7157 228.716 23.0000 237.000 23.0000  c
245.284 23.0000 252.000 29.7157 252.000 38.0000  c
h
f
0 J
1.45000 M
0.00000 0.00000 0.00000 RG
newpath
252.000 38.0000 m
252.000 46.2843 245.284 53.0000 237.000 53.0000  c
228.716 53.0000 222.000 46.2843 222.000 38.0000  c
222.000 29.7157 228.716 23.0000 237.000 23.0000  c
245.284 23.0000 252.000 29.7157 252.000 38.0000  c
h
S
2 J
10.0000 M
1.00000 .800000 0.00000 RG
newpath
293.000 169.000 m
293.000 177.284 286.284 184.000 278.000 184.000  c
269.716 184.000 263.000 177.284 263.000 169.000  c
263.000 160.716 269.716 154.000 278.000 154.000  c
286.284 154.000 293.000 160.716 293.000 169.000  c
h
f
0 J
1.45000 M
0.00000 0.00000 0.00000 RG
newpath
293.000 169.000 m
293.000 177.284 286.284 184.000 278.000 184.000  c
269.716 184.000 263.000 177.284 263.000 169.000  c
263.000 160.716 269.716 154.000 278.000 154.000  c
286.284 154.000 293.000 160.716 293.000 169.000  c
h
S
2 J
10.0000 M
1.00000 .800000 0.00000 RG
newpath
468.000 191.000 m
472.500 183.794 l
480.990 183.500 l
477.000 176.000 l
480.990 168.500 l
472.500 168.206 l
468.000 161.000 l
463.500 168.206 l
455.010 168.500 l
459.000 176.000 l
455.010 183.500 l
463.500 183.794 l
h
f*
0 J
1.45000 M
0.00000 0.00000 0.00000 RG
newpath
468.000 191.000 m
472.500 183.794 l
480.990 183.500 l
477.000 176.000 l
480.990 168.500 l
472.500 168.206 l
468.000 161.000 l
463.500 168.206 l
455.010 168.500 l
459.000 176.000 l
455.010 183.500 l
463.500 183.794 l
h
S
2 J
10.0000 M
0 J
1.45000 M
newpath
495.041 99.7202 m
498.907 102.422 l
503.222 104.335 l
507.821 105.393 l
512.572 105.553 l
517.343 104.770 l
522.000 103.000 l
526.210 100.336 l
529.699 96.9894 l
532.422 93.0925 l
534.335 88.7782 l
535.393 84.1790 l
535.553 79.4278 l
534.770 74.6572 l
533.000 70.0000 l
530.336 65.7897 l
526.989 62.3010 l
523.093 59.5782 l
518.778 57.6655 l
514.179 56.6070 l
509.428 56.4472 l
504.657 57.2301 l
500.000 59.0000 l
495.790 61.6638 l
492.301 65.0106 l
489.578 68.9075 l
487.732 73.0714 l
487.717 73.1703 l
S
newpath
486.485 81.0749 m
493.274 69.9879 l
487.871 72.1822 l
483.393 68.4481 l
h
f
newpath
527.326 70.9590 m
527.326 68.9277 527.535 67.2923 527.951 66.0527  c
528.368 64.8132 528.988 63.8574 529.811 63.1855  c
530.633 62.5137 531.670 62.1777 532.920 62.1777  c
533.847 62.1777 534.657 62.3626 535.350 62.7324  c
536.042 63.1022 536.615 63.6361 537.068 64.3340  c
537.521 65.0319 537.878 65.8835 538.139 66.8887  c
538.399 67.8939 538.529 69.2507 538.529 70.9590  c
538.529 72.9694 538.321 74.5944 537.904 75.8340  c
537.488 77.0736 536.868 78.0319 536.045 78.7090  c
535.222 79.3861 534.180 79.7246 532.920 79.7246  c
531.264 79.7246 529.967 79.1309 529.029 77.9434  c
527.894 76.5059 527.326 74.1777 527.326 70.9590  c
h
529.498 70.9590 m
529.498 73.7715 529.826 75.6465 530.482 76.5840  c
531.139 77.5215 531.951 77.9902 532.920 77.9902  c
533.889 77.9902 534.704 77.5215 535.365 76.5840  c
536.027 75.6465 536.357 73.7715 536.357 70.9590  c
536.357 68.1257 536.027 66.2454 535.365 65.3184  c
534.704 64.3913 533.883 63.9277 532.904 63.9277  c
531.936 63.9277 531.160 64.3340 530.576 65.1465  c
529.857 66.1986 529.498 68.1361 529.498 70.9590  c
h
f
2 J
10.0000 M
0 J
1.45000 M
newpath
78.6285 135.525 m
175.000 57.0000 l
215.009 44.7390 l
S
newpath
222.658 42.3950 m
209.720 41.1305 l
214.053 45.0320 l
212.650 50.6916 l
h
f
newpath
129.663 90.2771 m
129.663 88.2458 129.871 86.6104 130.288 85.3708  c
130.705 84.1312 131.325 83.1755 132.147 82.5036  c
132.970 81.8317 134.007 81.4958 135.257 81.4958  c
136.184 81.4958 136.994 81.6807 137.687 82.0505  c
138.379 82.4203 138.952 82.9541 139.405 83.6521  c
139.858 84.3500 140.215 85.2015 140.476 86.2067  c
140.736 87.2119 140.866 88.5687 140.866 90.2771  c
140.866 92.2875 140.658 93.9125 140.241 95.1521  c
139.825 96.3916 139.205 97.3500 138.382 98.0271  c
137.559 98.7041 136.517 99.0427 135.257 99.0427  c
133.601 99.0427 132.304 98.4489 131.366 97.2614  c
130.231 95.8239 129.663 93.4958 129.663 90.2771  c
h
131.835 90.2771 m
131.835 93.0896 132.163 94.9646 132.819 95.9021  c
133.476 96.8396 134.288 97.3083 135.257 97.3083  c
136.226 97.3083 137.041 96.8396 137.702 95.9021  c
138.364 94.9646 138.694 93.0896 138.694 90.2771  c
138.694 87.4437 138.364 85.5635 137.702 84.6364  c
137.041 83.7093 136.220 83.2458 135.241 83.2458  c
134.272 83.2458 133.496 83.6521 132.913 84.4646  c
132.194 85.5166 131.835 87.4541 131.835 90.2771  c
h
f
2 J
10.0000 M
0 J
1.45000 M
newpath
479.968 92.0426 m
277.000 93.0000 l
277.000 93.0000 l
250.528 56.6009 l
S
newpath
245.823 50.1310 m
248.837 62.7767 l
251.116 57.4097 l
256.924 56.8950 l
h
f
newpath
347.880 102.104 m
345.771 102.104 l
345.771 88.6666 l
345.271 89.1457 344.607 89.6275 343.779 90.1119  c
342.950 90.5963 342.208 90.9582 341.552 91.1978  c
341.552 89.1666 l
342.739 88.6145 343.773 87.9426 344.654 87.1509  c
345.534 86.3593 346.156 85.5937 346.521 84.8541  c
347.880 84.8541 l
347.880 102.104 l
h
f
2 J
10.0000 M
0 J
1.45000 M
newpath
251.383 33.7437 m
335.000 9.00000 l
362.000 17.0000 l
469.368 80.4064 l
S
newpath
476.257 84.4744 m
468.466 74.0670 l
468.507 79.8979 l
463.381 82.6777 l
h
f
newpath
294.663 20.2164 m
294.663 18.1852 294.871 16.5498 295.288 15.3102  c
295.705 14.0706 296.325 13.1149 297.147 12.4430  c
297.970 11.7711 299.007 11.4352 300.257 11.4352  c
301.184 11.4352 301.994 11.6201 302.687 11.9899  c
303.379 12.3597 303.952 12.8935 304.405 13.5914  c
304.858 14.2893 305.215 15.1409 305.476 16.1461  c
305.736 17.1513 305.866 18.5081 305.866 20.2164  c
305.866 22.2268 305.658 23.8518 305.241 25.0914  c
304.825 26.3310 304.205 27.2893 303.382 27.9664  c
302.559 28.6435 301.517 28.9821 300.257 28.9821  c
298.601 28.9821 297.304 28.3883 296.366 27.2008  c
295.231 25.7633 294.663 23.4352 294.663 20.2164  c
h
296.835 20.2164 m
296.835 23.0289 297.163 24.9039 297.819 25.8414  c
298.476 26.7789 299.288 27.2477 300.257 27.2477  c
301.226 27.2477 302.041 26.7789 302.702 25.8414  c
303.364 24.9039 303.694 23.0289 303.694 20.2164  c
303.694 17.3831 303.364 15.5029 302.702 14.5758  c
302.041 13.6487 301.220 13.1852 300.241 13.1852  c
299.272 13.1852 298.496 13.5914 297.913 14.4039  c
297.194 15.4560 296.835 17.3935 296.835 20.2164  c
h
f
2 J
10.0000 M
0 J
1.45000 M
newpath
80.7633 150.964 m
127.000 171.000 l
158.000 172.000 l
191.000 169.000 l
255.000 169.000 l
S
newpath
263.000 169.000 m
251.000 164.000 l
254.000 169.000 l
251.000 174.000 l
h
f
newpath
183.607 179.306 m
181.497 179.306 l
181.497 165.868 l
180.997 166.347 180.333 166.829 179.505 167.313  c
178.677 167.798 177.935 168.160 177.278 168.399  c
177.278 166.368 l
178.466 165.816 179.500 165.144 180.380 164.353  c
181.260 163.561 181.883 162.795 182.247 162.056  c
183.607 162.056 l
183.607 179.306 l
h
f
2 J
10.0000 M
0 J
1.45000 M
newpath
291.888 163.352 m
292.142 163.142 l
294.584 160.182 l
296.428 156.785 l
297.594 153.031 l
298.000 149.000 l
297.594 144.969 l
296.428 141.215 l
294.584 137.818 l
292.142 134.858 l
289.182 132.416 l
285.785 130.572 l
282.031 129.406 l
278.000 129.000 l
273.969 129.406 l
270.215 130.572 l
266.818 132.416 l
263.858 134.858 l
261.416 137.818 l
259.572 141.215 l
258.406 144.969 l
258.000 149.000 l
258.406 153.031 l
259.567 156.769 l
259.624 156.851 l
S
newpath
264.169 163.434 m
261.465 150.719 l
259.055 156.028 l
253.236 156.400 l
h
f
newpath
272.326 136.209 m
272.326 134.178 272.535 132.542 272.951 131.303  c
273.368 130.063 273.988 129.107 274.811 128.436  c
275.633 127.764 276.670 127.428 277.920 127.428  c
278.847 127.428 279.657 127.613 280.350 127.982  c
281.042 128.352 281.615 128.886 282.068 129.584  c
282.521 130.282 282.878 131.133 283.139 132.139  c
283.399 133.144 283.529 134.501 283.529 136.209  c
283.529 138.219 283.321 139.844 282.904 141.084  c
282.488 142.324 281.868 143.282 281.045 143.959  c
280.222 144.636 279.180 144.975 277.920 144.975  c
276.264 144.975 274.967 144.381 274.029 143.193  c
272.894 141.756 272.326 139.428 272.326 136.209  c
h
274.498 136.209 m
274.498 139.021 274.826 140.896 275.482 141.834  c
276.139 142.771 276.951 143.240 277.920 143.240  c
278.889 143.240 279.704 142.771 280.365 141.834  c
281.027 140.896 281.357 139.021 281.357 136.209  c
281.357 133.376 281.027 131.495 280.365 130.568  c
279.704 129.641 278.883 129.178 277.904 129.178  c
276.936 129.178 276.160 129.584 275.576 130.396  c
274.857 131.449 274.498 133.386 274.498 136.209  c
h
f
2 J
10.0000 M
0 J
1.45000 M
newpath
292.976 169.851 m
366.000 174.000 l
449.730 177.993 l
S
newpath
457.721 178.374 m
445.973 172.808 l
448.732 177.945 l
445.497 182.797 l
h
f
newpath
337.334 182.058 m
335.131 182.058 l
335.131 168.058 l
334.610 168.558 333.920 169.060 333.060 169.565  c
332.201 170.071 331.428 170.448 330.740 170.698  c
330.740 168.573 l
331.969 168.000 333.045 167.302 333.967 166.480  c
334.889 165.657 335.537 164.860 335.912 164.089  c
337.334 164.089 l
337.334 182.058 l
h
f
2 J
10.0000 M
0 J
1.45000 M
newpath
480.140 181.932 m
481.526 182.260 l
486.414 182.456 l
491.250 181.720 l
495.890 180.060 l
500.188 177.484 l
504.000 174.000 l
507.040 169.825 l
509.124 165.268 l
510.260 160.474 l
510.456 155.586 l
509.720 150.750 l
508.060 146.110 l
505.484 141.812 l
502.000 138.000 l
497.825 134.960 l
493.268 132.876 l
488.474 131.740 l
483.586 131.544 l
478.750 132.280 l
474.110 133.940 l
469.812 136.516 l
466.000 140.000 l
462.960 144.175 l
460.876 148.732 l
459.740 153.526 l
459.544 158.414 l
459.876 160.593 l
459.911 160.686 l
S
newpath
462.190 168.355 m
463.564 155.428 l
459.626 159.728 l
453.978 158.277 l
h
f
newpath
504.264 147.428 m
502.154 147.428 l
502.154 133.990 l
501.654 134.469 500.990 134.951 500.162 135.436  c
499.334 135.920 498.592 136.282 497.936 136.521  c
497.936 134.490 l
499.123 133.938 500.157 133.266 501.037 132.475  c
501.917 131.683 502.540 130.917 502.904 130.178  c
504.264 130.178 l
504.264 147.428 l
h
f
2 J
10.0000 M
0 J
1.45000 M
newpath
456.036 183.533 m
333.000 261.000 l
289.802 188.741 l
S
newpath
285.697 181.875 m
287.563 194.740 l
290.315 189.600 l
296.146 189.609 l
h
f
newpath
359.939 241.425 m
359.939 239.394 360.148 237.758 360.564 236.519  c
360.981 235.279 361.601 234.323 362.424 233.651  c
363.247 232.980 364.283 232.644 365.533 232.644  c
366.460 232.644 367.270 232.829 367.963 233.198  c
368.655 233.568 369.228 234.102 369.681 234.800  c
370.135 235.498 370.491 236.349 370.752 237.355  c
371.012 238.360 371.142 239.717 371.142 241.425  c
371.142 243.435 370.934 245.060 370.517 246.300  c
370.101 247.539 369.481 248.498 368.658 249.175  c
367.835 249.852 366.793 250.190 365.533 250.190  c
363.877 250.190 362.580 249.597 361.642 248.409  c
360.507 246.972 359.939 244.644 359.939 241.425  c
h
362.111 241.425 m
362.111 244.237 362.439 246.112 363.095 247.050  c
363.752 247.987 364.564 248.456 365.533 248.456  c
366.502 248.456 367.317 247.987 367.978 247.050  c
368.640 246.112 368.970 244.237 368.970 241.425  c
368.970 238.592 368.640 236.711 367.978 235.784  c
367.317 234.857 366.497 234.394 365.517 234.394  c
364.549 234.394 363.773 234.800 363.189 235.612  c
362.470 236.664 362.111 238.602 362.111 241.425  c
h
f
2 J
10.0000 M
Q
[ 1.00000 0.00000 0.00000 1.00000 0.00000 0.00000 ] defaultmatrix matrix concatmatrix setmatrix
cliprestore

%%Trailer
%%EOF
