%!PS-Adobe-3.0 EPSF-3.0
%%BoundingBox: 0 0 518 137
%%Creator: yExport 1.5
%%Producer: org.freehep.graphicsio.ps.EPSGraphics2D Revision: 12753 
%%For: 
%%Title: 
%%CreationDate: Saturday, April 28, 2018 11:00:15 PM CDT
%%LanguageLevel: 3
%%EndComments
%%BeginProlog
100 dict dup begin

%
% File: org/freehep/graphicsio.ps/PSProlog.txt
% Author: Charles Loomis
%

% Redefinitions which save some space in the output file.  These are also
% the same as the PDF operators.
/q {gsave} def
/Q {grestore} def

/n {newpath} def
/m {moveto} def
/l {lineto} def
/c {curveto} def
/h {closepath} def

/re {4 -2 roll moveto
     dup 0 exch rlineto exch 0 rlineto
     neg 0 exch rlineto closepath} def

/f {fill} def
/f* {eofill} def
/F {gsave vg&FC fill grestore} def
/F* {gsave vg&FC eofill grestore} def

/s {closepath stroke} def
/S {stroke} def

/b {closepath gsave vg&FC fill grestore
    gsave stroke grestore newpath} def
/B {gsave vg&FC fill grestore gsave stroke grestore newpath} def
/b* {closepath gsave vg&FC eofill grestore
    gsave stroke grestore newpath} def
/B* {gsave vg&FC eofill grestore gsave stroke grestore newpath} def

/g {1 array astore /vg&fcolor exch def} def
/G {setgray} def
/k {4 array astore /vg&fcolor exch def} def
/K {setcmykcolor} def
/rg {3 array astore /vg&fcolor exch def} def
/RG {setrgbcolor} def

% Initialize the fill color.
0 0 0 rg

/vg&FC {mark vg&fcolor aload pop
        counttomark 1 eq {G} if
        counttomark 3 eq {RG} if
        counttomark 4 eq {K} if
        cleartomark } def

/vg&DFC {/vg&fcolor exch def} def

/vg&C {mark exch aload pop
       counttomark 1 eq {G} if
       counttomark 3 eq {RG} if
       counttomark 4 eq {K} if
       cleartomark } def

/w {setlinewidth} def
/j {setlinejoin} def
/J {setlinecap} def
/M {setmiterlimit} def
/d {setdash} def
/i {setflat} def

/W {clip} def
/W* {eoclip} def

% Setup the default graphics state.
% (black; 1 pt. linewidth; miter join; butt-ends; solid)
/defaultGraphicsState {0 g 1 w 0 j 0 J [] 0 d} def

% Emulation of the rectangle operators for PostScript implementations
% which do not implement all Level 2 features.  This is an INCOMPLETE
% emulation; only the "x y width height rect..." form is emulated.
/*rf {gsave newpath re fill grestore} def
/*rs {gsave newpath re stroke grestore} def
/*rc {newpath re clip} def
/rf  /rectfill where {pop /rectfill}{/*rf} ifelse load def
/rs  /rectstroke where {pop /rectstroke}{/*rs} ifelse load def
/rc  /rectclip where {pop /rectclip}{/*rc} ifelse load def

% Emulation of the selectfont operator.  This includes a 20% increase in
% the fontsize which is necessary to get sizes similar to the Java fonts.
/*sf {exch findfont exch
      dup type /arraytype eq {makefont}{scalefont} ifelse setfont} bind def
/sf /selectfont where {pop {1.2 mul selectfont}}{{1.2 mul *sf}} ifelse def

% Special version of stroke which allows the dash pattern to continue
% across path segments.  (This may be needed for PostScript although
% modern printers seem to do this correctly.)
/vg&stroke {
  currentdash pop length 0 eq
  {stroke}
  {
    currentdash /vg&doffset exch def pop
    flattenpath
    {m vg&resetdash}
    {2 copy
     currentpoint
     3 -1 roll sub dup mul
     3 1 roll sub dup mul
     add sqrt
     3 1 roll l
     currentdash 3 -1 roll add setdash}
     {}
     {h vg&resetdash}
     pathforall
     stroke
     vg&resetdash
  } ifelse
} def
/vg&resetdash {currentdash pop vg&doffset setdash} def

% Initialize variables for safety.
/delta 0 def
/xv 0 def  /yv 0 def  /width 0 def  /height 0 def

% Initialize to portrait INTERNATIONAL (Letter-height, A4-width) page.
/pw 595 def  /ph 791  def  /po true def /ftp false def

% Initialize margins to 20 points.
/ml 20 def  /mr 20 def  /mt 20 def  /mb 20 def

% Temporary matrices.
/smatrix 0 def  /nmatrix 0 def

% set page size (usage: <page width><page height> setpagesize)
/setpagesize {/ph exch def /pw exch def} def

% set page orientation (usage: portrait or landscape)
/portrait {/po true def} def
/landscape {/po false def} def

% force natural size for image (usage: naturalsize)
/naturalsize {/ftp false def} def

% resize image to fill page (usage: fittopage)
/fittopage {/ftp true def} def

% set margins of the page (usage: <left><bottom><top><right> setmargins)
/setmargins {/mr exch def /mt exch def /mb exch def /ml exch def} def

% set the graphic's size (usage: <width><height> setsize)
/setsize {/gh exch def /gw exch def} def

% set the graphic's origin (usage: <x0><y0> setorigin)
/setorigin {/gy exch def /gx exch def} def

% calculate image center
/imagecenter {pw ml sub mr sub 2 div ml add
              ph mt sub mb sub 2 div mb add} def

% calculate the necessary scaling
/imagescale {po {gw}{gh} ifelse pw ml sub mr sub div
             po {gh}{gw} ifelse ph mt sub mb sub div
             2 copy lt {exch} if pop
             ftp not {1 2 copy lt {exch} if pop} if
             1 exch div /sfactor exch def
             /gw gw sfactor mul def /gh gh sfactor mul def} def

% calculate image origin
/imageorigin {pw ml sub mr sub 2 div ml add
              po {gw}{gh} ifelse 2 div sub
              ph mt sub mb sub 2 div mb add
              po {gh}{gw} ifelse 2 div po {add}{sub} ifelse} def

% calculate the clipping origin
/cliporigin  {pw ml sub mr sub 2 div ml add
              po {gw}{gh} ifelse 2 div sub floor
              ph mt sub mb sub 2 div mb add
              po {gh}{gw} ifelse 2 div sub floor} def

% Set the clipping region to the bounding box.
/cliptobounds {cliporigin po {gw}{gh} ifelse 1 add
                          po {gh}{gw} ifelse 1 add rc} def

% set the base transformation matrix (usage: setbasematrix)
/setbasematrix {imageorigin translate
                po {0}{90} ifelse rotate
                sfactor sfactor neg scale
                /defaultmatrix matrix currentmatrix def} def

% The lower-right bias in drawing 1 pt. wide lines.
/bias  {q 0.5 0.5 translate} def
/unbias {Q} def

% Define the composite fonts used to print Unicode strings.
% Undefine particular values in an encoding array.
/vg&undef { {exch dup 3 -1 roll /.notdef put} forall } def
/vg&redef { {3 -1 roll dup 4 2 roll put} forall } def

% usage: key encoding basefontname vg&newbasefont font
/vg&newbasefont {
findfont dup length dict copy
  begin
    currentdict /FID undef
    /Encoding exch def
    dup /FontName exch def
    currentdict
  end
definefont
} def

% usage: key encoding basefontname vg&newskewedbasefont font
/vg&newskewedbasefont {
findfont dup length dict copy
  begin
    currentdict /FID undef
    /Encoding exch def
    dup /FontName exch def
    exch FontMatrix exch matrix concatmatrix /FontMatrix exch def
    currentdict
  end
definefont
} def

% usage: basekey suffix vg&nconcat name
/vg&nconcat {
  2 {dup length string cvs exch} repeat
  dup length 3 -1 roll dup length 3 -1 roll add string
  dup 0 4 -1 roll dup length 5 1 roll putinterval
  dup 4 -2 roll exch putinterval cvn
} def

%usage: fontname vg&skewmatrix matrix
/vg&skewmatrix {
findfont dup /FontInfo known
  {
    /FontInfo get dup /ItalicAngle known
    {
      [ 1 0 4 -1 roll /ItalicAngle get neg dup sin exch cos div 1 0 0 ]
    }
    {pop matrix} ifelse
  }
  {pop matrix} ifelse
} def

% usage: newfontname basefontname vg&newcompositefont --
/vg&newcompositefont {
/vg&fstyle exch def
/vg&bfont exch def
/vg&fname exch def
<<
/FontStyleBits vg&fstyle
/FontType 0
/FontMatrix matrix
/FontName vg&fname
/FMapType 2
/Encoding [ 0 1 255 {pop 6} for ]
          dup 16#00 0 put % Latin
          dup 16#03 1 put % Greek
          dup 16#20 2 put % Punctuation
          dup 16#21 3 put % Arrows
          dup 16#22 4 put % MathOps
          dup 16#27 5 put % Dingbats

/FDepVector [
vg&bfont /-UC-Latin vg&nconcat UCLatinEncoding
vg&bfont vg&newbasefont

vg&bfont vg&skewmatrix
vg&bfont /-UC-Greek vg&nconcat UCGreekEncoding
/Symbol vg&newskewedbasefont

vg&bfont /-UC-Punctuation vg&nconcat UCPunctuationEncoding
vg&bfont vg&newbasefont

/Arrows-UC findfont
/MathOps-UC findfont
/Dingbats-UC findfont
/Undefined-UC findfont ]
>>
vg&fname exch definefont pop
} def

% Null encoding vector (all elements set to .notdef)
/NullEncoding [ 256 {/.notdef} repeat ] def

% Unicode Latin encoding (unicode codes \u0000-\u00ff)
/UCLatinEncoding
  ISOLatin1Encoding dup length array copy
  dup 16#60 /grave put
  [ 16#90 16#91 16#92 16#93 16#94 16#95 16#96
    16#97 16#98 16#9a 16#9b 16#9d 16#9e 16#9f
  ] vg&undef
  def

% Unicode Greek encoding (unicode codes \u0370-\u03ff)
/UCGreekEncoding
  NullEncoding dup length array copy
  << 16#91 /Alpha    16#92 /Beta      16#93 /Gamma    16#94 /Delta
     16#95 /Epsilon  16#96 /Zeta      16#97 /Eta      16#98 /Theta
     16#99 /Iota     16#9a /Kappa     16#9b /Lambda   16#9c /Mu
     16#9d /Nu       16#9e /Xi        16#9f /Omicron  16#a0 /Pi
     16#a1 /Rho      16#a3 /Sigma     16#a4 /Tau      16#a5 /Upsilon
     16#a6 /Phi      16#a7 /Chi       16#a8 /Psi      16#a9 /Omega
     16#b1 /alpha    16#b2 /beta      16#b3 /gamma    16#b4 /delta
     16#b5 /epsilon  16#b6 /zeta      16#b7 /eta      16#b8 /theta
     16#b9 /iota     16#ba /kappa     16#bb /lambda   16#bc /mu
     16#bd /nu       16#be /xi        16#bf /omicron  16#c0 /pi
     16#c1 /rho      16#c2 /sigma1    16#c3 /sigma    16#c4 /tau
     16#c5 /upsilon  16#c6 /phi1      16#c7 /chi      16#c8 /psi
     16#c9 /omega    16#7e /semicolon 16#87 /dotmath  16#d1 /theta1
     16#d2 /Upsilon1 16#d5 /phi       16#d6 /omega1
  >> vg&redef
  def

% Unicode punctuation encoding (unicode codes \u2000-\u206f)
/UCPunctuationEncoding
  NullEncoding dup length array copy
  << 16#10 /hyphen          16#11 /hyphen              16#12 /endash
     16#13 /emdash          16#18 /quoteleft           16#19 /quoteright
     16#1a /quotesinglbase  16#1b /quotesingle         16#1c /quotedblleft
     16#1d /quotedblright   16#1e /quotedblbase        16#1f /quotedbl
     16#20 /dagger          16#21 /daggerdbl           16#22 /bullet
     16#24 /period          16#26 /ellipsis            16#27 /periodcentered
     16#30 /perthousand     16#44 /fraction
     16#70 /zerosuperior    16#74 /foursuperior        16#75 /fivesuperior
     16#76 /sixsuperior     16#77 /sevensuperior       16#78 /eightsuperior
     16#79 /ninesuperior    16#7b /hyphensuperior      16#7d /parenleftsuperior
     16#7e /parenrightsuperior
     16#80 /zeroinferior    16#84 /fourinferior        16#85 /fiveinferior
     16#81 /oneinferior     16#82 /twoinferior         16#83 /threeinferior
     16#86 /sixinferior     16#87 /seveninferior       16#88 /eightinferior
     16#89 /nineinferior    16#8b /hypheninferior      16#8d /parenleftinferior
     16#8e /parenrightinferior
  >> vg&redef
  def

% Unicode mathematical operators encoding (unicode codes \u2200-\u22ff)
/UCMathOpsEncoding
  NullEncoding dup length array copy
  << 16#00 /universal       16#02 /partialdiff         16#03 /existential
     16#05 /emptyset        16#06 /Delta               16#07 /gradient
     16#08 /element         16#09 /notelement          16#0b /suchthat
     16#0f /product         16#11 /summation           16#12 /minus
     16#15 /fraction        16#17 /asteriskmath        16#19 /bullet
     16#1a /radical         16#1d /proportional        16#1e /infinity
     16#20 /angle           16#23 /bar                 16#27 /logicaland
     16#28 /logicalor       16#29 /intersection        16#2a /union
     16#2b /integral        16#34 /therefore           16#36 /colon
     16#3c /similar         16#45 /congruent           16#48 /approxequal
     16#60 /notequal        16#61 /equivalence         16#64 /lessequal
     16#65 /greaterequal    16#82 /propersubset        16#83 /propersuperset
     16#86 /reflexsubset    16#87 /reflexsuperset      16#95 /circleplus
     16#97 /circlemultiply  16#a5 /perpendicular       16#03 /existential
     16#c0 /logicaland      16#c1 /logicalor           16#c2 /intersection
     16#c3 /union           16#c4 /diamond             16#c5 /dotmath
  >> vg&redef
  def

% Unicode arrows encoding (unicode codes \u2190-\u21ff)
% Also includes those "Letterlike" unicode characters
% which are available in the symbol font. (unicode codes \u2100-\u214f)
/UCArrowsEncoding
  NullEncoding dup length array copy
  << 16#11 /Ifraktur        16#1c /Rfraktur            16#22 /trademarkserif
     16#35 /aleph
     16#90 /arrowleft       16#91 /arrowup             16#92 /arrowright
     16#93 /arrowdown       16#94 /arrowboth           16#d0 /arrowdblleft
     16#d1 /arrowdblup      16#d2 /arrowdblright       16#d3 /arrowdbldown
     16#d4 /arrowdblboth
  >> vg&redef
  def

/ZapfDingbats findfont /Encoding get
dup length array copy /UCDingbatsEncoding exch def
16#20 1 16#7f {
  dup 16#20 sub exch
  UCDingbatsEncoding exch get
  UCDingbatsEncoding 3 1 roll put
} for
16#a0 1 16#ff {
  dup 16#40 sub exch
  UCDingbatsEncoding exch get
  UCDingbatsEncoding 3 1 roll put
} for
UCDingbatsEncoding [ 16#c0 1 16#ff {} for ] vg&undef
[ 16#00  16#05 16#0a 16#0b  16#28 16#4c 16#4e  16#53 16#54 16#55  16#57 16#5f
  16#60  16#68 16#69 16#6a  16#6b 16#6c 16#6d  16#6e 16#6f 16#70  16#71 16#72
  16#73  16#74 16#75 16#95  16#96 16#97 16#b0  16#bf
] vg&undef pop

% Define the base fonts which don't change.
/Undefined-UC NullEncoding       /Helvetica    vg&newbasefont pop
/MathOps-UC   UCMathOpsEncoding  /Symbol       vg&newbasefont pop
/Arrows-UC    UCArrowsEncoding   /Symbol       vg&newbasefont pop
/Dingbats-UC  UCDingbatsEncoding /ZapfDingbats vg&newbasefont pop

% Make the SansSerif composite fonts.
/SansSerif /Helvetica 16#00 vg&newcompositefont
/SansSerif-Bold /Helvetica-Bold 16#01 vg&newcompositefont
/SansSerif-Italic /Helvetica-Oblique 16#02 vg&newcompositefont
/SansSerif-BoldItalic /Helvetica-BoldOblique 16#03 vg&newcompositefont

% Make the Serif composite fonts.
/Serif /Times-Roman 16#00 vg&newcompositefont
/Serif-Bold /Times-Bold 16#01 vg&newcompositefont
/Serif-Italic /Times-Italic 16#02 vg&newcompositefont
/Serif-BoldItalic /Times-BoldItalic 16#03 vg&newcompositefont

% Make the Monospaced composite fonts.
/Monospaced /Courier 16#00 vg&newcompositefont
/Monospaced-Bold /Courier-Bold 16#01 vg&newcompositefont
/Monospaced-Italic /Courier-Oblique 16#02 vg&newcompositefont
/Monospaced-BoldItalic /Courier-BoldOblique 16#03 vg&newcompositefont

% Make the Dialog composite fonts.
/Dialog /Helvetica 16#00 vg&newcompositefont
/Dialog-Bold /Helvetica-Bold 16#01 vg&newcompositefont
/Dialog-Italic /Helvetica-Oblique 16#02 vg&newcompositefont
/Dialog-BoldItalic /Helvetica-BoldOblique 16#03 vg&newcompositefont

% Make the DialogInput composite fonts.
/DialogInput /Courier 16#00 vg&newcompositefont
/DialogInput-Bold /Courier-Bold 16#01 vg&newcompositefont
/DialogInput-Italic /Courier-Oblique 16#02 vg&newcompositefont
/DialogInput-BoldItalic /Courier-BoldOblique 16#03 vg&newcompositefont

% Make the Typewriter composite fonts (JDK 1.1 only).
/Typewriter /Courier 16#00 vg&newcompositefont
/Typewriter-Bold /Courier-Bold 16#01 vg&newcompositefont
/Typewriter-Italic /Courier-Oblique 16#02 vg&newcompositefont
/Typewriter-BoldItalic /Courier-BoldOblique 16#03 vg&newcompositefont


/cfontH {
 dup /fontsize exch def /SansSerif exch sf
 /vg&fontstyles [{cfontH} {cfontHB} {cfontHI} {cfontHBI}] def
} def
/cfontHB {
  dup /fontsize exch def /SansSerif-Bold exch sf
 /vg&fontstyles [{cfontH} {cfontHB} {cfontHI} {cfontHBI}] def
} def
/cfontHI {
 dup /fontsize exch def /SansSerif-Italic exch sf
 /vg&fontstyles [{cfontH} {cfontHB} {cfontHI} {cfontHBI}] def
} def
/cfontHBI {
 dup /fontsize exch def /SansSerif-BoldItalic exch sf
 /vg&fontstyles [{cfontH} {cfontHB} {cfontHI} {cfontHBI}] def
} def

/cfontT {
 dup /fontsize exch def /Serif exch sf
 /vg&fontstyles [{cfontT} {cfontTB} {cfontTI} {cfontTBI}] def
} def
/cfontTB {
 dup /fontsize exch def /Serif-Bold exch sf
 /vg&fontstyles [{cfontT} {cfontTB} {cfontTI} {cfontTBI}] def
} def
/cfontTI {
 dup /fontsize exch def /Serif-Italic exch sf
 /vg&fontstyles [{cfontT} {cfontTB} {cfontTI} {cfontTBI}] def
} def
/cfontTBI {
 dup /fontsize exch def /Serif-BoldItalic exch sf
 /vg&fontstyles [{cfontT} {cfontTB} {cfontTI} {cfontTBI}] def
} def

/cfontC {
 dup /fontsize exch def /Typewriter exch sf
 /vg&fontstyles [{cfontC} {cfontCB} {cfontCI} {cfontCBI}] def
} def
/cfontCB {
 dup /fontsize exch def /Typewriter-Bold exch sf
 /vg&fontstyles [{cfontC} {cfontCB} {cfontCI} {cfontCBI}] def
} def
/cfontCI {
 dup /fontsize exch def /Typewriter-Italic exch sf
 /vg&fontstyles [{cfontC} {cfontCB} {cfontCI} {cfontCBI}] def
} def
/cfontCBI {
 dup /fontsize exch def /Typewriter-BoldItalic exch sf
 /vg&fontstyles [{cfontC} {cfontCB} {cfontCI} {cfontCBI}] def
} def

% Darken or lighten the current color.
/darken {0.7 exch exp 3 copy
         q 4 -1 roll vg&C
         currentrgbcolor 3 {4 -2 roll mul} repeat
         3 array astore Q} def

/displayColorMap
<< /Cr   [1.00 0.00 0.00]       /Cg     [0.00 1.00 0.00]
   /Cb   [0.00 0.00 1.00]       /Cc     [1.00 0.00 0.00 0.00]
   /Cm   [0.00 1.00 0.00 0.00]  /Cy     [0.00 0.00 1.00 0.00]
   /Co   [1.00 0.78 0.00]       /Cp     [1.00 0.67 0.67]
   /Cw   [1   ]                 /Cgrl   [0.75]
   /Cgr  [0.50]                 /Cgrd   [0.25]
   /Ck   [0   ]
   /CGr  [1.00 0.00 0.00]       /CGg    [0.00 1.00 0.00]
   /CGb  [0.00 0.00 1.00]       /CGc    [1.00 0.00 0.00 0.00]
   /CGm  [0.00 1.00 0.00 0.00]  /CGy    [0.00 0.00 1.00 0.00]
   /CGo  [1.00 0.78 0.00]       /CGp    [1.00 0.67 0.67]
   /CGw  [1   ]                 /CGgrl  [0.75]
   /CGgr [0.50]                 /CGgrd  [0.25]
   /CGk  [0   ]
   /CIr  [1.00 0.00 0.00]       /CIg    [0.00 1.00 0.00]
   /CIb  [0.00 0.00 1.00]       /CIc    [1.00 0.00 0.00 0.00]
   /CIm  [0.00 1.00 0.00 0.00]  /CIy    [0.00 0.00 1.00 0.00]
   /CIo  [1.00 0.78 0.00]       /CIp    [1.00 0.67 0.67]
   /CIw  [1   ]                 /CIgrl  [0.75]
   /CIgr [0.50]                 /CIgrd  [0.25]
   /CIk  [0   ]
>> def

/printColorMap
<< /Cr   [1.00 0.33 0.33]       /Cg     [0.33 1.00 0.33]
   /Cb   [0.33 0.33 1.00]       /Cc     [1.00 0.00 0.00 0.00]
   /Cm   [0.00 1.00 0.00 0.00]  /Cy     [0.00 0.00 1.00 0.00]
   /Co   [1.00 0.78 0.00]       /Cp     [1.00 0.67 0.67]
   /Cw   [1   ]                 /Cgrl   [0.75]
   /Cgr  [0.50]                 /Cgrd   [0.25]
   /Ck   [0   ]
   /CGr  [1.00 0.33 0.33]       /CGg    [0.33 1.00 0.33]
   /CGb  [0.33 0.33 1.00]       /CGc    [1.00 0.00 0.00 0.00]
   /CGm  [0.00 1.00 0.00 0.00]  /CGy    [0.00 0.00 1.00 0.00]
   /CGo  [1.00 0.78 0.00]       /CGp    [1.00 0.67 0.67]
   /CGw  [1   ]                 /CGgrl  [0.75]
   /CGgr [0.50]                 /CGgrd  [0.25]
   /CGk  [0   ]
   /CIr  [1.00 0.33 0.33]       /CIg    [0.33 1.00 0.33]
   /CIb  [0.33 0.33 1.00]       /CIc    [1.00 0.00 0.00 0.00]
   /CIm  [0.00 1.00 0.00 0.00]  /CIy    [0.00 0.00 1.00 0.00]
   /CIo  [1.00 0.78 0.00]       /CIp    [1.00 0.67 0.67]
   /CIw  [1   ]                 /CIgrl  [0.75]
   /CIgr [0.50]                 /CIgrd  [0.25]
   /CIk  [0   ]
>> def

/grayColorMap
<< /Cr   [0   ]                 /Cg     [0   ]
   /Cb   [0   ]                 /Cc     [0   ]
   /Cm   [0   ]                 /Cy     [0   ]
   /Co   [0   ]                 /Cp     [0   ]
   /Cw   [0   ]                 /Cgrl   [0   ]
   /Cgr  [0   ]                 /Cgrd   [0   ]
   /Ck   [0   ]
   /CGr  [0.75]                 /CGg    [1   ]
   /CGb  [0.50]                 /CGc    [0.75]
   /CGm  [0.50]                 /CGy    [1   ]
   /CGo  [0.75]                 /CGp    [1   ]
   /CGw  [0   ]                 /CGgrl  [0.25]
   /CGgr [0.50]                 /CGgrd  [0.75]
   /CGk  [1   ]
   /CIr  [1   ]                 /CIg    [1   ]
   /CIb  [1   ]                 /CIc    [1   ]
   /CIm  [1   ]                 /CIy    [1   ]
   /CIo  [1   ]                 /CIp    [1   ]
   /CIw  [1   ]                 /CIgrl  [1   ]
   /CIgr [1   ]                 /CIgrd  [1   ]
   /CIk  [1   ]
>> def

/bwColorMap
<< /Cr   [0   ]                 /Cg     [0   ]
   /Cb   [0   ]                 /Cc     [0   ]
   /Cm   [0   ]                 /Cy     [0   ]
   /Co   [0   ]                 /Cp     [0   ]
   /Cw   [0   ]                 /Cgrl   [0   ]
   /Cgr  [0   ]                 /Cgrd   [0   ]
   /Ck   [0   ]
   /CGr  [1   ]                 /CGg    [1   ]
   /CGb  [1   ]                 /CGc    [1   ]
   /CGm  [1   ]                 /CGy    [1   ]
   /CGo  [1   ]                 /CGp    [1   ]
   /CGw  [0   ]                 /CGgrl  [1   ]
   /CGgr [1   ]                 /CGgrd  [1   ]
   /CGk  [1   ]
   /CIr  [1   ]                 /CIg    [1   ]
   /CIb  [1   ]                 /CIc    [1   ]
   /CIm  [1   ]                 /CIy    [1   ]
   /CIo  [1   ]                 /CIp    [1   ]
   /CIw  [1   ]                 /CIgrl  [1   ]
   /CIgr [1   ]                 /CIgrd  [1   ]
   /CIk  [1   ]
>> def

%
% The following routines handle the alignment of and printing of
% tagged strings.
%

% Predefine the bounding box values.
/bbllx 0 def /bblly 0 def /bburx 0 def /bbury 0 def

% This routine pops the first unicode character off of a string and returns
% the remainder of the string, the character code of first character,
% and a "true" if the string was non-zero length.
% <string>      popfirst <remaining string> <true>
% <null string> popfirst <false>
/popfirst {
  dup length 1 gt
    {dup 0 get /vg&fbyte exch def
     dup 1 get /vg&cbyte exch def
     dup length 2 sub 2 exch getinterval true}
    {pop false} ifelse
} def

% This routine shows a single unicode character given the font and
% character codes.
% <font code> <char code> unicharshow --
/unicharshow {
  2 string
  dup 0 5 -1 roll put
  dup 1 4 -1 roll put
  internalshow
} def

% This is an internal routine to alternate between determining the
% bounding box for stringsize and showing the string for recshow.
% <string> internalshow --
/internalshow {show} def

% This is an internal routine to alternate between determining the
% bounding box for stringsize and stroking various ornaments.
% <string> internalstroke --
/internalstroke {S} def

% Sets up internalshow to use the null device to determine string size.
% -- nullinternalshow --
/nullinternalshow {/internalshow {false charpath flattenpath
                                  pathbbox updatebbox} def} def

% Sets up internalstroke to use the null device to determine string size.
% -- nullinternalstroke --
/nullinternalstroke {
 /internalstroke {flattenpath pathbbox updatebbox} def} def

% This routine tests to see if the character code matches the first
% character of a string.
% <char code> <string> testchar <char code> <true or false>
/testchar {exch dup 3 -1 roll 0 get eq} def

% Raise the text baseline for superscripts.
% -- raise --
/raise {
  0 fontsize 2 div rmoveto
  /fontsize fontsize 2 mul 3 div def
  currentfont /FontName get fontsize sf
} def

% Un-raise the text baseline for superscripts.
% -- unraise --
/unraise {
  /fontsize fontsize 1.5 mul def
  0 fontsize 2 div neg rmoveto
} def

% Lower the text baseline for subscripts.
% -- lower --
/lower {
  0 fontsize 3 div neg rmoveto
  /fontsize fontsize 2 mul 3 div def
  currentfont /FontName get fontsize sf
} def

% Un-lower the text baseline for subscripts.
% -- unlower --
/unlower {
  /fontsize fontsize 1.5 mul def
  0 fontsize 3 div rmoveto
} def

% Compare the top two elements on the stack and leave only the
% larger one.
/maxval {2 copy gt {pop} {exch pop} ifelse} def

% Tokenize a string.  Do not use the usual PostScript token because
% parentheses will not be interpreted correctly because of rescanning
% of the string.
/vg&token {/vg&string exch def /vg&index -1 def /vg&level 0 def
0 2 vg&string length 2 sub {
  dup dup 1 add exch vg&string exch get 8 bitshift vg&string 3 -1 roll get or
  dup 16#f0fe eq {pop 1}{16#f0ff eq {-1}{0} ifelse} ifelse
  /vg&level exch vg&level add def
  vg&level 0 eq {/vg&index exch def exit} if pop
} for
vg&index 0 ge {
  vg&string vg&index 2 add dup vg&string length exch sub getinterval
  vg&index 2 gt {vg&string 2 vg&index 2 sub getinterval}{()} ifelse
  true}
{false} ifelse
} bind def

% Recursively show an unicode string.
% <string> recshow --
/recshow {
  popfirst
  {
    % Test to see if this is a string attribute.
    vg&fbyte 16#f0 and 16#e0 eq
    {
      q

      % Font style.
      currentfont dup /FontStyleBits known {/FontStyleBits get}{pop 0} ifelse
      vg&cbyte or vg&fontstyles exch get fontsize exch exec

      vg&token pop recshow currentpoint Q m recshow
    }
    {
      vg&fbyte 16#F8 and 16#F0 eq {

        % Superscript and/or subscript.
        vg&cbyte 16#00 eq {
          vg&token pop exch vg&token pop 3 -1 roll
          q raise recshow unraise currentpoint pop Q exch
          q lower recshow unlower currentpoint pop Q
          maxval currentpoint exch pop m recshow } if

        % Strikeout.
        vg&cbyte 16#01 eq {
          vg&token pop currentpoint 3 -1 roll recshow
          q 0 J vg&underline vg&uthick w
          currentpoint 4 -2 roll fontsize 3 div add moveto
          fontsize 3 div add lineto internalstroke Q
          recshow} if

        % Underline.
        vg&cbyte 16#02 eq {
          vg&token pop currentpoint 3 -1 roll recshow
          q 0 J vg&underline vg&uthick w
          currentpoint 4 -2 roll vg&uoffset add moveto
          vg&uoffset add lineto internalstroke Q
          recshow} if

        % Dashed underline.
        vg&cbyte 16#03 eq {
          vg&token pop currentpoint 3 -1 roll recshow
          q 0 J [ vg&uthick 5 mul vg&uthick 2 mul] 0 d
          vg&underline vg&uthick w
          currentpoint 4 -2 roll vg&uoffset add moveto
          vg&uoffset add lineto internalstroke Q
          recshow} if

        % Dotted underline.
        vg&cbyte 16#04 eq {
          vg&token pop currentpoint 3 -1 roll recshow
          q 1 J [ 0 vg&uthick 3 mul] 0 d
          vg&underline vg&uthick w
          currentpoint 4 -2 roll vg&uoffset add moveto
          vg&uoffset add lineto internalstroke Q
          recshow} if

        % Thick underline.
        vg&cbyte 16#05 eq {
          vg&token pop currentpoint 3 -1 roll recshow
          q 0 J vg&underline vg&uthick 2 mul w
          currentpoint 4 -2 roll vg&uoffset vg&uthick 2 div sub add moveto
          vg&uoffset vg&uthick 2 div sub add lineto internalstroke Q
          recshow} if

        % Gray thick underline.
        vg&cbyte 16#06 eq {
          vg&token pop currentpoint 3 -1 roll recshow
          q 0 J vg&underline vg&uthick 2 mul w 0.5 setgray
          currentpoint 4 -2 roll vg&uoffset vg&uthick 2 div sub add moveto
          vg&uoffset vg&uthick 2 div sub add lineto internalstroke Q
          recshow} if

        % Overbar.
        vg&cbyte 16#07 eq {
          vg&token pop dup stringsize relative 4 1 roll pop pop exch
          3 -1 roll recshow
          q 0 J vg&underline vg&uthick w
          vg&uoffset neg add dup currentpoint pop exch m l internalstroke Q
          recshow} if
      }
      {
        vg&fbyte vg&cbyte unicharshow recshow
      } ifelse
    } ifelse
  } if
} def

% Get the underline position and thickness from the current font.
/vg&underline {

currentfont dup /FontType get 0 eq {/FDepVector get 0 get} if
dup dup /FontInfo known {
  /FontInfo get dup
  dup /UnderlinePosition known {
    /UnderlinePosition get /vg&uoffset exch def
  }
  {
    pop /vg&uoffset 0 def
  } ifelse
  dup /UnderlineThickness known {
    /UnderlineThickness get /vg&uthick exch def
  }
  {
    pop /vg&uthick 0 def
  } ifelse
}
{
  pop /vg&uoffset 0 def /vg&uthick 0 def
} ifelse
/FontMatrix get
currentfont dup /FontType get 0 eq
{/FontMatrix get matrix concatmatrix}{pop} ifelse
dup 0 vg&uoffset 3 -1 roll transform /vg&uoffset exch def pop
0 vg&uthick 3 -1 roll transform /vg&uthick exch def pop
} def

% Make a frame with the coordinates on the stack.
% <llx> <lly> <urx> <ury> frame --
/frame {4 copy m 3 1 roll exch l 4 -2 roll l l h} def

% Resets the accumulated bounding box to a degenerate box at the
% current point.
% -- resetbbox --
/resetbbox {
  currentpoint 2 copy
  /bbury exch def
  /bburx exch def
  /bblly exch def
  /bbllx exch def
} def

% Update the accumulated bounding box.
% <llx'> <lly'> <urx'> <ury'> updatebbox --
/updatebbox {
  dup bbury gt {/bbury exch def} {pop} ifelse
  dup bburx gt {/bburx exch def} {pop} ifelse
  dup bblly lt {/bblly exch def} {pop} ifelse
  dup bbllx lt {/bbllx exch def} {pop} ifelse
} def

% Set the bounding box to the values on the stack.
% <llx'> <lly'> <urx'> <ury'> updatebbox --
/restorebbox {
  /bbury exch def /bburx exch def /bblly exch def /bbllx exch def
} def

% Push the accumulated bounding box onto the stack.
% -- pushbbox <llx> <lly> <urx> <ury>
/pushbbox {bbllx bblly bburx bbury} def

% Make the relative bounding box relative to the currentpoint.
% <llx'> <lly'> <urx'> <ury'> inflate <llx> <lly> <urx> <ury>
/inflate {
  2 {fontsize 0.2 mul add 4 1 roll} repeat
  2 {fontsize 0.2 mul sub 4 1 roll} repeat
} def

% Make the relative bounding box relative to the currentpoint.
% <llx'> <lly'> <urx'> <ury'> relative <llx> <lly> <urx> <ury>
/relative {
  currentpoint 3 -1 roll add 3 1 roll add exch 4 2 roll
  currentpoint 3 -1 roll add 3 1 roll add exch 4 2 roll
} def

% Returns the size of a string appropriate for recshow.
% <string> stringsize <llx> <lly> <urx> <ury>
/stringsize {
  pushbbox /internalshow load /internalstroke load 7 -1 roll
  q
  nulldevice 0 0 m
  nullinternalshow nullinternalstroke
  resetbbox
  recshow
  /internalstroke exch def /internalshow exch def
  pushbbox 8 -4 roll restorebbox
  Q
} def

% Calculate values for string positioning.
/calcval {4 copy
  3 -1 roll sub /widy exch def sub neg /widx exch def
  pop pop /dy exch def /dx exch def} def

% Utilities to position a string.
% First letter (U=upper, C=center, B=baseline, L=lower)
% Second letter (L=left, C=center, R=right)
/align [
{calcval dx neg widy dy add neg rmoveto} % UL
{calcval dx neg widy 2 div dy add neg rmoveto} % CL
{calcval dx neg 0 rmoveto} % BL
{calcval dx neg dy neg rmoveto} % LL
{calcval widx dx add neg widy dy add neg rmoveto} % UR
{calcval widx dx add neg widy 2 div dy add neg rmoveto} % CR
{calcval widx dx add neg 0 rmoveto} % BR
{calcval widx dx add neg dy neg rmoveto} % LR
{calcval widx 2 div dx add neg widy dy add neg rmoveto} % UC
{calcval widx 2 div dx add neg widy 2 div dy add neg rmoveto} % CC
{calcval widx 2 div dx add neg 0 rmoveto} % BC
{calcval widx 2 div dx add neg dy neg rmoveto} % LC
] def

/vg&str {m q 1 -1 scale dup stringsize 4 copy align 11 -1 roll get exec
         q inflate relative frame exch exec Q recshow Q} def

end /procDict exch def
%%EndProlog

%%BeginSetup
save
procDict begin
printColorMap begin
518 137 setpagesize
0 0 0 0 setmargins
0 0 setorigin
518 137 setsize
naturalsize
portrait
imagescale
cliptobounds
setbasematrix
/Helvetica 10 sf
defaultGraphicsState
%%EndSetup

0.00000 0.00000 0.00000 RG
[ 1.00000 0.00000 0.00000 1.00000 0.00000 0.00000 ] defaultmatrix matrix concatmatrix setmatrix
cliprestore
1.00000 1.00000 1.00000 RG
newpath
0.00000 0.00000 m
518.000 0.00000 l
518.000 137.000 l
0.00000 137.000 l
0.00000 0.00000 l
h
f
0.00000 0.00000 0.00000 RG
0.00000 0.00000 0.00000 RG
[ 1.00000 0.00000 0.00000 1.00000 0.00000 0.00000 ] defaultmatrix matrix concatmatrix setmatrix
cliprestore
1.00000 1.00000 1.00000 RG
newpath
0.00000 0.00000 m
518.000 0.00000 l
518.000 137.000 l
0.00000 137.000 l
0.00000 0.00000 l
h
f
0.00000 0.00000 0.00000 RG
0 0 518 137 rc
q
[ 1.00000 0.00000 0.00000 1.00000 0.00000 0.00000 ] concat
[ 1.00000 0.00000 0.00000 1.00000 -118.000 -46.0000 ] concat
1.00000 1.00000 1.00000 RG
newpath
118.000 46.0000 m
636.000 46.0000 l
636.000 183.000 l
118.000 183.000 l
118.000 46.0000 l
h
f
0.00000 0.00000 0.00000 RG
[ 1.00000 0.00000 0.00000 1.00000 -118.000 -46.0000 ] defaultmatrix matrix concatmatrix setmatrix
[ 1.00000 0.00000 0.00000 1.00000 -118.000 -46.0000 ] defaultmatrix matrix concatmatrix setmatrix
[ 1.00000 0.00000 0.00000 1.00000 0.00000 0.00000 ] defaultmatrix matrix concatmatrix setmatrix
[ 1.00000 0.00000 0.00000 1.00000 -118.000 -46.0000 ] defaultmatrix matrix concatmatrix setmatrix
1.00000 .800000 0.00000 RG
newpath
480.279 105.969 m
484.779 98.7636 l
493.270 98.4694 l
489.279 90.9694 l
493.270 83.4694 l
484.779 83.1752 l
480.279 75.9694 l
475.779 83.1752 l
467.289 83.4694 l
471.279 90.9694 l
467.289 98.4694 l
475.779 98.7636 l
h
f*
0 J
1.45000 M
0.00000 0.00000 0.00000 RG
newpath
480.279 105.969 m
484.779 98.7636 l
493.270 98.4694 l
489.279 90.9694 l
493.270 83.4694 l
484.779 83.1752 l
480.279 75.9694 l
475.779 83.1752 l
467.289 83.4694 l
471.279 90.9694 l
467.289 98.4694 l
475.779 98.7636 l
h
S
2 J
10.0000 M
0 J
1.45000 M
newpath
513.898 94.0338 m
517.195 85.4401 l
518.414 85.4401 l
521.930 94.0338 l
520.648 94.0338 l
519.633 91.4245 l
516.055 91.4245 l
515.102 94.0338 l
513.898 94.0338 l
h
516.383 90.5026 m
519.289 90.5026 l
518.398 88.1276 l
518.117 87.4088 517.914 86.8151 517.789 86.3463  c
517.674 86.8984 517.518 87.4453 517.320 87.9870  c
516.383 90.5026 l
h
522.715 94.0338 m
522.715 87.8151 l
523.652 87.8151 l
523.652 88.6901 l
524.111 88.0130 524.772 87.6745 525.637 87.6745  c
526.012 87.6745 526.358 87.7422 526.676 87.8776  c
526.993 88.0130 527.230 88.1901 527.387 88.4088  c
527.543 88.6276 527.652 88.8828 527.715 89.1745  c
527.746 89.3724 527.762 89.7161 527.762 90.2057  c
527.762 94.0338 l
526.715 94.0338 l
526.715 90.2526 l
526.715 89.8151 526.673 89.4922 526.590 89.2838  c
526.506 89.0755 526.361 88.9062 526.152 88.7760  c
525.944 88.6458 525.699 88.5807 525.418 88.5807  c
524.970 88.5807 524.582 88.7239 524.254 89.0104  c
523.926 89.2969 523.762 89.8359 523.762 90.6276  c
523.762 94.0338 l
522.715 94.0338 l
h
536.785 93.2682 m
536.389 93.6015 536.012 93.8359 535.652 93.9713  c
535.293 94.1068 534.905 94.1745 534.488 94.1745  c
533.801 94.1745 533.275 94.0078 532.910 93.6745  c
532.546 93.3411 532.363 92.9140 532.363 92.3932  c
532.363 92.0911 532.431 91.8125 532.566 91.5573  c
532.702 91.3021 532.884 91.0989 533.113 90.9479  c
533.342 90.7969 533.598 90.6849 533.879 90.6120  c
534.077 90.5495 534.389 90.4922 534.816 90.4401  c
535.660 90.3463 536.285 90.2265 536.691 90.0807  c
536.691 89.9349 536.691 89.8463 536.691 89.8151  c
536.691 89.3776 536.592 89.0703 536.394 88.8932  c
536.124 88.6640 535.723 88.5495 535.191 88.5495  c
534.702 88.5495 534.337 88.6354 534.098 88.8073  c
533.858 88.9791 533.681 89.2838 533.566 89.7213  c
532.535 89.5807 l
532.629 89.1432 532.785 88.7890 533.004 88.5182  c
533.223 88.2474 533.535 88.0390 533.941 87.8932  c
534.348 87.7474 534.816 87.6745 535.348 87.6745  c
535.879 87.6745 536.311 87.7370 536.644 87.8620  c
536.978 87.9870 537.223 88.1432 537.379 88.3307  c
537.535 88.5182 537.644 88.7578 537.707 89.0495  c
537.738 89.2265 537.754 89.5495 537.754 90.0182  c
537.754 91.4245 l
537.754 92.4036 537.777 93.0234 537.824 93.2838  c
537.871 93.5443 537.962 93.7943 538.098 94.0338  c
536.988 94.0338 l
536.884 93.8151 536.816 93.5599 536.785 93.2682  c
h
536.691 90.9088 m
536.306 91.0651 535.733 91.2005 534.973 91.3151  c
534.535 91.3776 534.228 91.4479 534.051 91.5260  c
533.874 91.6041 533.736 91.7161 533.637 91.8620  c
533.538 92.0078 533.488 92.1745 533.488 92.3620  c
533.488 92.6432 533.595 92.8776 533.809 93.0651  c
534.022 93.2526 534.332 93.3463 534.738 93.3463  c
535.144 93.3463 535.506 93.2578 535.824 93.0807  c
536.142 92.9036 536.374 92.6588 536.519 92.3463  c
536.634 92.1068 536.691 91.7578 536.691 91.2995  c
536.691 90.9088 l
h
543.459 91.7526 m
544.490 91.8932 l
544.376 92.6015 544.084 93.1588 543.615 93.5651  c
543.146 93.9713 542.574 94.1745 541.896 94.1745  c
541.042 94.1745 540.357 93.8958 539.842 93.3385  c
539.326 92.7812 539.068 91.9818 539.068 90.9401  c
539.068 90.2734 539.180 89.6875 539.404 89.1823  c
539.628 88.6771 539.967 88.2995 540.420 88.0495  c
540.873 87.7995 541.370 87.6745 541.912 87.6745  c
542.579 87.6745 543.128 87.8437 543.560 88.1823  c
543.993 88.5208 544.271 89.0078 544.396 89.6432  c
543.365 89.7995 l
543.271 89.3828 543.100 89.0677 542.850 88.8541  c
542.600 88.6406 542.297 88.5338 541.943 88.5338  c
541.412 88.5338 540.980 88.7239 540.646 89.1041  c
540.313 89.4844 540.146 90.0859 540.146 90.9088  c
540.146 91.7526 540.308 92.3620 540.631 92.7370  c
540.954 93.1120 541.370 93.2995 541.881 93.2995  c
542.297 93.2995 542.644 93.1745 542.920 92.9245  c
543.196 92.6745 543.376 92.2838 543.459 91.7526  c
h
549.459 91.7526 m
550.490 91.8932 l
550.376 92.6015 550.084 93.1588 549.615 93.5651  c
549.146 93.9713 548.574 94.1745 547.896 94.1745  c
547.042 94.1745 546.357 93.8958 545.842 93.3385  c
545.326 92.7812 545.068 91.9818 545.068 90.9401  c
545.068 90.2734 545.180 89.6875 545.404 89.1823  c
545.628 88.6771 545.967 88.2995 546.420 88.0495  c
546.873 87.7995 547.370 87.6745 547.912 87.6745  c
548.579 87.6745 549.128 87.8437 549.560 88.1823  c
549.993 88.5208 550.271 89.0078 550.396 89.6432  c
549.365 89.7995 l
549.271 89.3828 549.100 89.0677 548.850 88.8541  c
548.600 88.6406 548.297 88.5338 547.943 88.5338  c
547.412 88.5338 546.980 88.7239 546.646 89.1041  c
546.313 89.4844 546.146 90.0859 546.146 90.9088  c
546.146 91.7526 546.308 92.3620 546.631 92.7370  c
546.954 93.1120 547.370 93.2995 547.881 93.2995  c
548.297 93.2995 548.644 93.1745 548.920 92.9245  c
549.196 92.6745 549.376 92.2838 549.459 91.7526  c
h
555.646 92.0338 m
556.740 92.1588 l
556.574 92.7943 556.256 93.2890 555.787 93.6432  c
555.318 93.9974 554.725 94.1745 554.006 94.1745  c
553.100 94.1745 552.378 93.8932 551.842 93.3307  c
551.305 92.7682 551.037 91.9818 551.037 90.9713  c
551.037 89.9297 551.308 89.1198 551.850 88.5416  c
552.391 87.9635 553.089 87.6745 553.943 87.6745  c
554.777 87.6745 555.456 87.9557 555.982 88.5182  c
556.508 89.0807 556.771 89.8776 556.771 90.9088  c
556.771 90.9713 556.771 91.0651 556.771 91.1901  c
552.131 91.1901 l
552.172 91.8776 552.365 92.4010 552.709 92.7604  c
553.053 93.1198 553.485 93.2995 554.006 93.2995  c
554.391 93.2995 554.722 93.1979 554.998 92.9948  c
555.274 92.7916 555.490 92.4713 555.646 92.0338  c
h
552.193 90.3307 m
555.662 90.3307 l
555.620 89.7995 555.490 89.4036 555.271 89.1432  c
554.928 88.7370 554.490 88.5338 553.959 88.5338  c
553.469 88.5338 553.060 88.6953 552.732 89.0182  c
552.404 89.3411 552.225 89.7786 552.193 90.3307  c
h
558.070 96.4245 m
558.070 87.8151 l
559.023 87.8151 l
559.023 88.6120 l
559.253 88.2995 559.510 88.0651 559.797 87.9088  c
560.083 87.7526 560.430 87.6745 560.836 87.6745  c
561.367 87.6745 561.836 87.8099 562.242 88.0807  c
562.648 88.3515 562.953 88.7370 563.156 89.2370  c
563.359 89.7370 563.461 90.2838 563.461 90.8776  c
563.461 91.5130 563.349 92.0859 563.125 92.5963  c
562.901 93.1068 562.570 93.4974 562.133 93.7682  c
561.695 94.0390 561.237 94.1745 560.758 94.1745  c
560.404 94.1745 560.086 94.0989 559.805 93.9479  c
559.523 93.7969 559.294 93.6120 559.117 93.3932  c
559.117 96.4245 l
558.070 96.4245 l
h
559.023 90.9557 m
559.023 91.7578 559.185 92.3489 559.508 92.7291  c
559.831 93.1094 560.221 93.2995 560.680 93.2995  c
561.148 93.2995 561.549 93.1015 561.883 92.7057  c
562.216 92.3099 562.383 91.6953 562.383 90.8620  c
562.383 90.0703 562.221 89.4791 561.898 89.0885  c
561.575 88.6979 561.185 88.5026 560.727 88.5026  c
560.279 88.5026 559.883 88.7109 559.539 89.1276  c
559.195 89.5443 559.023 90.1536 559.023 90.9557  c
h
567.041 93.0963 m
567.197 94.0182 l
566.895 94.0807 566.629 94.1120 566.400 94.1120  c
566.015 94.1120 565.718 94.0521 565.510 93.9323  c
565.301 93.8125 565.153 93.6536 565.064 93.4557  c
564.976 93.2578 564.932 92.8411 564.932 92.2057  c
564.932 88.6276 l
564.166 88.6276 l
564.166 87.8151 l
564.932 87.8151 l
564.932 86.2682 l
565.978 85.6432 l
565.978 87.8151 l
567.041 87.8151 l
567.041 88.6276 l
565.978 88.6276 l
565.978 92.2682 l
565.978 92.5703 565.997 92.7630 566.033 92.8463  c
566.070 92.9297 566.129 92.9974 566.213 93.0495  c
566.296 93.1015 566.416 93.1276 566.572 93.1276  c
566.697 93.1276 566.853 93.1172 567.041 93.0963  c
h
568.078 86.6588 m
568.078 85.4401 l
569.141 85.4401 l
569.141 86.6588 l
568.078 86.6588 l
h
568.078 94.0338 m
568.078 87.8151 l
569.141 87.8151 l
569.141 94.0338 l
568.078 94.0338 l
h
570.744 94.0338 m
570.744 87.8151 l
571.682 87.8151 l
571.682 88.6901 l
572.140 88.0130 572.801 87.6745 573.666 87.6745  c
574.041 87.6745 574.387 87.7422 574.705 87.8776  c
575.023 88.0130 575.260 88.1901 575.416 88.4088  c
575.572 88.6276 575.682 88.8828 575.744 89.1745  c
575.775 89.3724 575.791 89.7161 575.791 90.2057  c
575.791 94.0338 l
574.744 94.0338 l
574.744 90.2526 l
574.744 89.8151 574.702 89.4922 574.619 89.2838  c
574.536 89.0755 574.390 88.9062 574.182 88.7760  c
573.973 88.6458 573.728 88.5807 573.447 88.5807  c
572.999 88.5807 572.611 88.7239 572.283 89.0104  c
571.955 89.2969 571.791 89.8359 571.791 90.6276  c
571.791 94.0338 l
570.744 94.0338 l
h
577.215 94.5495 m
578.246 94.7057 l
578.288 95.0182 578.407 95.2474 578.605 95.3932  c
578.866 95.5911 579.220 95.6901 579.668 95.6901  c
580.157 95.6901 580.535 95.5911 580.801 95.3932  c
581.066 95.1953 581.246 94.9245 581.340 94.5807  c
581.402 94.3620 581.428 93.9088 581.418 93.2213  c
580.960 93.7630 580.387 94.0338 579.699 94.0338  c
578.845 94.0338 578.184 93.7239 577.715 93.1041  c
577.246 92.4844 577.012 91.7474 577.012 90.8932  c
577.012 90.2995 577.118 89.7500 577.332 89.2448  c
577.546 88.7396 577.855 88.3515 578.262 88.0807  c
578.668 87.8099 579.147 87.6745 579.699 87.6745  c
580.439 87.6745 581.048 87.9713 581.527 88.5651  c
581.527 87.8151 l
582.496 87.8151 l
582.496 93.1901 l
582.496 94.1588 582.397 94.8463 582.199 95.2526  c
582.001 95.6588 581.689 95.9791 581.262 96.2135  c
580.835 96.4479 580.309 96.5651 579.684 96.5651  c
578.944 96.5651 578.345 96.3984 577.887 96.0651  c
577.428 95.7318 577.204 95.2265 577.215 94.5495  c
h
578.090 90.8151 m
578.090 91.6276 578.251 92.2213 578.574 92.5963  c
578.897 92.9713 579.303 93.1588 579.793 93.1588  c
580.282 93.1588 580.691 92.9713 581.019 92.5963  c
581.348 92.2213 581.512 91.6380 581.512 90.8463  c
581.512 90.0859 581.342 89.5130 581.004 89.1276  c
580.665 88.7422 580.256 88.5495 579.777 88.5495  c
579.309 88.5495 578.910 88.7396 578.582 89.1198  c
578.254 89.5000 578.090 90.0651 578.090 90.8151  c
h
587.004 92.1745 m
588.035 92.0182 l
588.098 92.4349 588.262 92.7526 588.527 92.9713  c
588.793 93.1901 589.171 93.2995 589.660 93.2995  c
590.139 93.2995 590.496 93.2031 590.730 93.0104  c
590.965 92.8177 591.082 92.5859 591.082 92.3151  c
591.082 92.0755 590.978 91.8880 590.769 91.7526  c
590.624 91.6588 590.264 91.5390 589.691 91.3932  c
588.921 91.1953 588.387 91.0260 588.090 90.8854  c
587.793 90.7448 587.566 90.5495 587.410 90.2995  c
587.254 90.0495 587.176 89.7682 587.176 89.4557  c
587.176 89.1849 587.238 88.9297 587.363 88.6901  c
587.488 88.4505 587.660 88.2526 587.879 88.0963  c
588.046 87.9818 588.269 87.8828 588.551 87.7995  c
588.832 87.7161 589.139 87.6745 589.473 87.6745  c
589.952 87.6745 590.376 87.7448 590.746 87.8854  c
591.116 88.0260 591.389 88.2161 591.566 88.4557  c
591.743 88.6953 591.863 89.0130 591.926 89.4088  c
590.894 89.5495 l
590.853 89.2370 590.720 88.9896 590.496 88.8073  c
590.272 88.6250 589.952 88.5338 589.535 88.5338  c
589.056 88.5338 588.712 88.6146 588.504 88.7760  c
588.296 88.9375 588.191 89.1276 588.191 89.3463  c
588.191 89.4818 588.233 89.6015 588.316 89.7057  c
588.410 89.8203 588.546 89.9140 588.723 89.9870  c
588.827 90.0286 589.139 90.1172 589.660 90.2526  c
590.410 90.4609 590.931 90.6276 591.223 90.7526  c
591.514 90.8776 591.743 91.0599 591.910 91.2995  c
592.077 91.5390 592.160 91.8411 592.160 92.2057  c
592.160 92.5599 592.059 92.8906 591.855 93.1979  c
591.652 93.5052 591.358 93.7448 590.973 93.9166  c
590.587 94.0885 590.150 94.1745 589.660 94.1745  c
588.848 94.1745 588.230 94.0052 587.809 93.6666  c
587.387 93.3281 587.118 92.8307 587.004 92.1745  c
h
595.723 93.0963 m
595.879 94.0182 l
595.577 94.0807 595.311 94.1120 595.082 94.1120  c
594.697 94.1120 594.400 94.0521 594.191 93.9323  c
593.983 93.8125 593.835 93.6536 593.746 93.4557  c
593.657 93.2578 593.613 92.8411 593.613 92.2057  c
593.613 88.6276 l
592.848 88.6276 l
592.848 87.8151 l
593.613 87.8151 l
593.613 86.2682 l
594.660 85.6432 l
594.660 87.8151 l
595.723 87.8151 l
595.723 88.6276 l
594.660 88.6276 l
594.660 92.2682 l
594.660 92.5703 594.678 92.7630 594.715 92.8463  c
594.751 92.9297 594.811 92.9974 594.894 93.0495  c
594.978 93.1015 595.098 93.1276 595.254 93.1276  c
595.379 93.1276 595.535 93.1172 595.723 93.0963  c
h
600.822 93.2682 m
600.426 93.6015 600.049 93.8359 599.689 93.9713  c
599.330 94.1068 598.942 94.1745 598.525 94.1745  c
597.838 94.1745 597.312 94.0078 596.947 93.6745  c
596.583 93.3411 596.400 92.9140 596.400 92.3932  c
596.400 92.0911 596.468 91.8125 596.603 91.5573  c
596.739 91.3021 596.921 91.0989 597.150 90.9479  c
597.379 90.7969 597.635 90.6849 597.916 90.6120  c
598.114 90.5495 598.426 90.4922 598.853 90.4401  c
599.697 90.3463 600.322 90.2265 600.728 90.0807  c
600.728 89.9349 600.728 89.8463 600.728 89.8151  c
600.728 89.3776 600.629 89.0703 600.432 88.8932  c
600.161 88.6640 599.760 88.5495 599.228 88.5495  c
598.739 88.5495 598.374 88.6354 598.135 88.8073  c
597.895 88.9791 597.718 89.2838 597.603 89.7213  c
596.572 89.5807 l
596.666 89.1432 596.822 88.7890 597.041 88.5182  c
597.260 88.2474 597.572 88.0390 597.978 87.8932  c
598.385 87.7474 598.853 87.6745 599.385 87.6745  c
599.916 87.6745 600.348 87.7370 600.682 87.8620  c
601.015 87.9870 601.260 88.1432 601.416 88.3307  c
601.572 88.5182 601.682 88.7578 601.744 89.0495  c
601.775 89.2265 601.791 89.5495 601.791 90.0182  c
601.791 91.4245 l
601.791 92.4036 601.814 93.0234 601.861 93.2838  c
601.908 93.5443 601.999 93.7943 602.135 94.0338  c
601.025 94.0338 l
600.921 93.8151 600.853 93.5599 600.822 93.2682  c
h
600.728 90.9088 m
600.343 91.0651 599.770 91.2005 599.010 91.3151  c
598.572 91.3776 598.265 91.4479 598.088 91.5260  c
597.911 91.6041 597.773 91.7161 597.674 91.8620  c
597.575 92.0078 597.525 92.1745 597.525 92.3620  c
597.525 92.6432 597.632 92.8776 597.846 93.0651  c
598.059 93.2526 598.369 93.3463 598.775 93.3463  c
599.182 93.3463 599.544 93.2578 599.861 93.0807  c
600.179 92.9036 600.411 92.6588 600.557 92.3463  c
600.671 92.1068 600.728 91.7578 600.728 91.2995  c
600.728 90.9088 l
h
605.730 93.0963 m
605.887 94.0182 l
605.585 94.0807 605.319 94.1120 605.090 94.1120  c
604.704 94.1120 604.407 94.0521 604.199 93.9323  c
603.991 93.8125 603.842 93.6536 603.754 93.4557  c
603.665 93.2578 603.621 92.8411 603.621 92.2057  c
603.621 88.6276 l
602.855 88.6276 l
602.855 87.8151 l
603.621 87.8151 l
603.621 86.2682 l
604.668 85.6432 l
604.668 87.8151 l
605.730 87.8151 l
605.730 88.6276 l
604.668 88.6276 l
604.668 92.2682 l
604.668 92.5703 604.686 92.7630 604.723 92.8463  c
604.759 92.9297 604.819 92.9974 604.902 93.0495  c
604.986 93.1015 605.105 93.1276 605.262 93.1276  c
605.387 93.1276 605.543 93.1172 605.730 93.0963  c
h
611.018 92.0338 m
612.111 92.1588 l
611.945 92.7943 611.627 93.2890 611.158 93.6432  c
610.689 93.9974 610.096 94.1745 609.377 94.1745  c
608.471 94.1745 607.749 93.8932 607.213 93.3307  c
606.676 92.7682 606.408 91.9818 606.408 90.9713  c
606.408 89.9297 606.679 89.1198 607.221 88.5416  c
607.762 87.9635 608.460 87.6745 609.314 87.6745  c
610.148 87.6745 610.827 87.9557 611.353 88.5182  c
611.879 89.0807 612.143 89.8776 612.143 90.9088  c
612.143 90.9713 612.143 91.0651 612.143 91.1901  c
607.502 91.1901 l
607.544 91.8776 607.736 92.4010 608.080 92.7604  c
608.424 93.1198 608.856 93.2995 609.377 93.2995  c
609.762 93.2995 610.093 93.1979 610.369 92.9948  c
610.645 92.7916 610.861 92.4713 611.018 92.0338  c
h
607.564 90.3307 m
611.033 90.3307 l
610.991 89.7995 610.861 89.4036 610.643 89.1432  c
610.299 88.7370 609.861 88.5338 609.330 88.5338  c
608.840 88.5338 608.432 88.6953 608.103 89.0182  c
607.775 89.3411 607.596 89.7786 607.564 90.3307  c
h
f
2 J
10.0000 M
1.00000 .800000 0.00000 RG
newpath
494.279 130.969 m
494.279 139.254 487.563 145.969 479.279 145.969  c
470.995 145.969 464.279 139.254 464.279 130.969  c
464.279 122.685 470.995 115.969 479.279 115.969  c
487.563 115.969 494.279 122.685 494.279 130.969  c
h
f
0 J
1.45000 M
0.00000 0.00000 0.00000 RG
newpath
494.279 130.969 m
494.279 139.254 487.563 145.969 479.279 145.969  c
470.995 145.969 464.279 139.254 464.279 130.969  c
464.279 122.685 470.995 115.969 479.279 115.969  c
487.563 115.969 494.279 122.685 494.279 130.969  c
h
S
2 J
10.0000 M
0 J
1.45000 M
newpath
512.837 137.333 m
512.837 128.739 l
513.993 128.739 l
518.509 135.489 l
518.509 128.739 l
519.602 128.739 l
519.602 137.333 l
518.431 137.333 l
513.915 130.583 l
513.915 137.333 l
512.837 137.333 l
h
520.987 134.223 m
520.987 133.067 521.305 132.213 521.940 131.661  c
522.472 131.202 523.123 130.973 523.893 130.973  c
524.748 130.973 525.448 131.252 525.995 131.809  c
526.542 132.367 526.815 133.140 526.815 134.130  c
526.815 134.932 526.696 135.562 526.456 136.020  c
526.216 136.479 525.865 136.835 525.401 137.090  c
524.938 137.346 524.435 137.473 523.893 137.473  c
523.029 137.473 522.328 137.195 521.792 136.637  c
521.255 136.080 520.987 135.275 520.987 134.223  c
h
522.065 134.223 m
522.065 135.015 522.240 135.609 522.589 136.005  c
522.938 136.400 523.373 136.598 523.893 136.598  c
524.425 136.598 524.862 136.400 525.206 136.005  c
525.550 135.609 525.722 135.005 525.722 134.192  c
525.722 133.421 525.547 132.838 525.198 132.442  c
524.849 132.046 524.414 131.848 523.893 131.848  c
523.373 131.848 522.938 132.044 522.589 132.434  c
522.240 132.825 522.065 133.421 522.065 134.223  c
h
528.052 137.333 m
528.052 131.114 l
528.989 131.114 l
528.989 131.989 l
529.448 131.312 530.109 130.973 530.974 130.973  c
531.349 130.973 531.695 131.041 532.013 131.176  c
532.330 131.312 532.567 131.489 532.724 131.708  c
532.880 131.926 532.989 132.182 533.052 132.473  c
533.083 132.671 533.099 133.015 533.099 133.505  c
533.099 137.333 l
532.052 137.333 l
532.052 133.551 l
532.052 133.114 532.010 132.791 531.927 132.583  c
531.843 132.374 531.698 132.205 531.489 132.075  c
531.281 131.945 531.036 131.880 530.755 131.880  c
530.307 131.880 529.919 132.023 529.591 132.309  c
529.263 132.596 529.099 133.135 529.099 133.926  c
529.099 137.333 l
528.052 137.333 l
h
534.304 134.755 m
534.304 133.692 l
537.554 133.692 l
537.554 134.755 l
534.304 134.755 l
h
542.784 136.567 m
542.388 136.900 542.011 137.135 541.651 137.270  c
541.292 137.406 540.904 137.473 540.487 137.473  c
539.800 137.473 539.274 137.307 538.909 136.973  c
538.545 136.640 538.362 136.213 538.362 135.692  c
538.362 135.390 538.430 135.111 538.565 134.856  c
538.701 134.601 538.883 134.398 539.112 134.247  c
539.341 134.096 539.597 133.984 539.878 133.911  c
540.076 133.848 540.388 133.791 540.815 133.739  c
541.659 133.645 542.284 133.525 542.690 133.380  c
542.690 133.234 542.690 133.145 542.690 133.114  c
542.690 132.676 542.591 132.369 542.393 132.192  c
542.123 131.963 541.722 131.848 541.190 131.848  c
540.701 131.848 540.336 131.934 540.097 132.106  c
539.857 132.278 539.680 132.583 539.565 133.020  c
538.534 132.880 l
538.628 132.442 538.784 132.088 539.003 131.817  c
539.222 131.546 539.534 131.338 539.940 131.192  c
540.347 131.046 540.815 130.973 541.347 130.973  c
541.878 130.973 542.310 131.036 542.643 131.161  c
542.977 131.286 543.222 131.442 543.378 131.630  c
543.534 131.817 543.643 132.057 543.706 132.348  c
543.737 132.525 543.753 132.848 543.753 133.317  c
543.753 134.723 l
543.753 135.702 543.776 136.322 543.823 136.583  c
543.870 136.843 543.961 137.093 544.097 137.333  c
542.987 137.333 l
542.883 137.114 542.815 136.859 542.784 136.567  c
h
542.690 134.208 m
542.305 134.364 541.732 134.499 540.972 134.614  c
540.534 134.676 540.227 134.747 540.050 134.825  c
539.873 134.903 539.735 135.015 539.636 135.161  c
539.537 135.307 539.487 135.473 539.487 135.661  c
539.487 135.942 539.594 136.176 539.808 136.364  c
540.021 136.551 540.331 136.645 540.737 136.645  c
541.143 136.645 541.505 136.557 541.823 136.380  c
542.141 136.202 542.373 135.958 542.518 135.645  c
542.633 135.406 542.690 135.057 542.690 134.598  c
542.690 134.208 l
h
549.458 135.051 m
550.489 135.192 l
550.375 135.900 550.083 136.458 549.614 136.864  c
549.145 137.270 548.573 137.473 547.895 137.473  c
547.041 137.473 546.356 137.195 545.841 136.637  c
545.325 136.080 545.067 135.281 545.067 134.239  c
545.067 133.572 545.179 132.986 545.403 132.481  c
545.627 131.976 545.966 131.598 546.419 131.348  c
546.872 131.098 547.369 130.973 547.911 130.973  c
548.578 130.973 549.127 131.143 549.560 131.481  c
549.992 131.820 550.270 132.307 550.395 132.942  c
549.364 133.098 l
549.270 132.682 549.099 132.367 548.849 132.153  c
548.599 131.939 548.296 131.833 547.942 131.833  c
547.411 131.833 546.979 132.023 546.645 132.403  c
546.312 132.783 546.145 133.385 546.145 134.208  c
546.145 135.051 546.307 135.661 546.630 136.036  c
546.953 136.411 547.369 136.598 547.880 136.598  c
548.296 136.598 548.643 136.473 548.919 136.223  c
549.195 135.973 549.375 135.583 549.458 135.051  c
h
555.458 135.051 m
556.489 135.192 l
556.375 135.900 556.083 136.458 555.614 136.864  c
555.145 137.270 554.573 137.473 553.895 137.473  c
553.041 137.473 552.356 137.195 551.841 136.637  c
551.325 136.080 551.067 135.281 551.067 134.239  c
551.067 133.572 551.179 132.986 551.403 132.481  c
551.627 131.976 551.966 131.598 552.419 131.348  c
552.872 131.098 553.369 130.973 553.911 130.973  c
554.578 130.973 555.127 131.143 555.560 131.481  c
555.992 131.820 556.270 132.307 556.395 132.942  c
555.364 133.098 l
555.270 132.682 555.099 132.367 554.849 132.153  c
554.599 131.939 554.296 131.833 553.942 131.833  c
553.411 131.833 552.979 132.023 552.645 132.403  c
552.312 132.783 552.145 133.385 552.145 134.208  c
552.145 135.051 552.307 135.661 552.630 136.036  c
552.953 136.411 553.369 136.598 553.880 136.598  c
554.296 136.598 554.643 136.473 554.919 136.223  c
555.195 135.973 555.375 135.583 555.458 135.051  c
h
561.645 135.333 m
562.739 135.458 l
562.573 136.093 562.255 136.588 561.786 136.942  c
561.317 137.296 560.724 137.473 560.005 137.473  c
559.099 137.473 558.377 137.192 557.841 136.630  c
557.304 136.067 557.036 135.281 557.036 134.270  c
557.036 133.229 557.307 132.419 557.849 131.840  c
558.390 131.262 559.088 130.973 559.942 130.973  c
560.776 130.973 561.455 131.255 561.981 131.817  c
562.507 132.380 562.770 133.176 562.770 134.208  c
562.770 134.270 562.770 134.364 562.770 134.489  c
558.130 134.489 l
558.171 135.176 558.364 135.700 558.708 136.059  c
559.052 136.419 559.484 136.598 560.005 136.598  c
560.390 136.598 560.721 136.497 560.997 136.294  c
561.273 136.090 561.489 135.770 561.645 135.333  c
h
558.192 133.630 m
561.661 133.630 l
561.619 133.098 561.489 132.702 561.270 132.442  c
560.927 132.036 560.489 131.833 559.958 131.833  c
559.468 131.833 559.060 131.994 558.731 132.317  c
558.403 132.640 558.224 133.077 558.192 133.630  c
h
564.069 139.723 m
564.069 131.114 l
565.022 131.114 l
565.022 131.911 l
565.252 131.598 565.509 131.364 565.796 131.208  c
566.082 131.051 566.429 130.973 566.835 130.973  c
567.366 130.973 567.835 131.109 568.241 131.380  c
568.647 131.650 568.952 132.036 569.155 132.536  c
569.358 133.036 569.460 133.583 569.460 134.176  c
569.460 134.812 569.348 135.385 569.124 135.895  c
568.900 136.406 568.569 136.796 568.132 137.067  c
567.694 137.338 567.236 137.473 566.757 137.473  c
566.403 137.473 566.085 137.398 565.804 137.247  c
565.522 137.096 565.293 136.911 565.116 136.692  c
565.116 139.723 l
564.069 139.723 l
h
565.022 134.255 m
565.022 135.057 565.184 135.648 565.507 136.028  c
565.830 136.408 566.220 136.598 566.679 136.598  c
567.147 136.598 567.548 136.400 567.882 136.005  c
568.215 135.609 568.382 134.994 568.382 134.161  c
568.382 133.369 568.220 132.778 567.897 132.387  c
567.574 131.997 567.184 131.801 566.726 131.801  c
566.278 131.801 565.882 132.010 565.538 132.426  c
565.194 132.843 565.022 133.452 565.022 134.255  c
h
573.040 136.395 m
573.196 137.317 l
572.894 137.380 572.629 137.411 572.399 137.411  c
572.014 137.411 571.717 137.351 571.509 137.231  c
571.300 137.111 571.152 136.952 571.063 136.755  c
570.975 136.557 570.931 136.140 570.931 135.505  c
570.931 131.926 l
570.165 131.926 l
570.165 131.114 l
570.931 131.114 l
570.931 129.567 l
571.977 128.942 l
571.977 131.114 l
573.040 131.114 l
573.040 131.926 l
571.977 131.926 l
571.977 135.567 l
571.977 135.869 571.996 136.062 572.032 136.145  c
572.069 136.229 572.129 136.296 572.212 136.348  c
572.295 136.400 572.415 136.426 572.571 136.426  c
572.696 136.426 572.852 136.416 573.040 136.395  c
h
574.077 129.958 m
574.077 128.739 l
575.140 128.739 l
575.140 129.958 l
574.077 129.958 l
h
574.077 137.333 m
574.077 131.114 l
575.140 131.114 l
575.140 137.333 l
574.077 137.333 l
h
576.743 137.333 m
576.743 131.114 l
577.681 131.114 l
577.681 131.989 l
578.139 131.312 578.800 130.973 579.665 130.973  c
580.040 130.973 580.386 131.041 580.704 131.176  c
581.022 131.312 581.259 131.489 581.415 131.708  c
581.571 131.926 581.681 132.182 581.743 132.473  c
581.774 132.671 581.790 133.015 581.790 133.505  c
581.790 137.333 l
580.743 137.333 l
580.743 133.551 l
580.743 133.114 580.701 132.791 580.618 132.583  c
580.535 132.374 580.389 132.205 580.181 132.075  c
579.972 131.945 579.727 131.880 579.446 131.880  c
578.998 131.880 578.610 132.023 578.282 132.309  c
577.954 132.596 577.790 133.135 577.790 133.926  c
577.790 137.333 l
576.743 137.333 l
h
583.214 137.848 m
584.245 138.005 l
584.287 138.317 584.407 138.546 584.604 138.692  c
584.865 138.890 585.219 138.989 585.667 138.989  c
586.157 138.989 586.534 138.890 586.800 138.692  c
587.065 138.494 587.245 138.223 587.339 137.880  c
587.401 137.661 587.427 137.208 587.417 136.520  c
586.959 137.062 586.386 137.333 585.698 137.333  c
584.844 137.333 584.183 137.023 583.714 136.403  c
583.245 135.783 583.011 135.046 583.011 134.192  c
583.011 133.598 583.117 133.049 583.331 132.544  c
583.545 132.038 583.854 131.650 584.261 131.380  c
584.667 131.109 585.146 130.973 585.698 130.973  c
586.438 130.973 587.047 131.270 587.526 131.864  c
587.526 131.114 l
588.495 131.114 l
588.495 136.489 l
588.495 137.458 588.396 138.145 588.198 138.551  c
588.000 138.958 587.688 139.278 587.261 139.512  c
586.834 139.747 586.308 139.864 585.683 139.864  c
584.943 139.864 584.344 139.697 583.886 139.364  c
583.427 139.031 583.203 138.525 583.214 137.848  c
h
584.089 134.114 m
584.089 134.926 584.250 135.520 584.573 135.895  c
584.896 136.270 585.302 136.458 585.792 136.458  c
586.282 136.458 586.690 136.270 587.018 135.895  c
587.347 135.520 587.511 134.937 587.511 134.145  c
587.511 133.385 587.341 132.812 587.003 132.426  c
586.664 132.041 586.255 131.848 585.776 131.848  c
585.308 131.848 584.909 132.038 584.581 132.419  c
584.253 132.799 584.089 133.364 584.089 134.114  c
h
593.003 135.473 m
594.034 135.317 l
594.097 135.734 594.261 136.051 594.526 136.270  c
594.792 136.489 595.170 136.598 595.659 136.598  c
596.138 136.598 596.495 136.502 596.729 136.309  c
596.964 136.117 597.081 135.885 597.081 135.614  c
597.081 135.374 596.977 135.187 596.768 135.051  c
596.623 134.958 596.263 134.838 595.690 134.692  c
594.920 134.494 594.386 134.325 594.089 134.184  c
593.792 134.044 593.565 133.848 593.409 133.598  c
593.253 133.348 593.175 133.067 593.175 132.755  c
593.175 132.484 593.237 132.229 593.362 131.989  c
593.487 131.749 593.659 131.551 593.878 131.395  c
594.045 131.281 594.268 131.182 594.550 131.098  c
594.831 131.015 595.138 130.973 595.472 130.973  c
595.951 130.973 596.375 131.044 596.745 131.184  c
597.115 131.325 597.388 131.515 597.565 131.755  c
597.742 131.994 597.862 132.312 597.925 132.708  c
596.893 132.848 l
596.852 132.536 596.719 132.288 596.495 132.106  c
596.271 131.924 595.951 131.833 595.534 131.833  c
595.055 131.833 594.711 131.913 594.503 132.075  c
594.295 132.236 594.190 132.426 594.190 132.645  c
594.190 132.781 594.232 132.900 594.315 133.005  c
594.409 133.119 594.545 133.213 594.722 133.286  c
594.826 133.327 595.138 133.416 595.659 133.551  c
596.409 133.760 596.930 133.926 597.222 134.051  c
597.513 134.176 597.742 134.359 597.909 134.598  c
598.076 134.838 598.159 135.140 598.159 135.505  c
598.159 135.859 598.058 136.189 597.854 136.497  c
597.651 136.804 597.357 137.044 596.972 137.215  c
596.586 137.387 596.149 137.473 595.659 137.473  c
594.847 137.473 594.229 137.304 593.808 136.965  c
593.386 136.627 593.117 136.130 593.003 135.473  c
h
601.722 136.395 m
601.878 137.317 l
601.576 137.380 601.310 137.411 601.081 137.411  c
600.696 137.411 600.399 137.351 600.190 137.231  c
599.982 137.111 599.834 136.952 599.745 136.755  c
599.657 136.557 599.612 136.140 599.612 135.505  c
599.612 131.926 l
598.847 131.926 l
598.847 131.114 l
599.612 131.114 l
599.612 129.567 l
600.659 128.942 l
600.659 131.114 l
601.722 131.114 l
601.722 131.926 l
600.659 131.926 l
600.659 135.567 l
600.659 135.869 600.677 136.062 600.714 136.145  c
600.750 136.229 600.810 136.296 600.893 136.348  c
600.977 136.400 601.097 136.426 601.253 136.426  c
601.378 136.426 601.534 136.416 601.722 136.395  c
h
606.821 136.567 m
606.425 136.900 606.048 137.135 605.688 137.270  c
605.329 137.406 604.941 137.473 604.524 137.473  c
603.837 137.473 603.311 137.307 602.946 136.973  c
602.582 136.640 602.399 136.213 602.399 135.692  c
602.399 135.390 602.467 135.111 602.602 134.856  c
602.738 134.601 602.920 134.398 603.149 134.247  c
603.379 134.096 603.634 133.984 603.915 133.911  c
604.113 133.848 604.425 133.791 604.852 133.739  c
605.696 133.645 606.321 133.525 606.727 133.380  c
606.727 133.234 606.727 133.145 606.727 133.114  c
606.727 132.676 606.629 132.369 606.431 132.192  c
606.160 131.963 605.759 131.848 605.227 131.848  c
604.738 131.848 604.373 131.934 604.134 132.106  c
603.894 132.278 603.717 132.583 603.602 133.020  c
602.571 132.880 l
602.665 132.442 602.821 132.088 603.040 131.817  c
603.259 131.546 603.571 131.338 603.977 131.192  c
604.384 131.046 604.852 130.973 605.384 130.973  c
605.915 130.973 606.347 131.036 606.681 131.161  c
607.014 131.286 607.259 131.442 607.415 131.630  c
607.571 131.817 607.681 132.057 607.743 132.348  c
607.774 132.525 607.790 132.848 607.790 133.317  c
607.790 134.723 l
607.790 135.702 607.813 136.322 607.860 136.583  c
607.907 136.843 607.998 137.093 608.134 137.333  c
607.024 137.333 l
606.920 137.114 606.852 136.859 606.821 136.567  c
h
606.727 134.208 m
606.342 134.364 605.769 134.499 605.009 134.614  c
604.571 134.676 604.264 134.747 604.087 134.825  c
603.910 134.903 603.772 135.015 603.673 135.161  c
603.574 135.307 603.524 135.473 603.524 135.661  c
603.524 135.942 603.631 136.176 603.845 136.364  c
604.058 136.551 604.368 136.645 604.774 136.645  c
605.181 136.645 605.543 136.557 605.860 136.380  c
606.178 136.202 606.410 135.958 606.556 135.645  c
606.670 135.406 606.727 135.057 606.727 134.598  c
606.727 134.208 l
h
611.729 136.395 m
611.886 137.317 l
611.584 137.380 611.318 137.411 611.089 137.411  c
610.703 137.411 610.407 137.351 610.198 137.231  c
609.990 137.111 609.841 136.952 609.753 136.755  c
609.664 136.557 609.620 136.140 609.620 135.505  c
609.620 131.926 l
608.854 131.926 l
608.854 131.114 l
609.620 131.114 l
609.620 129.567 l
610.667 128.942 l
610.667 131.114 l
611.729 131.114 l
611.729 131.926 l
610.667 131.926 l
610.667 135.567 l
610.667 135.869 610.685 136.062 610.722 136.145  c
610.758 136.229 610.818 136.296 610.901 136.348  c
610.985 136.400 611.104 136.426 611.261 136.426  c
611.386 136.426 611.542 136.416 611.729 136.395  c
h
617.017 135.333 m
618.110 135.458 l
617.944 136.093 617.626 136.588 617.157 136.942  c
616.688 137.296 616.095 137.473 615.376 137.473  c
614.470 137.473 613.748 137.192 613.212 136.630  c
612.675 136.067 612.407 135.281 612.407 134.270  c
612.407 133.229 612.678 132.419 613.220 131.840  c
613.761 131.262 614.459 130.973 615.313 130.973  c
616.147 130.973 616.826 131.255 617.352 131.817  c
617.879 132.380 618.142 133.176 618.142 134.208  c
618.142 134.270 618.142 134.364 618.142 134.489  c
613.501 134.489 l
613.543 135.176 613.735 135.700 614.079 136.059  c
614.423 136.419 614.855 136.598 615.376 136.598  c
615.761 136.598 616.092 136.497 616.368 136.294  c
616.644 136.090 616.860 135.770 617.017 135.333  c
h
613.563 133.630 m
617.032 133.630 l
616.990 133.098 616.860 132.702 616.642 132.442  c
616.298 132.036 615.860 131.833 615.329 131.833  c
614.839 131.833 614.431 131.994 614.102 132.317  c
613.774 132.640 613.595 133.077 613.563 133.630  c
h
f
2 J
10.0000 M
1.00000 .800000 0.00000 RG
newpath
386.000 127.000 m
390.500 119.794 l
398.990 119.500 l
395.000 112.000 l
398.990 104.500 l
390.500 104.206 l
386.000 97.0000 l
381.500 104.206 l
373.010 104.500 l
377.000 112.000 l
373.010 119.500 l
381.500 119.794 l
h
f*
0 J
1.45000 M
0.00000 0.00000 0.00000 RG
newpath
386.000 127.000 m
390.500 119.794 l
398.990 119.500 l
395.000 112.000 l
398.990 104.500 l
390.500 104.206 l
386.000 97.0000 l
381.500 104.206 l
373.010 104.500 l
377.000 112.000 l
373.010 119.500 l
381.500 119.794 l
h
S
2 J
10.0000 M
1.00000 .800000 0.00000 RG
newpath
203.000 104.000 m
203.000 112.284 196.284 119.000 188.000 119.000  c
179.716 119.000 173.000 112.284 173.000 104.000  c
173.000 95.7157 179.716 89.0000 188.000 89.0000  c
196.284 89.0000 203.000 95.7157 203.000 104.000  c
h
f
0 J
1.45000 M
0.00000 0.00000 0.00000 RG
newpath
203.000 104.000 m
203.000 112.284 196.284 119.000 188.000 119.000  c
179.716 119.000 173.000 112.284 173.000 104.000  c
173.000 95.7157 179.716 89.0000 188.000 89.0000  c
196.284 89.0000 203.000 95.7157 203.000 104.000  c
h
S
2 J
10.0000 M
0 J
1.45000 M
newpath
168.880 77.5977 m
169.942 77.5039 l
169.994 77.9414 170.114 78.2956 170.302 78.5664  c
170.489 78.8372 170.778 79.0586 171.169 79.2305  c
171.560 79.4023 172.000 79.4883 172.489 79.4883  c
172.916 79.4883 173.297 79.4232 173.630 79.2930  c
173.963 79.1628 174.211 78.9857 174.372 78.7617  c
174.534 78.5378 174.614 78.2956 174.614 78.0352  c
174.614 77.7643 174.536 77.5273 174.380 77.3242  c
174.224 77.1211 173.968 76.9518 173.614 76.8164  c
173.375 76.7227 172.862 76.5820 172.075 76.3945  c
171.289 76.2070 170.739 76.0299 170.427 75.8633  c
170.010 75.6445 169.703 75.3763 169.505 75.0586  c
169.307 74.7409 169.208 74.3841 169.208 73.9883  c
169.208 73.5612 169.330 73.1576 169.575 72.7773  c
169.820 72.3971 170.179 72.1107 170.653 71.9180  c
171.127 71.7253 171.651 71.6289 172.224 71.6289  c
172.859 71.6289 173.422 71.7305 173.911 71.9336  c
174.401 72.1367 174.776 72.4388 175.036 72.8398  c
175.297 73.2409 175.437 73.6914 175.458 74.1914  c
174.364 74.2695 l
174.302 73.7279 174.101 73.3190 173.763 73.0430  c
173.424 72.7669 172.927 72.6289 172.271 72.6289  c
171.583 72.6289 171.083 72.7539 170.771 73.0039  c
170.458 73.2539 170.302 73.5560 170.302 73.9102  c
170.302 74.2227 170.411 74.4779 170.630 74.6758  c
170.849 74.8737 171.419 75.0768 172.341 75.2852  c
173.263 75.4935 173.896 75.6758 174.239 75.8320  c
174.739 76.0716 175.109 76.3659 175.349 76.7148  c
175.588 77.0638 175.708 77.4727 175.708 77.9414  c
175.708 78.3997 175.578 78.8294 175.317 79.2305  c
175.057 79.6315 174.682 79.9440 174.192 80.1680  c
173.703 80.3919 173.151 80.5039 172.536 80.5039  c
171.755 80.5039 171.101 80.3919 170.575 80.1680  c
170.049 79.9440 169.638 79.6029 169.341 79.1445  c
169.044 78.6862 168.890 78.1706 168.880 77.5977  c
h
179.446 80.3633 m
179.446 72.7852 l
176.618 72.7852 l
176.618 71.7695 l
183.431 71.7695 l
183.431 72.7852 l
180.587 72.7852 l
180.587 80.3633 l
179.446 80.3633 l
h
183.651 80.3633 m
186.948 71.7695 l
188.167 71.7695 l
191.683 80.3633 l
190.401 80.3633 l
189.386 77.7539 l
185.808 77.7539 l
184.854 80.3633 l
183.651 80.3633 l
h
186.136 76.8320 m
189.042 76.8320 l
188.151 74.4570 l
187.870 73.7383 187.667 73.1445 187.542 72.6758  c
187.427 73.2279 187.271 73.7747 187.073 74.3164  c
186.136 76.8320 l
h
192.608 80.3633 m
192.608 71.7695 l
196.421 71.7695 l
197.192 71.7695 197.775 71.8477 198.171 72.0039  c
198.567 72.1602 198.884 72.4336 199.124 72.8242  c
199.364 73.2148 199.483 73.6445 199.483 74.1133  c
199.483 74.7279 199.285 75.2435 198.890 75.6602  c
198.494 76.0768 197.884 76.3424 197.062 76.4570  c
197.364 76.6029 197.593 76.7435 197.749 76.8789  c
198.082 77.1810 198.395 77.5612 198.687 78.0195  c
200.187 80.3633 l
198.749 80.3633 l
197.624 78.5820 l
197.291 78.0612 197.017 77.6654 196.804 77.3945  c
196.590 77.1237 196.397 76.9336 196.226 76.8242  c
196.054 76.7148 195.879 76.6341 195.702 76.5820  c
195.577 76.5612 195.369 76.5508 195.077 76.5508  c
193.749 76.5508 l
193.749 80.3633 l
192.608 80.3633 l
h
193.749 75.5664 m
196.202 75.5664 l
196.713 75.5664 197.116 75.5117 197.413 75.4023  c
197.710 75.2930 197.934 75.1211 198.085 74.8867  c
198.236 74.6523 198.312 74.3945 198.312 74.1133  c
198.312 73.7070 198.163 73.3737 197.866 73.1133  c
197.569 72.8529 197.103 72.7227 196.468 72.7227  c
193.749 72.7227 l
193.749 75.5664 l
h
203.446 80.3633 m
203.446 72.7852 l
200.618 72.7852 l
200.618 71.7695 l
207.431 71.7695 l
207.431 72.7852 l
204.587 72.7852 l
204.587 80.3633 l
203.446 80.3633 l
h
f
2 J
10.0000 M
0 J
1.45000 M
newpath
394.271 119.670 m
397.049 121.156 l
401.550 122.542 l
406.233 123.047 l
410.960 122.644 l
415.594 121.304 l
420.000 119.000 l
423.857 115.863 l
426.919 112.134 l
429.156 107.951 l
430.542 103.450 l
431.047 98.7673 l
430.644 94.0404 l
429.304 89.4057 l
427.000 85.0000 l
423.863 81.1428 l
420.134 78.0814 l
415.951 75.8438 l
411.450 74.4584 l
406.767 73.9531 l
402.040 74.3562 l
397.406 75.6958 l
393.000 78.0000 l
389.143 81.1372 l
386.081 84.8658 l
383.844 89.0491 l
382.458 93.5503 l
382.318 94.8488 l
382.327 94.9485 l
S
newpath
382.347 102.948 m
387.317 90.9358 l
382.324 93.9485 l
377.317 90.9612 l
h
f
newpath
432.763 128.044 m
430.654 128.044 l
430.654 114.606 l
430.154 115.086 429.490 115.567 428.662 116.052  c
427.834 116.536 427.092 116.898 426.435 117.138  c
426.435 115.106 l
427.623 114.554 428.657 113.882 429.537 113.091  c
430.417 112.299 431.039 111.533 431.404 110.794  c
432.763 110.794 l
432.763 128.044 l
h
f
2 J
10.0000 M
0 J
1.45000 M
newpath
374.584 107.496 m
277.000 69.0000 l
209.404 95.5826 l
S
newpath
201.959 98.5104 m
214.957 98.7718 l
210.335 95.2166 l
211.297 89.4655 l
h
f
newpath
293.658 78.7688 m
293.658 76.7375 293.866 75.1021 294.283 73.8625  c
294.700 72.6230 295.319 71.6672 296.142 70.9954  c
296.965 70.3235 298.002 69.9875 299.252 69.9875  c
300.179 69.9875 300.989 70.1724 301.681 70.5422  c
302.374 70.9120 302.947 71.4459 303.400 72.1438  c
303.853 72.8417 304.210 73.6933 304.471 74.6985  c
304.731 75.7037 304.861 77.0605 304.861 78.7688  c
304.861 80.7792 304.653 82.4042 304.236 83.6438  c
303.819 84.8834 303.200 85.8417 302.377 86.5188  c
301.554 87.1959 300.512 87.5344 299.252 87.5344  c
297.596 87.5344 296.299 86.9407 295.361 85.7532  c
294.226 84.3157 293.658 81.9875 293.658 78.7688  c
h
295.830 78.7688 m
295.830 81.5813 296.158 83.4563 296.814 84.3938  c
297.471 85.3313 298.283 85.8000 299.252 85.8000  c
300.221 85.8000 301.036 85.3313 301.697 84.3938  c
302.359 83.4563 302.689 81.5813 302.689 78.7688  c
302.689 75.9355 302.359 74.0553 301.697 73.1282  c
301.036 72.2011 300.215 71.7375 299.236 71.7375  c
298.267 71.7375 297.491 72.1438 296.908 72.9563  c
296.189 74.0084 295.830 75.9459 295.830 78.7688  c
h
f
2 J
10.0000 M
0 J
1.45000 M
newpath
181.245 90.5637 m
180.593 89.7580 l
176.556 86.3726 l
171.950 83.8156 l
166.903 82.1756 l
161.543 81.5409 l
156.000 82.0000 l
150.660 83.5562 l
145.883 86.0680 l
141.758 89.4067 l
138.373 93.4436 l
135.816 98.0501 l
134.176 103.097 l
133.541 108.457 l
134.000 114.000 l
135.556 119.340 l
138.068 124.117 l
141.407 128.242 l
145.444 131.627 l
150.050 134.184 l
155.097 135.824 l
160.457 136.459 l
166.000 136.000 l
171.340 134.444 l
176.117 131.932 l
180.242 128.593 l
182.506 125.893 l
182.552 125.804 l
S
newpath
186.555 118.878 m
176.222 126.766 l
182.052 126.670 l
184.880 131.769 l
h
f
newpath
138.258 82.6097 m
138.258 80.5785 138.466 78.9430 138.883 77.7035  c
139.300 76.4639 139.919 75.5081 140.742 74.8363  c
141.565 74.1644 142.602 73.8285 143.852 73.8285  c
144.779 73.8285 145.589 74.0133 146.281 74.3831  c
146.974 74.7529 147.547 75.2868 148.000 75.9847  c
148.453 76.6826 148.810 77.5342 149.070 78.5394  c
149.331 79.5446 149.461 80.9014 149.461 82.6097  c
149.461 84.6201 149.253 86.2451 148.836 87.4847  c
148.419 88.7243 147.800 89.6826 146.977 90.3597  c
146.154 91.0368 145.112 91.3753 143.852 91.3753  c
142.195 91.3753 140.899 90.7816 139.961 89.5941  c
138.826 88.1566 138.258 85.8285 138.258 82.6097  c
h
140.430 82.6097 m
140.430 85.4222 140.758 87.2972 141.414 88.2347  c
142.070 89.1722 142.883 89.6410 143.852 89.6410  c
144.820 89.6410 145.636 89.1722 146.297 88.2347  c
146.958 87.2972 147.289 85.4222 147.289 82.6097  c
147.289 79.7764 146.958 77.8962 146.297 76.9691  c
145.636 76.0420 144.815 75.5785 143.836 75.5785  c
142.867 75.5785 142.091 75.9847 141.508 76.7972  c
140.789 77.8493 140.430 79.7868 140.430 82.6097  c
h
f
2 J
10.0000 M
0 J
1.45000 M
newpath
201.264 111.005 m
277.000 151.000 l
367.371 118.666 l
S
newpath
374.903 115.970 m
361.920 115.305 l
366.429 119.002 l
365.289 124.721 l
h
f
newpath
279.264 160.428 m
277.154 160.428 l
277.154 146.990 l
276.654 147.469 275.990 147.951 275.162 148.436  c
274.334 148.920 273.592 149.282 272.936 149.521  c
272.936 147.490 l
274.123 146.938 275.157 146.266 276.037 145.475  c
276.917 144.683 277.540 143.917 277.904 143.178  c
279.264 143.178 l
279.264 160.428 l
h
f
2 J
10.0000 M
Q
[ 1.00000 0.00000 0.00000 1.00000 0.00000 0.00000 ] defaultmatrix matrix concatmatrix setmatrix
cliprestore

%%Trailer
%%EOF
