%!PS-Adobe-3.0 EPSF-3.0
%%BoundingBox: 0 0 558 328
%%Creator: yExport 1.5
%%Producer: org.freehep.graphicsio.ps.EPSGraphics2D Revision: 12753 
%%For: 
%%Title: 
%%CreationDate: Saturday, April 28, 2018 9:18:25 PM CDT
%%LanguageLevel: 3
%%EndComments
%%BeginProlog
100 dict dup begin

%
% File: org/freehep/graphicsio.ps/PSProlog.txt
% Author: Charles Loomis
%

% Redefinitions which save some space in the output file.  These are also
% the same as the PDF operators.
/q {gsave} def
/Q {grestore} def

/n {newpath} def
/m {moveto} def
/l {lineto} def
/c {curveto} def
/h {closepath} def

/re {4 -2 roll moveto
     dup 0 exch rlineto exch 0 rlineto
     neg 0 exch rlineto closepath} def

/f {fill} def
/f* {eofill} def
/F {gsave vg&FC fill grestore} def
/F* {gsave vg&FC eofill grestore} def

/s {closepath stroke} def
/S {stroke} def

/b {closepath gsave vg&FC fill grestore
    gsave stroke grestore newpath} def
/B {gsave vg&FC fill grestore gsave stroke grestore newpath} def
/b* {closepath gsave vg&FC eofill grestore
    gsave stroke grestore newpath} def
/B* {gsave vg&FC eofill grestore gsave stroke grestore newpath} def

/g {1 array astore /vg&fcolor exch def} def
/G {setgray} def
/k {4 array astore /vg&fcolor exch def} def
/K {setcmykcolor} def
/rg {3 array astore /vg&fcolor exch def} def
/RG {setrgbcolor} def

% Initialize the fill color.
0 0 0 rg

/vg&FC {mark vg&fcolor aload pop
        counttomark 1 eq {G} if
        counttomark 3 eq {RG} if
        counttomark 4 eq {K} if
        cleartomark } def

/vg&DFC {/vg&fcolor exch def} def

/vg&C {mark exch aload pop
       counttomark 1 eq {G} if
       counttomark 3 eq {RG} if
       counttomark 4 eq {K} if
       cleartomark } def

/w {setlinewidth} def
/j {setlinejoin} def
/J {setlinecap} def
/M {setmiterlimit} def
/d {setdash} def
/i {setflat} def

/W {clip} def
/W* {eoclip} def

% Setup the default graphics state.
% (black; 1 pt. linewidth; miter join; butt-ends; solid)
/defaultGraphicsState {0 g 1 w 0 j 0 J [] 0 d} def

% Emulation of the rectangle operators for PostScript implementations
% which do not implement all Level 2 features.  This is an INCOMPLETE
% emulation; only the "x y width height rect..." form is emulated.
/*rf {gsave newpath re fill grestore} def
/*rs {gsave newpath re stroke grestore} def
/*rc {newpath re clip} def
/rf  /rectfill where {pop /rectfill}{/*rf} ifelse load def
/rs  /rectstroke where {pop /rectstroke}{/*rs} ifelse load def
/rc  /rectclip where {pop /rectclip}{/*rc} ifelse load def

% Emulation of the selectfont operator.  This includes a 20% increase in
% the fontsize which is necessary to get sizes similar to the Java fonts.
/*sf {exch findfont exch
      dup type /arraytype eq {makefont}{scalefont} ifelse setfont} bind def
/sf /selectfont where {pop {1.2 mul selectfont}}{{1.2 mul *sf}} ifelse def

% Special version of stroke which allows the dash pattern to continue
% across path segments.  (This may be needed for PostScript although
% modern printers seem to do this correctly.)
/vg&stroke {
  currentdash pop length 0 eq
  {stroke}
  {
    currentdash /vg&doffset exch def pop
    flattenpath
    {m vg&resetdash}
    {2 copy
     currentpoint
     3 -1 roll sub dup mul
     3 1 roll sub dup mul
     add sqrt
     3 1 roll l
     currentdash 3 -1 roll add setdash}
     {}
     {h vg&resetdash}
     pathforall
     stroke
     vg&resetdash
  } ifelse
} def
/vg&resetdash {currentdash pop vg&doffset setdash} def

% Initialize variables for safety.
/delta 0 def
/xv 0 def  /yv 0 def  /width 0 def  /height 0 def

% Initialize to portrait INTERNATIONAL (Letter-height, A4-width) page.
/pw 595 def  /ph 791  def  /po true def /ftp false def

% Initialize margins to 20 points.
/ml 20 def  /mr 20 def  /mt 20 def  /mb 20 def

% Temporary matrices.
/smatrix 0 def  /nmatrix 0 def

% set page size (usage: <page width><page height> setpagesize)
/setpagesize {/ph exch def /pw exch def} def

% set page orientation (usage: portrait or landscape)
/portrait {/po true def} def
/landscape {/po false def} def

% force natural size for image (usage: naturalsize)
/naturalsize {/ftp false def} def

% resize image to fill page (usage: fittopage)
/fittopage {/ftp true def} def

% set margins of the page (usage: <left><bottom><top><right> setmargins)
/setmargins {/mr exch def /mt exch def /mb exch def /ml exch def} def

% set the graphic's size (usage: <width><height> setsize)
/setsize {/gh exch def /gw exch def} def

% set the graphic's origin (usage: <x0><y0> setorigin)
/setorigin {/gy exch def /gx exch def} def

% calculate image center
/imagecenter {pw ml sub mr sub 2 div ml add
              ph mt sub mb sub 2 div mb add} def

% calculate the necessary scaling
/imagescale {po {gw}{gh} ifelse pw ml sub mr sub div
             po {gh}{gw} ifelse ph mt sub mb sub div
             2 copy lt {exch} if pop
             ftp not {1 2 copy lt {exch} if pop} if
             1 exch div /sfactor exch def
             /gw gw sfactor mul def /gh gh sfactor mul def} def

% calculate image origin
/imageorigin {pw ml sub mr sub 2 div ml add
              po {gw}{gh} ifelse 2 div sub
              ph mt sub mb sub 2 div mb add
              po {gh}{gw} ifelse 2 div po {add}{sub} ifelse} def

% calculate the clipping origin
/cliporigin  {pw ml sub mr sub 2 div ml add
              po {gw}{gh} ifelse 2 div sub floor
              ph mt sub mb sub 2 div mb add
              po {gh}{gw} ifelse 2 div sub floor} def

% Set the clipping region to the bounding box.
/cliptobounds {cliporigin po {gw}{gh} ifelse 1 add
                          po {gh}{gw} ifelse 1 add rc} def

% set the base transformation matrix (usage: setbasematrix)
/setbasematrix {imageorigin translate
                po {0}{90} ifelse rotate
                sfactor sfactor neg scale
                /defaultmatrix matrix currentmatrix def} def

% The lower-right bias in drawing 1 pt. wide lines.
/bias  {q 0.5 0.5 translate} def
/unbias {Q} def

% Define the composite fonts used to print Unicode strings.
% Undefine particular values in an encoding array.
/vg&undef { {exch dup 3 -1 roll /.notdef put} forall } def
/vg&redef { {3 -1 roll dup 4 2 roll put} forall } def

% usage: key encoding basefontname vg&newbasefont font
/vg&newbasefont {
findfont dup length dict copy
  begin
    currentdict /FID undef
    /Encoding exch def
    dup /FontName exch def
    currentdict
  end
definefont
} def

% usage: key encoding basefontname vg&newskewedbasefont font
/vg&newskewedbasefont {
findfont dup length dict copy
  begin
    currentdict /FID undef
    /Encoding exch def
    dup /FontName exch def
    exch FontMatrix exch matrix concatmatrix /FontMatrix exch def
    currentdict
  end
definefont
} def

% usage: basekey suffix vg&nconcat name
/vg&nconcat {
  2 {dup length string cvs exch} repeat
  dup length 3 -1 roll dup length 3 -1 roll add string
  dup 0 4 -1 roll dup length 5 1 roll putinterval
  dup 4 -2 roll exch putinterval cvn
} def

%usage: fontname vg&skewmatrix matrix
/vg&skewmatrix {
findfont dup /FontInfo known
  {
    /FontInfo get dup /ItalicAngle known
    {
      [ 1 0 4 -1 roll /ItalicAngle get neg dup sin exch cos div 1 0 0 ]
    }
    {pop matrix} ifelse
  }
  {pop matrix} ifelse
} def

% usage: newfontname basefontname vg&newcompositefont --
/vg&newcompositefont {
/vg&fstyle exch def
/vg&bfont exch def
/vg&fname exch def
<<
/FontStyleBits vg&fstyle
/FontType 0
/FontMatrix matrix
/FontName vg&fname
/FMapType 2
/Encoding [ 0 1 255 {pop 6} for ]
          dup 16#00 0 put % Latin
          dup 16#03 1 put % Greek
          dup 16#20 2 put % Punctuation
          dup 16#21 3 put % Arrows
          dup 16#22 4 put % MathOps
          dup 16#27 5 put % Dingbats

/FDepVector [
vg&bfont /-UC-Latin vg&nconcat UCLatinEncoding
vg&bfont vg&newbasefont

vg&bfont vg&skewmatrix
vg&bfont /-UC-Greek vg&nconcat UCGreekEncoding
/Symbol vg&newskewedbasefont

vg&bfont /-UC-Punctuation vg&nconcat UCPunctuationEncoding
vg&bfont vg&newbasefont

/Arrows-UC findfont
/MathOps-UC findfont
/Dingbats-UC findfont
/Undefined-UC findfont ]
>>
vg&fname exch definefont pop
} def

% Null encoding vector (all elements set to .notdef)
/NullEncoding [ 256 {/.notdef} repeat ] def

% Unicode Latin encoding (unicode codes \u0000-\u00ff)
/UCLatinEncoding
  ISOLatin1Encoding dup length array copy
  dup 16#60 /grave put
  [ 16#90 16#91 16#92 16#93 16#94 16#95 16#96
    16#97 16#98 16#9a 16#9b 16#9d 16#9e 16#9f
  ] vg&undef
  def

% Unicode Greek encoding (unicode codes \u0370-\u03ff)
/UCGreekEncoding
  NullEncoding dup length array copy
  << 16#91 /Alpha    16#92 /Beta      16#93 /Gamma    16#94 /Delta
     16#95 /Epsilon  16#96 /Zeta      16#97 /Eta      16#98 /Theta
     16#99 /Iota     16#9a /Kappa     16#9b /Lambda   16#9c /Mu
     16#9d /Nu       16#9e /Xi        16#9f /Omicron  16#a0 /Pi
     16#a1 /Rho      16#a3 /Sigma     16#a4 /Tau      16#a5 /Upsilon
     16#a6 /Phi      16#a7 /Chi       16#a8 /Psi      16#a9 /Omega
     16#b1 /alpha    16#b2 /beta      16#b3 /gamma    16#b4 /delta
     16#b5 /epsilon  16#b6 /zeta      16#b7 /eta      16#b8 /theta
     16#b9 /iota     16#ba /kappa     16#bb /lambda   16#bc /mu
     16#bd /nu       16#be /xi        16#bf /omicron  16#c0 /pi
     16#c1 /rho      16#c2 /sigma1    16#c3 /sigma    16#c4 /tau
     16#c5 /upsilon  16#c6 /phi1      16#c7 /chi      16#c8 /psi
     16#c9 /omega    16#7e /semicolon 16#87 /dotmath  16#d1 /theta1
     16#d2 /Upsilon1 16#d5 /phi       16#d6 /omega1
  >> vg&redef
  def

% Unicode punctuation encoding (unicode codes \u2000-\u206f)
/UCPunctuationEncoding
  NullEncoding dup length array copy
  << 16#10 /hyphen          16#11 /hyphen              16#12 /endash
     16#13 /emdash          16#18 /quoteleft           16#19 /quoteright
     16#1a /quotesinglbase  16#1b /quotesingle         16#1c /quotedblleft
     16#1d /quotedblright   16#1e /quotedblbase        16#1f /quotedbl
     16#20 /dagger          16#21 /daggerdbl           16#22 /bullet
     16#24 /period          16#26 /ellipsis            16#27 /periodcentered
     16#30 /perthousand     16#44 /fraction
     16#70 /zerosuperior    16#74 /foursuperior        16#75 /fivesuperior
     16#76 /sixsuperior     16#77 /sevensuperior       16#78 /eightsuperior
     16#79 /ninesuperior    16#7b /hyphensuperior      16#7d /parenleftsuperior
     16#7e /parenrightsuperior
     16#80 /zeroinferior    16#84 /fourinferior        16#85 /fiveinferior
     16#81 /oneinferior     16#82 /twoinferior         16#83 /threeinferior
     16#86 /sixinferior     16#87 /seveninferior       16#88 /eightinferior
     16#89 /nineinferior    16#8b /hypheninferior      16#8d /parenleftinferior
     16#8e /parenrightinferior
  >> vg&redef
  def

% Unicode mathematical operators encoding (unicode codes \u2200-\u22ff)
/UCMathOpsEncoding
  NullEncoding dup length array copy
  << 16#00 /universal       16#02 /partialdiff         16#03 /existential
     16#05 /emptyset        16#06 /Delta               16#07 /gradient
     16#08 /element         16#09 /notelement          16#0b /suchthat
     16#0f /product         16#11 /summation           16#12 /minus
     16#15 /fraction        16#17 /asteriskmath        16#19 /bullet
     16#1a /radical         16#1d /proportional        16#1e /infinity
     16#20 /angle           16#23 /bar                 16#27 /logicaland
     16#28 /logicalor       16#29 /intersection        16#2a /union
     16#2b /integral        16#34 /therefore           16#36 /colon
     16#3c /similar         16#45 /congruent           16#48 /approxequal
     16#60 /notequal        16#61 /equivalence         16#64 /lessequal
     16#65 /greaterequal    16#82 /propersubset        16#83 /propersuperset
     16#86 /reflexsubset    16#87 /reflexsuperset      16#95 /circleplus
     16#97 /circlemultiply  16#a5 /perpendicular       16#03 /existential
     16#c0 /logicaland      16#c1 /logicalor           16#c2 /intersection
     16#c3 /union           16#c4 /diamond             16#c5 /dotmath
  >> vg&redef
  def

% Unicode arrows encoding (unicode codes \u2190-\u21ff)
% Also includes those "Letterlike" unicode characters
% which are available in the symbol font. (unicode codes \u2100-\u214f)
/UCArrowsEncoding
  NullEncoding dup length array copy
  << 16#11 /Ifraktur        16#1c /Rfraktur            16#22 /trademarkserif
     16#35 /aleph
     16#90 /arrowleft       16#91 /arrowup             16#92 /arrowright
     16#93 /arrowdown       16#94 /arrowboth           16#d0 /arrowdblleft
     16#d1 /arrowdblup      16#d2 /arrowdblright       16#d3 /arrowdbldown
     16#d4 /arrowdblboth
  >> vg&redef
  def

/ZapfDingbats findfont /Encoding get
dup length array copy /UCDingbatsEncoding exch def
16#20 1 16#7f {
  dup 16#20 sub exch
  UCDingbatsEncoding exch get
  UCDingbatsEncoding 3 1 roll put
} for
16#a0 1 16#ff {
  dup 16#40 sub exch
  UCDingbatsEncoding exch get
  UCDingbatsEncoding 3 1 roll put
} for
UCDingbatsEncoding [ 16#c0 1 16#ff {} for ] vg&undef
[ 16#00  16#05 16#0a 16#0b  16#28 16#4c 16#4e  16#53 16#54 16#55  16#57 16#5f
  16#60  16#68 16#69 16#6a  16#6b 16#6c 16#6d  16#6e 16#6f 16#70  16#71 16#72
  16#73  16#74 16#75 16#95  16#96 16#97 16#b0  16#bf
] vg&undef pop

% Define the base fonts which don't change.
/Undefined-UC NullEncoding       /Helvetica    vg&newbasefont pop
/MathOps-UC   UCMathOpsEncoding  /Symbol       vg&newbasefont pop
/Arrows-UC    UCArrowsEncoding   /Symbol       vg&newbasefont pop
/Dingbats-UC  UCDingbatsEncoding /ZapfDingbats vg&newbasefont pop

% Make the SansSerif composite fonts.
/SansSerif /Helvetica 16#00 vg&newcompositefont
/SansSerif-Bold /Helvetica-Bold 16#01 vg&newcompositefont
/SansSerif-Italic /Helvetica-Oblique 16#02 vg&newcompositefont
/SansSerif-BoldItalic /Helvetica-BoldOblique 16#03 vg&newcompositefont

% Make the Serif composite fonts.
/Serif /Times-Roman 16#00 vg&newcompositefont
/Serif-Bold /Times-Bold 16#01 vg&newcompositefont
/Serif-Italic /Times-Italic 16#02 vg&newcompositefont
/Serif-BoldItalic /Times-BoldItalic 16#03 vg&newcompositefont

% Make the Monospaced composite fonts.
/Monospaced /Courier 16#00 vg&newcompositefont
/Monospaced-Bold /Courier-Bold 16#01 vg&newcompositefont
/Monospaced-Italic /Courier-Oblique 16#02 vg&newcompositefont
/Monospaced-BoldItalic /Courier-BoldOblique 16#03 vg&newcompositefont

% Make the Dialog composite fonts.
/Dialog /Helvetica 16#00 vg&newcompositefont
/Dialog-Bold /Helvetica-Bold 16#01 vg&newcompositefont
/Dialog-Italic /Helvetica-Oblique 16#02 vg&newcompositefont
/Dialog-BoldItalic /Helvetica-BoldOblique 16#03 vg&newcompositefont

% Make the DialogInput composite fonts.
/DialogInput /Courier 16#00 vg&newcompositefont
/DialogInput-Bold /Courier-Bold 16#01 vg&newcompositefont
/DialogInput-Italic /Courier-Oblique 16#02 vg&newcompositefont
/DialogInput-BoldItalic /Courier-BoldOblique 16#03 vg&newcompositefont

% Make the Typewriter composite fonts (JDK 1.1 only).
/Typewriter /Courier 16#00 vg&newcompositefont
/Typewriter-Bold /Courier-Bold 16#01 vg&newcompositefont
/Typewriter-Italic /Courier-Oblique 16#02 vg&newcompositefont
/Typewriter-BoldItalic /Courier-BoldOblique 16#03 vg&newcompositefont


/cfontH {
 dup /fontsize exch def /SansSerif exch sf
 /vg&fontstyles [{cfontH} {cfontHB} {cfontHI} {cfontHBI}] def
} def
/cfontHB {
  dup /fontsize exch def /SansSerif-Bold exch sf
 /vg&fontstyles [{cfontH} {cfontHB} {cfontHI} {cfontHBI}] def
} def
/cfontHI {
 dup /fontsize exch def /SansSerif-Italic exch sf
 /vg&fontstyles [{cfontH} {cfontHB} {cfontHI} {cfontHBI}] def
} def
/cfontHBI {
 dup /fontsize exch def /SansSerif-BoldItalic exch sf
 /vg&fontstyles [{cfontH} {cfontHB} {cfontHI} {cfontHBI}] def
} def

/cfontT {
 dup /fontsize exch def /Serif exch sf
 /vg&fontstyles [{cfontT} {cfontTB} {cfontTI} {cfontTBI}] def
} def
/cfontTB {
 dup /fontsize exch def /Serif-Bold exch sf
 /vg&fontstyles [{cfontT} {cfontTB} {cfontTI} {cfontTBI}] def
} def
/cfontTI {
 dup /fontsize exch def /Serif-Italic exch sf
 /vg&fontstyles [{cfontT} {cfontTB} {cfontTI} {cfontTBI}] def
} def
/cfontTBI {
 dup /fontsize exch def /Serif-BoldItalic exch sf
 /vg&fontstyles [{cfontT} {cfontTB} {cfontTI} {cfontTBI}] def
} def

/cfontC {
 dup /fontsize exch def /Typewriter exch sf
 /vg&fontstyles [{cfontC} {cfontCB} {cfontCI} {cfontCBI}] def
} def
/cfontCB {
 dup /fontsize exch def /Typewriter-Bold exch sf
 /vg&fontstyles [{cfontC} {cfontCB} {cfontCI} {cfontCBI}] def
} def
/cfontCI {
 dup /fontsize exch def /Typewriter-Italic exch sf
 /vg&fontstyles [{cfontC} {cfontCB} {cfontCI} {cfontCBI}] def
} def
/cfontCBI {
 dup /fontsize exch def /Typewriter-BoldItalic exch sf
 /vg&fontstyles [{cfontC} {cfontCB} {cfontCI} {cfontCBI}] def
} def

% Darken or lighten the current color.
/darken {0.7 exch exp 3 copy
         q 4 -1 roll vg&C
         currentrgbcolor 3 {4 -2 roll mul} repeat
         3 array astore Q} def

/displayColorMap
<< /Cr   [1.00 0.00 0.00]       /Cg     [0.00 1.00 0.00]
   /Cb   [0.00 0.00 1.00]       /Cc     [1.00 0.00 0.00 0.00]
   /Cm   [0.00 1.00 0.00 0.00]  /Cy     [0.00 0.00 1.00 0.00]
   /Co   [1.00 0.78 0.00]       /Cp     [1.00 0.67 0.67]
   /Cw   [1   ]                 /Cgrl   [0.75]
   /Cgr  [0.50]                 /Cgrd   [0.25]
   /Ck   [0   ]
   /CGr  [1.00 0.00 0.00]       /CGg    [0.00 1.00 0.00]
   /CGb  [0.00 0.00 1.00]       /CGc    [1.00 0.00 0.00 0.00]
   /CGm  [0.00 1.00 0.00 0.00]  /CGy    [0.00 0.00 1.00 0.00]
   /CGo  [1.00 0.78 0.00]       /CGp    [1.00 0.67 0.67]
   /CGw  [1   ]                 /CGgrl  [0.75]
   /CGgr [0.50]                 /CGgrd  [0.25]
   /CGk  [0   ]
   /CIr  [1.00 0.00 0.00]       /CIg    [0.00 1.00 0.00]
   /CIb  [0.00 0.00 1.00]       /CIc    [1.00 0.00 0.00 0.00]
   /CIm  [0.00 1.00 0.00 0.00]  /CIy    [0.00 0.00 1.00 0.00]
   /CIo  [1.00 0.78 0.00]       /CIp    [1.00 0.67 0.67]
   /CIw  [1   ]                 /CIgrl  [0.75]
   /CIgr [0.50]                 /CIgrd  [0.25]
   /CIk  [0   ]
>> def

/printColorMap
<< /Cr   [1.00 0.33 0.33]       /Cg     [0.33 1.00 0.33]
   /Cb   [0.33 0.33 1.00]       /Cc     [1.00 0.00 0.00 0.00]
   /Cm   [0.00 1.00 0.00 0.00]  /Cy     [0.00 0.00 1.00 0.00]
   /Co   [1.00 0.78 0.00]       /Cp     [1.00 0.67 0.67]
   /Cw   [1   ]                 /Cgrl   [0.75]
   /Cgr  [0.50]                 /Cgrd   [0.25]
   /Ck   [0   ]
   /CGr  [1.00 0.33 0.33]       /CGg    [0.33 1.00 0.33]
   /CGb  [0.33 0.33 1.00]       /CGc    [1.00 0.00 0.00 0.00]
   /CGm  [0.00 1.00 0.00 0.00]  /CGy    [0.00 0.00 1.00 0.00]
   /CGo  [1.00 0.78 0.00]       /CGp    [1.00 0.67 0.67]
   /CGw  [1   ]                 /CGgrl  [0.75]
   /CGgr [0.50]                 /CGgrd  [0.25]
   /CGk  [0   ]
   /CIr  [1.00 0.33 0.33]       /CIg    [0.33 1.00 0.33]
   /CIb  [0.33 0.33 1.00]       /CIc    [1.00 0.00 0.00 0.00]
   /CIm  [0.00 1.00 0.00 0.00]  /CIy    [0.00 0.00 1.00 0.00]
   /CIo  [1.00 0.78 0.00]       /CIp    [1.00 0.67 0.67]
   /CIw  [1   ]                 /CIgrl  [0.75]
   /CIgr [0.50]                 /CIgrd  [0.25]
   /CIk  [0   ]
>> def

/grayColorMap
<< /Cr   [0   ]                 /Cg     [0   ]
   /Cb   [0   ]                 /Cc     [0   ]
   /Cm   [0   ]                 /Cy     [0   ]
   /Co   [0   ]                 /Cp     [0   ]
   /Cw   [0   ]                 /Cgrl   [0   ]
   /Cgr  [0   ]                 /Cgrd   [0   ]
   /Ck   [0   ]
   /CGr  [0.75]                 /CGg    [1   ]
   /CGb  [0.50]                 /CGc    [0.75]
   /CGm  [0.50]                 /CGy    [1   ]
   /CGo  [0.75]                 /CGp    [1   ]
   /CGw  [0   ]                 /CGgrl  [0.25]
   /CGgr [0.50]                 /CGgrd  [0.75]
   /CGk  [1   ]
   /CIr  [1   ]                 /CIg    [1   ]
   /CIb  [1   ]                 /CIc    [1   ]
   /CIm  [1   ]                 /CIy    [1   ]
   /CIo  [1   ]                 /CIp    [1   ]
   /CIw  [1   ]                 /CIgrl  [1   ]
   /CIgr [1   ]                 /CIgrd  [1   ]
   /CIk  [1   ]
>> def

/bwColorMap
<< /Cr   [0   ]                 /Cg     [0   ]
   /Cb   [0   ]                 /Cc     [0   ]
   /Cm   [0   ]                 /Cy     [0   ]
   /Co   [0   ]                 /Cp     [0   ]
   /Cw   [0   ]                 /Cgrl   [0   ]
   /Cgr  [0   ]                 /Cgrd   [0   ]
   /Ck   [0   ]
   /CGr  [1   ]                 /CGg    [1   ]
   /CGb  [1   ]                 /CGc    [1   ]
   /CGm  [1   ]                 /CGy    [1   ]
   /CGo  [1   ]                 /CGp    [1   ]
   /CGw  [0   ]                 /CGgrl  [1   ]
   /CGgr [1   ]                 /CGgrd  [1   ]
   /CGk  [1   ]
   /CIr  [1   ]                 /CIg    [1   ]
   /CIb  [1   ]                 /CIc    [1   ]
   /CIm  [1   ]                 /CIy    [1   ]
   /CIo  [1   ]                 /CIp    [1   ]
   /CIw  [1   ]                 /CIgrl  [1   ]
   /CIgr [1   ]                 /CIgrd  [1   ]
   /CIk  [1   ]
>> def

%
% The following routines handle the alignment of and printing of
% tagged strings.
%

% Predefine the bounding box values.
/bbllx 0 def /bblly 0 def /bburx 0 def /bbury 0 def

% This routine pops the first unicode character off of a string and returns
% the remainder of the string, the character code of first character,
% and a "true" if the string was non-zero length.
% <string>      popfirst <remaining string> <true>
% <null string> popfirst <false>
/popfirst {
  dup length 1 gt
    {dup 0 get /vg&fbyte exch def
     dup 1 get /vg&cbyte exch def
     dup length 2 sub 2 exch getinterval true}
    {pop false} ifelse
} def

% This routine shows a single unicode character given the font and
% character codes.
% <font code> <char code> unicharshow --
/unicharshow {
  2 string
  dup 0 5 -1 roll put
  dup 1 4 -1 roll put
  internalshow
} def

% This is an internal routine to alternate between determining the
% bounding box for stringsize and showing the string for recshow.
% <string> internalshow --
/internalshow {show} def

% This is an internal routine to alternate between determining the
% bounding box for stringsize and stroking various ornaments.
% <string> internalstroke --
/internalstroke {S} def

% Sets up internalshow to use the null device to determine string size.
% -- nullinternalshow --
/nullinternalshow {/internalshow {false charpath flattenpath
                                  pathbbox updatebbox} def} def

% Sets up internalstroke to use the null device to determine string size.
% -- nullinternalstroke --
/nullinternalstroke {
 /internalstroke {flattenpath pathbbox updatebbox} def} def

% This routine tests to see if the character code matches the first
% character of a string.
% <char code> <string> testchar <char code> <true or false>
/testchar {exch dup 3 -1 roll 0 get eq} def

% Raise the text baseline for superscripts.
% -- raise --
/raise {
  0 fontsize 2 div rmoveto
  /fontsize fontsize 2 mul 3 div def
  currentfont /FontName get fontsize sf
} def

% Un-raise the text baseline for superscripts.
% -- unraise --
/unraise {
  /fontsize fontsize 1.5 mul def
  0 fontsize 2 div neg rmoveto
} def

% Lower the text baseline for subscripts.
% -- lower --
/lower {
  0 fontsize 3 div neg rmoveto
  /fontsize fontsize 2 mul 3 div def
  currentfont /FontName get fontsize sf
} def

% Un-lower the text baseline for subscripts.
% -- unlower --
/unlower {
  /fontsize fontsize 1.5 mul def
  0 fontsize 3 div rmoveto
} def

% Compare the top two elements on the stack and leave only the
% larger one.
/maxval {2 copy gt {pop} {exch pop} ifelse} def

% Tokenize a string.  Do not use the usual PostScript token because
% parentheses will not be interpreted correctly because of rescanning
% of the string.
/vg&token {/vg&string exch def /vg&index -1 def /vg&level 0 def
0 2 vg&string length 2 sub {
  dup dup 1 add exch vg&string exch get 8 bitshift vg&string 3 -1 roll get or
  dup 16#f0fe eq {pop 1}{16#f0ff eq {-1}{0} ifelse} ifelse
  /vg&level exch vg&level add def
  vg&level 0 eq {/vg&index exch def exit} if pop
} for
vg&index 0 ge {
  vg&string vg&index 2 add dup vg&string length exch sub getinterval
  vg&index 2 gt {vg&string 2 vg&index 2 sub getinterval}{()} ifelse
  true}
{false} ifelse
} bind def

% Recursively show an unicode string.
% <string> recshow --
/recshow {
  popfirst
  {
    % Test to see if this is a string attribute.
    vg&fbyte 16#f0 and 16#e0 eq
    {
      q

      % Font style.
      currentfont dup /FontStyleBits known {/FontStyleBits get}{pop 0} ifelse
      vg&cbyte or vg&fontstyles exch get fontsize exch exec

      vg&token pop recshow currentpoint Q m recshow
    }
    {
      vg&fbyte 16#F8 and 16#F0 eq {

        % Superscript and/or subscript.
        vg&cbyte 16#00 eq {
          vg&token pop exch vg&token pop 3 -1 roll
          q raise recshow unraise currentpoint pop Q exch
          q lower recshow unlower currentpoint pop Q
          maxval currentpoint exch pop m recshow } if

        % Strikeout.
        vg&cbyte 16#01 eq {
          vg&token pop currentpoint 3 -1 roll recshow
          q 0 J vg&underline vg&uthick w
          currentpoint 4 -2 roll fontsize 3 div add moveto
          fontsize 3 div add lineto internalstroke Q
          recshow} if

        % Underline.
        vg&cbyte 16#02 eq {
          vg&token pop currentpoint 3 -1 roll recshow
          q 0 J vg&underline vg&uthick w
          currentpoint 4 -2 roll vg&uoffset add moveto
          vg&uoffset add lineto internalstroke Q
          recshow} if

        % Dashed underline.
        vg&cbyte 16#03 eq {
          vg&token pop currentpoint 3 -1 roll recshow
          q 0 J [ vg&uthick 5 mul vg&uthick 2 mul] 0 d
          vg&underline vg&uthick w
          currentpoint 4 -2 roll vg&uoffset add moveto
          vg&uoffset add lineto internalstroke Q
          recshow} if

        % Dotted underline.
        vg&cbyte 16#04 eq {
          vg&token pop currentpoint 3 -1 roll recshow
          q 1 J [ 0 vg&uthick 3 mul] 0 d
          vg&underline vg&uthick w
          currentpoint 4 -2 roll vg&uoffset add moveto
          vg&uoffset add lineto internalstroke Q
          recshow} if

        % Thick underline.
        vg&cbyte 16#05 eq {
          vg&token pop currentpoint 3 -1 roll recshow
          q 0 J vg&underline vg&uthick 2 mul w
          currentpoint 4 -2 roll vg&uoffset vg&uthick 2 div sub add moveto
          vg&uoffset vg&uthick 2 div sub add lineto internalstroke Q
          recshow} if

        % Gray thick underline.
        vg&cbyte 16#06 eq {
          vg&token pop currentpoint 3 -1 roll recshow
          q 0 J vg&underline vg&uthick 2 mul w 0.5 setgray
          currentpoint 4 -2 roll vg&uoffset vg&uthick 2 div sub add moveto
          vg&uoffset vg&uthick 2 div sub add lineto internalstroke Q
          recshow} if

        % Overbar.
        vg&cbyte 16#07 eq {
          vg&token pop dup stringsize relative 4 1 roll pop pop exch
          3 -1 roll recshow
          q 0 J vg&underline vg&uthick w
          vg&uoffset neg add dup currentpoint pop exch m l internalstroke Q
          recshow} if
      }
      {
        vg&fbyte vg&cbyte unicharshow recshow
      } ifelse
    } ifelse
  } if
} def

% Get the underline position and thickness from the current font.
/vg&underline {

currentfont dup /FontType get 0 eq {/FDepVector get 0 get} if
dup dup /FontInfo known {
  /FontInfo get dup
  dup /UnderlinePosition known {
    /UnderlinePosition get /vg&uoffset exch def
  }
  {
    pop /vg&uoffset 0 def
  } ifelse
  dup /UnderlineThickness known {
    /UnderlineThickness get /vg&uthick exch def
  }
  {
    pop /vg&uthick 0 def
  } ifelse
}
{
  pop /vg&uoffset 0 def /vg&uthick 0 def
} ifelse
/FontMatrix get
currentfont dup /FontType get 0 eq
{/FontMatrix get matrix concatmatrix}{pop} ifelse
dup 0 vg&uoffset 3 -1 roll transform /vg&uoffset exch def pop
0 vg&uthick 3 -1 roll transform /vg&uthick exch def pop
} def

% Make a frame with the coordinates on the stack.
% <llx> <lly> <urx> <ury> frame --
/frame {4 copy m 3 1 roll exch l 4 -2 roll l l h} def

% Resets the accumulated bounding box to a degenerate box at the
% current point.
% -- resetbbox --
/resetbbox {
  currentpoint 2 copy
  /bbury exch def
  /bburx exch def
  /bblly exch def
  /bbllx exch def
} def

% Update the accumulated bounding box.
% <llx'> <lly'> <urx'> <ury'> updatebbox --
/updatebbox {
  dup bbury gt {/bbury exch def} {pop} ifelse
  dup bburx gt {/bburx exch def} {pop} ifelse
  dup bblly lt {/bblly exch def} {pop} ifelse
  dup bbllx lt {/bbllx exch def} {pop} ifelse
} def

% Set the bounding box to the values on the stack.
% <llx'> <lly'> <urx'> <ury'> updatebbox --
/restorebbox {
  /bbury exch def /bburx exch def /bblly exch def /bbllx exch def
} def

% Push the accumulated bounding box onto the stack.
% -- pushbbox <llx> <lly> <urx> <ury>
/pushbbox {bbllx bblly bburx bbury} def

% Make the relative bounding box relative to the currentpoint.
% <llx'> <lly'> <urx'> <ury'> inflate <llx> <lly> <urx> <ury>
/inflate {
  2 {fontsize 0.2 mul add 4 1 roll} repeat
  2 {fontsize 0.2 mul sub 4 1 roll} repeat
} def

% Make the relative bounding box relative to the currentpoint.
% <llx'> <lly'> <urx'> <ury'> relative <llx> <lly> <urx> <ury>
/relative {
  currentpoint 3 -1 roll add 3 1 roll add exch 4 2 roll
  currentpoint 3 -1 roll add 3 1 roll add exch 4 2 roll
} def

% Returns the size of a string appropriate for recshow.
% <string> stringsize <llx> <lly> <urx> <ury>
/stringsize {
  pushbbox /internalshow load /internalstroke load 7 -1 roll
  q
  nulldevice 0 0 m
  nullinternalshow nullinternalstroke
  resetbbox
  recshow
  /internalstroke exch def /internalshow exch def
  pushbbox 8 -4 roll restorebbox
  Q
} def

% Calculate values for string positioning.
/calcval {4 copy
  3 -1 roll sub /widy exch def sub neg /widx exch def
  pop pop /dy exch def /dx exch def} def

% Utilities to position a string.
% First letter (U=upper, C=center, B=baseline, L=lower)
% Second letter (L=left, C=center, R=right)
/align [
{calcval dx neg widy dy add neg rmoveto} % UL
{calcval dx neg widy 2 div dy add neg rmoveto} % CL
{calcval dx neg 0 rmoveto} % BL
{calcval dx neg dy neg rmoveto} % LL
{calcval widx dx add neg widy dy add neg rmoveto} % UR
{calcval widx dx add neg widy 2 div dy add neg rmoveto} % CR
{calcval widx dx add neg 0 rmoveto} % BR
{calcval widx dx add neg dy neg rmoveto} % LR
{calcval widx 2 div dx add neg widy dy add neg rmoveto} % UC
{calcval widx 2 div dx add neg widy 2 div dy add neg rmoveto} % CC
{calcval widx 2 div dx add neg 0 rmoveto} % BC
{calcval widx 2 div dx add neg dy neg rmoveto} % LC
] def

/vg&str {m q 1 -1 scale dup stringsize 4 copy align 11 -1 roll get exec
         q inflate relative frame exch exec Q recshow Q} def

end /procDict exch def
%%EndProlog

%%BeginSetup
save
procDict begin
printColorMap begin
558 328 setpagesize
0 0 0 0 setmargins
0 0 setorigin
558 328 setsize
naturalsize
portrait
imagescale
cliptobounds
setbasematrix
/Helvetica 10 sf
defaultGraphicsState
%%EndSetup

0.00000 0.00000 0.00000 RG
[ 1.00000 0.00000 0.00000 1.00000 0.00000 0.00000 ] defaultmatrix matrix concatmatrix setmatrix
cliprestore
1.00000 1.00000 1.00000 RG
newpath
0.00000 0.00000 m
558.000 0.00000 l
558.000 328.000 l
0.00000 328.000 l
0.00000 0.00000 l
h
f
0.00000 0.00000 0.00000 RG
0.00000 0.00000 0.00000 RG
[ 1.00000 0.00000 0.00000 1.00000 0.00000 0.00000 ] defaultmatrix matrix concatmatrix setmatrix
cliprestore
1.00000 1.00000 1.00000 RG
newpath
0.00000 0.00000 m
558.000 0.00000 l
558.000 328.000 l
0.00000 328.000 l
0.00000 0.00000 l
h
f
0.00000 0.00000 0.00000 RG
0 0 558 328 rc
q
[ 1.00000 0.00000 0.00000 1.00000 0.00000 0.00000 ] concat
[ 1.00000 0.00000 0.00000 1.00000 85.0000 80.0000 ] concat
1.00000 1.00000 1.00000 RG
newpath
-85.0000 -80.0000 m
473.000 -80.0000 l
473.000 248.000 l
-85.0000 248.000 l
-85.0000 -80.0000 l
h
f
0.00000 0.00000 0.00000 RG
[ 1.00000 0.00000 0.00000 1.00000 85.0000 80.0000 ] defaultmatrix matrix concatmatrix setmatrix
[ 1.00000 0.00000 0.00000 1.00000 85.0000 80.0000 ] defaultmatrix matrix concatmatrix setmatrix
[ 1.00000 0.00000 0.00000 1.00000 0.00000 0.00000 ] defaultmatrix matrix concatmatrix setmatrix
[ 1.00000 0.00000 0.00000 1.00000 85.0000 80.0000 ] defaultmatrix matrix concatmatrix setmatrix
1.00000 .800000 0.00000 RG
newpath
-7.00000 -11.0000 m
-2.50000 -18.2058 l
5.99038 -18.5000 l
2.00000 -26.0000 l
5.99038 -33.5000 l
-2.50000 -33.7942 l
-7.00000 -41.0000 l
-11.5000 -33.7942 l
-19.9904 -33.5000 l
-16.0000 -26.0000 l
-19.9904 -18.5000 l
-11.5000 -18.2058 l
h
f*
0 J
1.45000 M
0.00000 0.00000 0.00000 RG
newpath
-7.00000 -11.0000 m
-2.50000 -18.2058 l
5.99038 -18.5000 l
2.00000 -26.0000 l
5.99038 -33.5000 l
-2.50000 -33.7942 l
-7.00000 -41.0000 l
-11.5000 -33.7942 l
-19.9904 -33.5000 l
-16.0000 -26.0000 l
-19.9904 -18.5000 l
-11.5000 -18.2058 l
h
S
2 J
10.0000 M
0 J
1.45000 M
newpath
-66.7871 -46.1603 m
-65.7246 -46.2540 l
-65.6725 -45.8165 -65.5527 -45.4624 -65.3652 -45.1915  c
-65.1777 -44.9207 -64.8887 -44.6994 -64.4980 -44.5275  c
-64.1074 -44.3556 -63.6673 -44.2697 -63.1777 -44.2697  c
-62.7507 -44.2697 -62.3704 -44.3348 -62.0371 -44.4650  c
-61.7038 -44.5952 -61.4564 -44.7723 -61.2949 -44.9962  c
-61.1335 -45.2202 -61.0527 -45.4624 -61.0527 -45.7228  c
-61.0527 -45.9936 -61.1309 -46.2306 -61.2871 -46.4337  c
-61.4434 -46.6369 -61.6986 -46.8061 -62.0527 -46.9415  c
-62.2923 -47.0353 -62.8053 -47.1759 -63.5918 -47.3634  c
-64.3783 -47.5509 -64.9277 -47.7280 -65.2402 -47.8947  c
-65.6569 -48.1134 -65.9642 -48.3817 -66.1621 -48.6994  c
-66.3600 -49.0171 -66.4590 -49.3738 -66.4590 -49.7697  c
-66.4590 -50.1968 -66.3366 -50.6004 -66.0918 -50.9806  c
-65.8470 -51.3608 -65.4876 -51.6473 -65.0137 -51.8400  c
-64.5397 -52.0327 -64.0163 -52.1290 -63.4434 -52.1290  c
-62.8079 -52.1290 -62.2454 -52.0275 -61.7559 -51.8244  c
-61.2663 -51.6212 -60.8913 -51.3192 -60.6309 -50.9181  c
-60.3704 -50.5171 -60.2298 -50.0665 -60.2090 -49.5665  c
-61.3027 -49.4884 l
-61.3652 -50.0301 -61.5658 -50.4389 -61.9043 -50.7150  c
-62.2428 -50.9910 -62.7402 -51.1290 -63.3965 -51.1290  c
-64.0840 -51.1290 -64.5840 -51.0040 -64.8965 -50.7540  c
-65.2090 -50.5040 -65.3652 -50.2020 -65.3652 -49.8478  c
-65.3652 -49.5353 -65.2559 -49.2801 -65.0371 -49.0822  c
-64.8184 -48.8843 -64.2480 -48.6811 -63.3262 -48.4728  c
-62.4043 -48.2645 -61.7715 -48.0822 -61.4277 -47.9259  c
-60.9277 -47.6863 -60.5579 -47.3921 -60.3184 -47.0431  c
-60.0788 -46.6942 -59.9590 -46.2853 -59.9590 -45.8165  c
-59.9590 -45.3582 -60.0892 -44.9285 -60.3496 -44.5275  c
-60.6100 -44.1264 -60.9850 -43.8139 -61.4746 -43.5900  c
-61.9642 -43.3660 -62.5163 -43.2540 -63.1309 -43.2540  c
-63.9121 -43.2540 -64.5658 -43.3660 -65.0918 -43.5900  c
-65.6178 -43.8139 -66.0293 -44.1551 -66.3262 -44.6134  c
-66.6230 -45.0718 -66.7767 -45.5874 -66.7871 -46.1603  c
h
-56.2207 -43.3947 m
-56.2207 -50.9728 l
-59.0488 -50.9728 l
-59.0488 -51.9884 l
-52.2363 -51.9884 l
-52.2363 -50.9728 l
-55.0801 -50.9728 l
-55.0801 -43.3947 l
-56.2207 -43.3947 l
h
-52.0156 -43.3947 m
-48.7188 -51.9884 l
-47.5000 -51.9884 l
-43.9844 -43.3947 l
-45.2656 -43.3947 l
-46.2812 -46.0040 l
-49.8594 -46.0040 l
-50.8125 -43.3947 l
-52.0156 -43.3947 l
h
-49.5312 -46.9259 m
-46.6250 -46.9259 l
-47.5156 -49.3009 l
-47.7969 -50.0197 -48.0000 -50.6134 -48.1250 -51.0822  c
-48.2396 -50.5301 -48.3958 -49.9832 -48.5938 -49.4415  c
-49.5312 -46.9259 l
h
-43.0586 -43.3947 m
-43.0586 -51.9884 l
-39.2461 -51.9884 l
-38.4753 -51.9884 -37.8919 -51.9103 -37.4961 -51.7540  c
-37.1003 -51.5978 -36.7826 -51.3244 -36.5430 -50.9337  c
-36.3034 -50.5431 -36.1836 -50.1134 -36.1836 -49.6447  c
-36.1836 -49.0301 -36.3815 -48.5145 -36.7773 -48.0978  c
-37.1732 -47.6811 -37.7826 -47.4155 -38.6055 -47.3009  c
-38.3034 -47.1551 -38.0742 -47.0145 -37.9180 -46.8790  c
-37.5846 -46.5770 -37.2721 -46.1968 -36.9805 -45.7384  c
-35.4805 -43.3947 l
-36.9180 -43.3947 l
-38.0430 -45.1759 l
-38.3763 -45.6968 -38.6497 -46.0926 -38.8633 -46.3634  c
-39.0768 -46.6343 -39.2695 -46.8244 -39.4414 -46.9337  c
-39.6133 -47.0431 -39.7878 -47.1238 -39.9648 -47.1759  c
-40.0898 -47.1968 -40.2982 -47.2072 -40.5898 -47.2072  c
-41.9180 -47.2072 l
-41.9180 -43.3947 l
-43.0586 -43.3947 l
h
-41.9180 -48.1915 m
-39.4648 -48.1915 l
-38.9544 -48.1915 -38.5508 -48.2462 -38.2539 -48.3556  c
-37.9570 -48.4650 -37.7331 -48.6369 -37.5820 -48.8712  c
-37.4310 -49.1056 -37.3555 -49.3634 -37.3555 -49.6447  c
-37.3555 -50.0509 -37.5039 -50.3843 -37.8008 -50.6447  c
-38.0977 -50.9051 -38.5638 -51.0353 -39.1992 -51.0353  c
-41.9180 -51.0353 l
-41.9180 -48.1915 l
h
-32.2207 -43.3947 m
-32.2207 -50.9728 l
-35.0488 -50.9728 l
-35.0488 -51.9884 l
-28.2363 -51.9884 l
-28.2363 -50.9728 l
-31.0801 -50.9728 l
-31.0801 -43.3947 l
-32.2207 -43.3947 l
h
f
2 J
10.0000 M
1.00000 .800000 0.00000 RG
newpath
96.0000 208.485 m
100.500 201.279 l
108.990 200.985 l
105.000 193.485 l
108.990 185.985 l
100.500 185.690 l
96.0000 178.485 l
91.5000 185.690 l
83.0096 185.985 l
87.0000 193.485 l
83.0096 200.985 l
91.5000 201.279 l
h
f*
0 J
1.45000 M
0.00000 0.00000 0.00000 RG
newpath
96.0000 208.485 m
100.500 201.279 l
108.990 200.985 l
105.000 193.485 l
108.990 185.985 l
100.500 185.690 l
96.0000 178.485 l
91.5000 185.690 l
83.0096 185.985 l
87.0000 193.485 l
83.0096 200.985 l
91.5000 201.279 l
h
S
2 J
10.0000 M
1.00000 .800000 0.00000 RG
newpath
243.640 24.7423 m
248.140 17.5366 l
256.630 17.2423 l
252.640 9.74235 l
256.630 2.24235 l
248.140 1.94812 l
243.640 -5.25765 l
239.140 1.94812 l
230.649 2.24235 l
234.640 9.74235 l
230.649 17.2423 l
239.140 17.5366 l
h
f*
0 J
1.45000 M
0.00000 0.00000 0.00000 RG
newpath
243.640 24.7423 m
248.140 17.5366 l
256.630 17.2423 l
252.640 9.74235 l
256.630 2.24235 l
248.140 1.94812 l
243.640 -5.25765 l
239.140 1.94812 l
230.649 2.24235 l
234.640 9.74235 l
230.649 17.2423 l
239.140 17.5366 l
h
S
2 J
10.0000 M
1.00000 .800000 0.00000 RG
newpath
310.640 140.485 m
315.140 133.279 l
323.630 132.985 l
319.640 125.485 l
323.630 117.985 l
315.140 117.690 l
310.640 110.485 l
306.140 117.690 l
297.649 117.985 l
301.640 125.485 l
297.649 132.985 l
306.140 133.279 l
h
f*
0 J
1.45000 M
0.00000 0.00000 0.00000 RG
newpath
310.640 140.485 m
315.140 133.279 l
323.630 132.985 l
319.640 125.485 l
323.630 117.985 l
315.140 117.690 l
310.640 110.485 l
306.140 117.690 l
297.649 117.985 l
301.640 125.485 l
297.649 132.985 l
306.140 133.279 l
h
S
2 J
10.0000 M
0 J
1.45000 M
newpath
344.259 128.549 m
347.556 119.955 l
348.774 119.955 l
352.290 128.549 l
351.009 128.549 l
349.993 125.940 l
346.415 125.940 l
345.462 128.549 l
344.259 128.549 l
h
346.743 125.018 m
349.649 125.018 l
348.759 122.643 l
348.478 121.924 348.274 121.330 348.149 120.862  c
348.035 121.414 347.879 121.961 347.681 122.502  c
346.743 125.018 l
h
353.075 128.549 m
353.075 122.330 l
354.013 122.330 l
354.013 123.205 l
354.471 122.528 355.132 122.190 355.997 122.190  c
356.372 122.190 356.718 122.257 357.036 122.393  c
357.354 122.528 357.591 122.705 357.747 122.924  c
357.903 123.143 358.013 123.398 358.075 123.690  c
358.106 123.888 358.122 124.231 358.122 124.721  c
358.122 128.549 l
357.075 128.549 l
357.075 124.768 l
357.075 124.330 357.033 124.007 356.950 123.799  c
356.867 123.591 356.721 123.422 356.513 123.291  c
356.304 123.161 356.060 123.096 355.778 123.096  c
355.330 123.096 354.942 123.239 354.614 123.526  c
354.286 123.812 354.122 124.351 354.122 125.143  c
354.122 128.549 l
353.075 128.549 l
h
367.145 127.784 m
366.750 128.117 366.372 128.351 366.013 128.487  c
365.653 128.622 365.265 128.690 364.849 128.690  c
364.161 128.690 363.635 128.523 363.270 128.190  c
362.906 127.856 362.724 127.429 362.724 126.909  c
362.724 126.606 362.791 126.328 362.927 126.073  c
363.062 125.817 363.244 125.614 363.474 125.463  c
363.703 125.312 363.958 125.200 364.239 125.127  c
364.437 125.065 364.750 125.007 365.177 124.955  c
366.020 124.862 366.645 124.742 367.052 124.596  c
367.052 124.450 367.052 124.362 367.052 124.330  c
367.052 123.893 366.953 123.586 366.755 123.409  c
366.484 123.179 366.083 123.065 365.552 123.065  c
365.062 123.065 364.698 123.151 364.458 123.323  c
364.218 123.494 364.041 123.799 363.927 124.237  c
362.895 124.096 l
362.989 123.659 363.145 123.304 363.364 123.034  c
363.583 122.763 363.895 122.554 364.302 122.409  c
364.708 122.263 365.177 122.190 365.708 122.190  c
366.239 122.190 366.672 122.252 367.005 122.377  c
367.338 122.502 367.583 122.659 367.739 122.846  c
367.895 123.034 368.005 123.273 368.067 123.565  c
368.099 123.742 368.114 124.065 368.114 124.534  c
368.114 125.940 l
368.114 126.919 368.138 127.539 368.185 127.799  c
368.231 128.060 368.323 128.310 368.458 128.549  c
367.349 128.549 l
367.244 128.330 367.177 128.075 367.145 127.784  c
h
367.052 125.424 m
366.666 125.580 366.093 125.716 365.333 125.830  c
364.895 125.893 364.588 125.963 364.411 126.041  c
364.234 126.119 364.096 126.231 363.997 126.377  c
363.898 126.523 363.849 126.690 363.849 126.877  c
363.849 127.159 363.955 127.393 364.169 127.580  c
364.382 127.768 364.692 127.862 365.099 127.862  c
365.505 127.862 365.867 127.773 366.185 127.596  c
366.502 127.419 366.734 127.174 366.880 126.862  c
366.994 126.622 367.052 126.273 367.052 125.815  c
367.052 125.424 l
h
373.819 126.268 m
374.851 126.409 l
374.736 127.117 374.444 127.674 373.976 128.080  c
373.507 128.487 372.934 128.690 372.257 128.690  c
371.403 128.690 370.718 128.411 370.202 127.854  c
369.686 127.297 369.429 126.497 369.429 125.455  c
369.429 124.789 369.541 124.203 369.765 123.698  c
369.989 123.192 370.327 122.815 370.780 122.565  c
371.233 122.315 371.731 122.190 372.272 122.190  c
372.939 122.190 373.489 122.359 373.921 122.698  c
374.353 123.036 374.632 123.523 374.757 124.159  c
373.726 124.315 l
373.632 123.898 373.460 123.583 373.210 123.369  c
372.960 123.156 372.658 123.049 372.304 123.049  c
371.772 123.049 371.340 123.239 371.007 123.619  c
370.673 124.000 370.507 124.601 370.507 125.424  c
370.507 126.268 370.668 126.877 370.991 127.252  c
371.314 127.627 371.731 127.815 372.241 127.815  c
372.658 127.815 373.004 127.690 373.280 127.440  c
373.556 127.190 373.736 126.799 373.819 126.268  c
h
379.819 126.268 m
380.851 126.409 l
380.736 127.117 380.444 127.674 379.976 128.080  c
379.507 128.487 378.934 128.690 378.257 128.690  c
377.403 128.690 376.718 128.411 376.202 127.854  c
375.686 127.297 375.429 126.497 375.429 125.455  c
375.429 124.789 375.541 124.203 375.765 123.698  c
375.989 123.192 376.327 122.815 376.780 122.565  c
377.233 122.315 377.731 122.190 378.272 122.190  c
378.939 122.190 379.489 122.359 379.921 122.698  c
380.353 123.036 380.632 123.523 380.757 124.159  c
379.726 124.315 l
379.632 123.898 379.460 123.583 379.210 123.369  c
378.960 123.156 378.658 123.049 378.304 123.049  c
377.772 123.049 377.340 123.239 377.007 123.619  c
376.673 124.000 376.507 124.601 376.507 125.424  c
376.507 126.268 376.668 126.877 376.991 127.252  c
377.314 127.627 377.731 127.815 378.241 127.815  c
378.658 127.815 379.004 127.690 379.280 127.440  c
379.556 127.190 379.736 126.799 379.819 126.268  c
h
386.007 126.549 m
387.101 126.674 l
386.934 127.310 386.616 127.804 386.147 128.159  c
385.679 128.513 385.085 128.690 384.366 128.690  c
383.460 128.690 382.739 128.409 382.202 127.846  c
381.666 127.284 381.397 126.497 381.397 125.487  c
381.397 124.445 381.668 123.635 382.210 123.057  c
382.752 122.479 383.450 122.190 384.304 122.190  c
385.137 122.190 385.817 122.471 386.343 123.034  c
386.869 123.596 387.132 124.393 387.132 125.424  c
387.132 125.487 387.132 125.580 387.132 125.705  c
382.491 125.705 l
382.533 126.393 382.726 126.916 383.069 127.276  c
383.413 127.635 383.845 127.815 384.366 127.815  c
384.752 127.815 385.082 127.713 385.358 127.510  c
385.634 127.307 385.851 126.987 386.007 126.549  c
h
382.554 124.846 m
386.022 124.846 l
385.981 124.315 385.851 123.919 385.632 123.659  c
385.288 123.252 384.851 123.049 384.319 123.049  c
383.830 123.049 383.421 123.211 383.093 123.534  c
382.765 123.856 382.585 124.294 382.554 124.846  c
h
388.431 130.940 m
388.431 122.330 l
389.384 122.330 l
389.384 123.127 l
389.613 122.815 389.871 122.580 390.157 122.424  c
390.444 122.268 390.790 122.190 391.196 122.190  c
391.728 122.190 392.196 122.325 392.603 122.596  c
393.009 122.867 393.313 123.252 393.517 123.752  c
393.720 124.252 393.821 124.799 393.821 125.393  c
393.821 126.028 393.709 126.601 393.485 127.112  c
393.261 127.622 392.931 128.013 392.493 128.284  c
392.056 128.554 391.597 128.690 391.118 128.690  c
390.764 128.690 390.446 128.614 390.165 128.463  c
389.884 128.312 389.655 128.127 389.478 127.909  c
389.478 130.940 l
388.431 130.940 l
h
389.384 125.471 m
389.384 126.273 389.545 126.864 389.868 127.244  c
390.191 127.625 390.582 127.815 391.040 127.815  c
391.509 127.815 391.910 127.617 392.243 127.221  c
392.576 126.825 392.743 126.211 392.743 125.377  c
392.743 124.586 392.582 123.994 392.259 123.604  c
391.936 123.213 391.545 123.018 391.087 123.018  c
390.639 123.018 390.243 123.226 389.899 123.643  c
389.556 124.060 389.384 124.669 389.384 125.471  c
h
397.401 127.612 m
397.558 128.534 l
397.256 128.596 396.990 128.627 396.761 128.627  c
396.375 128.627 396.078 128.567 395.870 128.448  c
395.662 128.328 395.513 128.169 395.425 127.971  c
395.336 127.773 395.292 127.356 395.292 126.721  c
395.292 123.143 l
394.526 123.143 l
394.526 122.330 l
395.292 122.330 l
395.292 120.784 l
396.339 120.159 l
396.339 122.330 l
397.401 122.330 l
397.401 123.143 l
396.339 123.143 l
396.339 126.784 l
396.339 127.086 396.357 127.278 396.394 127.362  c
396.430 127.445 396.490 127.513 396.573 127.565  c
396.657 127.617 396.776 127.643 396.933 127.643  c
397.058 127.643 397.214 127.632 397.401 127.612  c
h
398.438 121.174 m
398.438 119.955 l
399.501 119.955 l
399.501 121.174 l
398.438 121.174 l
h
398.438 128.549 m
398.438 122.330 l
399.501 122.330 l
399.501 128.549 l
398.438 128.549 l
h
401.104 128.549 m
401.104 122.330 l
402.042 122.330 l
402.042 123.205 l
402.500 122.528 403.162 122.190 404.026 122.190  c
404.401 122.190 404.748 122.257 405.065 122.393  c
405.383 122.528 405.620 122.705 405.776 122.924  c
405.933 123.143 406.042 123.398 406.104 123.690  c
406.136 123.888 406.151 124.231 406.151 124.721  c
406.151 128.549 l
405.104 128.549 l
405.104 124.768 l
405.104 124.330 405.063 124.007 404.979 123.799  c
404.896 123.591 404.750 123.422 404.542 123.291  c
404.334 123.161 404.089 123.096 403.808 123.096  c
403.360 123.096 402.972 123.239 402.644 123.526  c
402.315 123.812 402.151 124.351 402.151 125.143  c
402.151 128.549 l
401.104 128.549 l
h
407.575 129.065 m
408.606 129.221 l
408.648 129.534 408.768 129.763 408.966 129.909  c
409.226 130.106 409.580 130.205 410.028 130.205  c
410.518 130.205 410.895 130.106 411.161 129.909  c
411.427 129.711 411.606 129.440 411.700 129.096  c
411.763 128.877 411.789 128.424 411.778 127.737  c
411.320 128.278 410.747 128.549 410.060 128.549  c
409.205 128.549 408.544 128.239 408.075 127.619  c
407.606 127.000 407.372 126.263 407.372 125.409  c
407.372 124.815 407.479 124.265 407.692 123.760  c
407.906 123.255 408.216 122.867 408.622 122.596  c
409.028 122.325 409.507 122.190 410.060 122.190  c
410.799 122.190 411.408 122.487 411.888 123.080  c
411.888 122.330 l
412.856 122.330 l
412.856 127.705 l
412.856 128.674 412.757 129.362 412.560 129.768  c
412.362 130.174 412.049 130.494 411.622 130.729  c
411.195 130.963 410.669 131.080 410.044 131.080  c
409.304 131.080 408.705 130.914 408.247 130.580  c
407.789 130.247 407.565 129.742 407.575 129.065  c
h
408.450 125.330 m
408.450 126.143 408.612 126.737 408.935 127.112  c
409.257 127.487 409.664 127.674 410.153 127.674  c
410.643 127.674 411.052 127.487 411.380 127.112  c
411.708 126.737 411.872 126.153 411.872 125.362  c
411.872 124.601 411.703 124.028 411.364 123.643  c
411.026 123.257 410.617 123.065 410.138 123.065  c
409.669 123.065 409.270 123.255 408.942 123.635  c
408.614 124.015 408.450 124.580 408.450 125.330  c
h
417.364 126.690 m
418.395 126.534 l
418.458 126.950 418.622 127.268 418.888 127.487  c
419.153 127.705 419.531 127.815 420.020 127.815  c
420.500 127.815 420.856 127.718 421.091 127.526  c
421.325 127.333 421.442 127.101 421.442 126.830  c
421.442 126.591 421.338 126.403 421.130 126.268  c
420.984 126.174 420.625 126.054 420.052 125.909  c
419.281 125.711 418.747 125.541 418.450 125.401  c
418.153 125.260 417.927 125.065 417.770 124.815  c
417.614 124.565 417.536 124.284 417.536 123.971  c
417.536 123.700 417.599 123.445 417.724 123.205  c
417.849 122.966 418.020 122.768 418.239 122.612  c
418.406 122.497 418.630 122.398 418.911 122.315  c
419.192 122.231 419.500 122.190 419.833 122.190  c
420.312 122.190 420.737 122.260 421.106 122.401  c
421.476 122.541 421.750 122.731 421.927 122.971  c
422.104 123.211 422.224 123.528 422.286 123.924  c
421.255 124.065 l
421.213 123.752 421.080 123.505 420.856 123.323  c
420.632 123.140 420.312 123.049 419.895 123.049  c
419.416 123.049 419.073 123.130 418.864 123.291  c
418.656 123.453 418.552 123.643 418.552 123.862  c
418.552 123.997 418.593 124.117 418.677 124.221  c
418.770 124.336 418.906 124.429 419.083 124.502  c
419.187 124.544 419.500 124.632 420.020 124.768  c
420.770 124.976 421.291 125.143 421.583 125.268  c
421.875 125.393 422.104 125.575 422.270 125.815  c
422.437 126.054 422.520 126.356 422.520 126.721  c
422.520 127.075 422.419 127.406 422.216 127.713  c
422.013 128.021 421.718 128.260 421.333 128.432  c
420.948 128.604 420.510 128.690 420.020 128.690  c
419.208 128.690 418.591 128.521 418.169 128.182  c
417.747 127.843 417.479 127.346 417.364 126.690  c
h
426.083 127.612 m
426.239 128.534 l
425.937 128.596 425.672 128.627 425.442 128.627  c
425.057 128.627 424.760 128.567 424.552 128.448  c
424.343 128.328 424.195 128.169 424.106 127.971  c
424.018 127.773 423.974 127.356 423.974 126.721  c
423.974 123.143 l
423.208 123.143 l
423.208 122.330 l
423.974 122.330 l
423.974 120.784 l
425.020 120.159 l
425.020 122.330 l
426.083 122.330 l
426.083 123.143 l
425.020 123.143 l
425.020 126.784 l
425.020 127.086 425.039 127.278 425.075 127.362  c
425.112 127.445 425.172 127.513 425.255 127.565  c
425.338 127.617 425.458 127.643 425.614 127.643  c
425.739 127.643 425.895 127.632 426.083 127.612  c
h
431.183 127.784 m
430.787 128.117 430.409 128.351 430.050 128.487  c
429.690 128.622 429.302 128.690 428.886 128.690  c
428.198 128.690 427.672 128.523 427.308 128.190  c
426.943 127.856 426.761 127.429 426.761 126.909  c
426.761 126.606 426.828 126.328 426.964 126.073  c
427.099 125.817 427.282 125.614 427.511 125.463  c
427.740 125.312 427.995 125.200 428.276 125.127  c
428.474 125.065 428.787 125.007 429.214 124.955  c
430.058 124.862 430.683 124.742 431.089 124.596  c
431.089 124.450 431.089 124.362 431.089 124.330  c
431.089 123.893 430.990 123.586 430.792 123.409  c
430.521 123.179 430.120 123.065 429.589 123.065  c
429.099 123.065 428.735 123.151 428.495 123.323  c
428.256 123.494 428.078 123.799 427.964 124.237  c
426.933 124.096 l
427.026 123.659 427.183 123.304 427.401 123.034  c
427.620 122.763 427.933 122.554 428.339 122.409  c
428.745 122.263 429.214 122.190 429.745 122.190  c
430.276 122.190 430.709 122.252 431.042 122.377  c
431.375 122.502 431.620 122.659 431.776 122.846  c
431.933 123.034 432.042 123.273 432.104 123.565  c
432.136 123.742 432.151 124.065 432.151 124.534  c
432.151 125.940 l
432.151 126.919 432.175 127.539 432.222 127.799  c
432.269 128.060 432.360 128.310 432.495 128.549  c
431.386 128.549 l
431.282 128.330 431.214 128.075 431.183 127.784  c
h
431.089 125.424 m
430.703 125.580 430.131 125.716 429.370 125.830  c
428.933 125.893 428.625 125.963 428.448 126.041  c
428.271 126.119 428.133 126.231 428.034 126.377  c
427.935 126.523 427.886 126.690 427.886 126.877  c
427.886 127.159 427.992 127.393 428.206 127.580  c
428.420 127.768 428.729 127.862 429.136 127.862  c
429.542 127.862 429.904 127.773 430.222 127.596  c
430.539 127.419 430.771 127.174 430.917 126.862  c
431.032 126.622 431.089 126.273 431.089 125.815  c
431.089 125.424 l
h
436.091 127.612 m
436.247 128.534 l
435.945 128.596 435.679 128.627 435.450 128.627  c
435.065 128.627 434.768 128.567 434.560 128.448  c
434.351 128.328 434.203 128.169 434.114 127.971  c
434.026 127.773 433.981 127.356 433.981 126.721  c
433.981 123.143 l
433.216 123.143 l
433.216 122.330 l
433.981 122.330 l
433.981 120.784 l
435.028 120.159 l
435.028 122.330 l
436.091 122.330 l
436.091 123.143 l
435.028 123.143 l
435.028 126.784 l
435.028 127.086 435.047 127.278 435.083 127.362  c
435.119 127.445 435.179 127.513 435.263 127.565  c
435.346 127.617 435.466 127.643 435.622 127.643  c
435.747 127.643 435.903 127.632 436.091 127.612  c
h
441.378 126.549 m
442.472 126.674 l
442.305 127.310 441.987 127.804 441.519 128.159  c
441.050 128.513 440.456 128.690 439.737 128.690  c
438.831 128.690 438.110 128.409 437.573 127.846  c
437.037 127.284 436.769 126.497 436.769 125.487  c
436.769 124.445 437.039 123.635 437.581 123.057  c
438.123 122.479 438.821 122.190 439.675 122.190  c
440.508 122.190 441.188 122.471 441.714 123.034  c
442.240 123.596 442.503 124.393 442.503 125.424  c
442.503 125.487 442.503 125.580 442.503 125.705  c
437.862 125.705 l
437.904 126.393 438.097 126.916 438.440 127.276  c
438.784 127.635 439.216 127.815 439.737 127.815  c
440.123 127.815 440.453 127.713 440.729 127.510  c
441.006 127.307 441.222 126.987 441.378 126.549  c
h
437.925 124.846 m
441.394 124.846 l
441.352 124.315 441.222 123.919 441.003 123.659  c
440.659 123.252 440.222 123.049 439.690 123.049  c
439.201 123.049 438.792 123.211 438.464 123.534  c
438.136 123.856 437.956 124.294 437.925 124.846  c
h
f
2 J
10.0000 M
1.00000 .800000 0.00000 RG
newpath
330.640 165.485 m
330.640 173.769 323.924 180.485 315.640 180.485  c
307.355 180.485 300.640 173.769 300.640 165.485  c
300.640 157.200 307.355 150.485 315.640 150.485  c
323.924 150.485 330.640 157.200 330.640 165.485  c
h
f
0 J
1.45000 M
0.00000 0.00000 0.00000 RG
newpath
330.640 165.485 m
330.640 173.769 323.924 180.485 315.640 180.485  c
307.355 180.485 300.640 173.769 300.640 165.485  c
300.640 157.200 307.355 150.485 315.640 150.485  c
323.924 150.485 330.640 157.200 330.640 165.485  c
h
S
2 J
10.0000 M
0 J
1.45000 M
newpath
349.197 171.848 m
349.197 163.254 l
350.353 163.254 l
354.869 170.004 l
354.869 163.254 l
355.963 163.254 l
355.963 171.848 l
354.791 171.848 l
350.275 165.098 l
350.275 171.848 l
349.197 171.848 l
h
357.348 168.739 m
357.348 167.582 357.665 166.728 358.301 166.176  c
358.832 165.718 359.483 165.489 360.254 165.489  c
361.108 165.489 361.809 165.767 362.355 166.325  c
362.902 166.882 363.176 167.655 363.176 168.645  c
363.176 169.447 363.056 170.077 362.816 170.535  c
362.577 170.994 362.225 171.351 361.762 171.606  c
361.298 171.861 360.796 171.989 360.254 171.989  c
359.389 171.989 358.689 171.710 358.152 171.153  c
357.616 170.595 357.348 169.791 357.348 168.739  c
h
358.426 168.739 m
358.426 169.530 358.600 170.124 358.949 170.520  c
359.298 170.916 359.733 171.114 360.254 171.114  c
360.785 171.114 361.223 170.916 361.566 170.520  c
361.910 170.124 362.082 169.520 362.082 168.707  c
362.082 167.937 361.908 167.353 361.559 166.957  c
361.210 166.562 360.775 166.364 360.254 166.364  c
359.733 166.364 359.298 166.559 358.949 166.950  c
358.600 167.340 358.426 167.937 358.426 168.739  c
h
364.412 171.848 m
364.412 165.629 l
365.350 165.629 l
365.350 166.504 l
365.808 165.827 366.469 165.489 367.334 165.489  c
367.709 165.489 368.055 165.556 368.373 165.692  c
368.691 165.827 368.928 166.004 369.084 166.223  c
369.240 166.442 369.350 166.697 369.412 166.989  c
369.443 167.187 369.459 167.530 369.459 168.020  c
369.459 171.848 l
368.412 171.848 l
368.412 168.067 l
368.412 167.629 368.370 167.306 368.287 167.098  c
368.204 166.890 368.058 166.720 367.850 166.590  c
367.641 166.460 367.396 166.395 367.115 166.395  c
366.667 166.395 366.279 166.538 365.951 166.825  c
365.623 167.111 365.459 167.650 365.459 168.442  c
365.459 171.848 l
364.412 171.848 l
h
370.664 169.270 m
370.664 168.207 l
373.914 168.207 l
373.914 169.270 l
370.664 169.270 l
h
379.145 171.082 m
378.749 171.416 378.371 171.650 378.012 171.785  c
377.652 171.921 377.264 171.989 376.848 171.989  c
376.160 171.989 375.634 171.822 375.270 171.489  c
374.905 171.155 374.723 170.728 374.723 170.207  c
374.723 169.905 374.790 169.627 374.926 169.371  c
375.061 169.116 375.243 168.913 375.473 168.762  c
375.702 168.611 375.957 168.499 376.238 168.426  c
376.436 168.364 376.749 168.306 377.176 168.254  c
378.020 168.160 378.645 168.041 379.051 167.895  c
379.051 167.749 379.051 167.660 379.051 167.629  c
379.051 167.192 378.952 166.884 378.754 166.707  c
378.483 166.478 378.082 166.364 377.551 166.364  c
377.061 166.364 376.697 166.450 376.457 166.621  c
376.217 166.793 376.040 167.098 375.926 167.535  c
374.895 167.395 l
374.988 166.957 375.145 166.603 375.363 166.332  c
375.582 166.062 375.895 165.853 376.301 165.707  c
376.707 165.562 377.176 165.489 377.707 165.489  c
378.238 165.489 378.671 165.551 379.004 165.676  c
379.337 165.801 379.582 165.957 379.738 166.145  c
379.895 166.332 380.004 166.572 380.066 166.864  c
380.098 167.041 380.113 167.364 380.113 167.832  c
380.113 169.239 l
380.113 170.218 380.137 170.838 380.184 171.098  c
380.230 171.358 380.322 171.608 380.457 171.848  c
379.348 171.848 l
379.243 171.629 379.176 171.374 379.145 171.082  c
h
379.051 168.723 m
378.665 168.879 378.092 169.015 377.332 169.129  c
376.895 169.192 376.587 169.262 376.410 169.340  c
376.233 169.418 376.095 169.530 375.996 169.676  c
375.897 169.822 375.848 169.989 375.848 170.176  c
375.848 170.457 375.954 170.692 376.168 170.879  c
376.381 171.067 376.691 171.160 377.098 171.160  c
377.504 171.160 377.866 171.072 378.184 170.895  c
378.501 170.718 378.733 170.473 378.879 170.160  c
378.993 169.921 379.051 169.572 379.051 169.114  c
379.051 168.723 l
h
385.818 169.567 m
386.850 169.707 l
386.735 170.416 386.443 170.973 385.975 171.379  c
385.506 171.785 384.933 171.989 384.256 171.989  c
383.402 171.989 382.717 171.710 382.201 171.153  c
381.686 170.595 381.428 169.796 381.428 168.754  c
381.428 168.088 381.540 167.502 381.764 166.996  c
381.988 166.491 382.326 166.114 382.779 165.864  c
383.232 165.614 383.730 165.489 384.271 165.489  c
384.938 165.489 385.488 165.658 385.920 165.996  c
386.352 166.335 386.631 166.822 386.756 167.457  c
385.725 167.614 l
385.631 167.197 385.459 166.882 385.209 166.668  c
384.959 166.455 384.657 166.348 384.303 166.348  c
383.771 166.348 383.339 166.538 383.006 166.918  c
382.672 167.298 382.506 167.900 382.506 168.723  c
382.506 169.567 382.667 170.176 382.990 170.551  c
383.313 170.926 383.730 171.114 384.240 171.114  c
384.657 171.114 385.003 170.989 385.279 170.739  c
385.555 170.489 385.735 170.098 385.818 169.567  c
h
391.818 169.567 m
392.850 169.707 l
392.735 170.416 392.443 170.973 391.975 171.379  c
391.506 171.785 390.933 171.989 390.256 171.989  c
389.402 171.989 388.717 171.710 388.201 171.153  c
387.686 170.595 387.428 169.796 387.428 168.754  c
387.428 168.088 387.540 167.502 387.764 166.996  c
387.988 166.491 388.326 166.114 388.779 165.864  c
389.232 165.614 389.730 165.489 390.271 165.489  c
390.938 165.489 391.488 165.658 391.920 165.996  c
392.352 166.335 392.631 166.822 392.756 167.457  c
391.725 167.614 l
391.631 167.197 391.459 166.882 391.209 166.668  c
390.959 166.455 390.657 166.348 390.303 166.348  c
389.771 166.348 389.339 166.538 389.006 166.918  c
388.672 167.298 388.506 167.900 388.506 168.723  c
388.506 169.567 388.667 170.176 388.990 170.551  c
389.313 170.926 389.730 171.114 390.240 171.114  c
390.657 171.114 391.003 170.989 391.279 170.739  c
391.555 170.489 391.735 170.098 391.818 169.567  c
h
398.006 169.848 m
399.100 169.973 l
398.933 170.608 398.615 171.103 398.146 171.457  c
397.678 171.812 397.084 171.989 396.365 171.989  c
395.459 171.989 394.738 171.707 394.201 171.145  c
393.665 170.582 393.396 169.796 393.396 168.785  c
393.396 167.744 393.667 166.934 394.209 166.356  c
394.751 165.778 395.449 165.489 396.303 165.489  c
397.136 165.489 397.816 165.770 398.342 166.332  c
398.868 166.895 399.131 167.692 399.131 168.723  c
399.131 168.785 399.131 168.879 399.131 169.004  c
394.490 169.004 l
394.532 169.692 394.725 170.215 395.068 170.575  c
395.412 170.934 395.844 171.114 396.365 171.114  c
396.751 171.114 397.081 171.012 397.357 170.809  c
397.633 170.606 397.850 170.285 398.006 169.848  c
h
394.553 168.145 m
398.021 168.145 l
397.980 167.614 397.850 167.218 397.631 166.957  c
397.287 166.551 396.850 166.348 396.318 166.348  c
395.829 166.348 395.420 166.509 395.092 166.832  c
394.764 167.155 394.584 167.593 394.553 168.145  c
h
400.430 174.239 m
400.430 165.629 l
401.383 165.629 l
401.383 166.426 l
401.612 166.114 401.870 165.879 402.156 165.723  c
402.443 165.567 402.789 165.489 403.195 165.489  c
403.727 165.489 404.195 165.624 404.602 165.895  c
405.008 166.166 405.312 166.551 405.516 167.051  c
405.719 167.551 405.820 168.098 405.820 168.692  c
405.820 169.327 405.708 169.900 405.484 170.410  c
405.260 170.921 404.930 171.312 404.492 171.582  c
404.055 171.853 403.596 171.989 403.117 171.989  c
402.763 171.989 402.445 171.913 402.164 171.762  c
401.883 171.611 401.654 171.426 401.477 171.207  c
401.477 174.239 l
400.430 174.239 l
h
401.383 168.770 m
401.383 169.572 401.544 170.163 401.867 170.543  c
402.190 170.923 402.581 171.114 403.039 171.114  c
403.508 171.114 403.909 170.916 404.242 170.520  c
404.575 170.124 404.742 169.509 404.742 168.676  c
404.742 167.884 404.581 167.293 404.258 166.903  c
403.935 166.512 403.544 166.317 403.086 166.317  c
402.638 166.317 402.242 166.525 401.898 166.942  c
401.555 167.358 401.383 167.968 401.383 168.770  c
h
409.400 170.910 m
409.557 171.832 l
409.255 171.895 408.989 171.926 408.760 171.926  c
408.374 171.926 408.077 171.866 407.869 171.746  c
407.661 171.627 407.512 171.468 407.424 171.270  c
407.335 171.072 407.291 170.655 407.291 170.020  c
407.291 166.442 l
406.525 166.442 l
406.525 165.629 l
407.291 165.629 l
407.291 164.082 l
408.338 163.457 l
408.338 165.629 l
409.400 165.629 l
409.400 166.442 l
408.338 166.442 l
408.338 170.082 l
408.338 170.384 408.356 170.577 408.393 170.660  c
408.429 170.744 408.489 170.812 408.572 170.864  c
408.656 170.916 408.775 170.942 408.932 170.942  c
409.057 170.942 409.213 170.931 409.400 170.910  c
h
410.437 164.473 m
410.437 163.254 l
411.500 163.254 l
411.500 164.473 l
410.437 164.473 l
h
410.437 171.848 m
410.437 165.629 l
411.500 165.629 l
411.500 171.848 l
410.437 171.848 l
h
413.103 171.848 m
413.103 165.629 l
414.041 165.629 l
414.041 166.504 l
414.499 165.827 415.161 165.489 416.025 165.489  c
416.400 165.489 416.747 165.556 417.064 165.692  c
417.382 165.827 417.619 166.004 417.775 166.223  c
417.932 166.442 418.041 166.697 418.103 166.989  c
418.135 167.187 418.150 167.530 418.150 168.020  c
418.150 171.848 l
417.103 171.848 l
417.103 168.067 l
417.103 167.629 417.062 167.306 416.978 167.098  c
416.895 166.890 416.749 166.720 416.541 166.590  c
416.333 166.460 416.088 166.395 415.807 166.395  c
415.359 166.395 414.971 166.538 414.643 166.825  c
414.314 167.111 414.150 167.650 414.150 168.442  c
414.150 171.848 l
413.103 171.848 l
h
419.574 172.364 m
420.605 172.520 l
420.647 172.832 420.767 173.062 420.965 173.207  c
421.225 173.405 421.579 173.504 422.027 173.504  c
422.517 173.504 422.895 173.405 423.160 173.207  c
423.426 173.009 423.605 172.739 423.699 172.395  c
423.762 172.176 423.788 171.723 423.777 171.035  c
423.319 171.577 422.746 171.848 422.059 171.848  c
421.204 171.848 420.543 171.538 420.074 170.918  c
419.605 170.298 419.371 169.562 419.371 168.707  c
419.371 168.114 419.478 167.564 419.691 167.059  c
419.905 166.554 420.215 166.166 420.621 165.895  c
421.027 165.624 421.506 165.489 422.059 165.489  c
422.798 165.489 423.408 165.785 423.887 166.379  c
423.887 165.629 l
424.855 165.629 l
424.855 171.004 l
424.855 171.973 424.756 172.660 424.559 173.067  c
424.361 173.473 424.048 173.793 423.621 174.028  c
423.194 174.262 422.668 174.379 422.043 174.379  c
421.303 174.379 420.704 174.213 420.246 173.879  c
419.788 173.546 419.564 173.041 419.574 172.364  c
h
420.449 168.629 m
420.449 169.442 420.611 170.035 420.934 170.410  c
421.256 170.785 421.663 170.973 422.152 170.973  c
422.642 170.973 423.051 170.785 423.379 170.410  c
423.707 170.035 423.871 169.452 423.871 168.660  c
423.871 167.900 423.702 167.327 423.363 166.942  c
423.025 166.556 422.616 166.364 422.137 166.364  c
421.668 166.364 421.270 166.554 420.941 166.934  c
420.613 167.314 420.449 167.879 420.449 168.629  c
h
429.363 169.989 m
430.395 169.832 l
430.457 170.249 430.621 170.567 430.887 170.785  c
431.152 171.004 431.530 171.114 432.020 171.114  c
432.499 171.114 432.855 171.017 433.090 170.825  c
433.324 170.632 433.441 170.400 433.441 170.129  c
433.441 169.890 433.337 169.702 433.129 169.567  c
432.983 169.473 432.624 169.353 432.051 169.207  c
431.280 169.009 430.746 168.840 430.449 168.700  c
430.152 168.559 429.926 168.364 429.770 168.114  c
429.613 167.864 429.535 167.582 429.535 167.270  c
429.535 166.999 429.598 166.744 429.723 166.504  c
429.848 166.265 430.020 166.067 430.238 165.910  c
430.405 165.796 430.629 165.697 430.910 165.614  c
431.191 165.530 431.499 165.489 431.832 165.489  c
432.311 165.489 432.736 165.559 433.105 165.700  c
433.475 165.840 433.749 166.030 433.926 166.270  c
434.103 166.509 434.223 166.827 434.285 167.223  c
433.254 167.364 l
433.212 167.051 433.079 166.804 432.855 166.621  c
432.631 166.439 432.311 166.348 431.895 166.348  c
431.415 166.348 431.072 166.429 430.863 166.590  c
430.655 166.752 430.551 166.942 430.551 167.160  c
430.551 167.296 430.592 167.416 430.676 167.520  c
430.770 167.634 430.905 167.728 431.082 167.801  c
431.186 167.843 431.499 167.931 432.020 168.067  c
432.770 168.275 433.290 168.442 433.582 168.567  c
433.874 168.692 434.103 168.874 434.270 169.114  c
434.436 169.353 434.520 169.655 434.520 170.020  c
434.520 170.374 434.418 170.705 434.215 171.012  c
434.012 171.319 433.717 171.559 433.332 171.731  c
432.947 171.903 432.509 171.989 432.020 171.989  c
431.207 171.989 430.590 171.819 430.168 171.481  c
429.746 171.142 429.478 170.645 429.363 169.989  c
h
438.082 170.910 m
438.238 171.832 l
437.936 171.895 437.671 171.926 437.441 171.926  c
437.056 171.926 436.759 171.866 436.551 171.746  c
436.342 171.627 436.194 171.468 436.105 171.270  c
436.017 171.072 435.973 170.655 435.973 170.020  c
435.973 166.442 l
435.207 166.442 l
435.207 165.629 l
435.973 165.629 l
435.973 164.082 l
437.020 163.457 l
437.020 165.629 l
438.082 165.629 l
438.082 166.442 l
437.020 166.442 l
437.020 170.082 l
437.020 170.384 437.038 170.577 437.074 170.660  c
437.111 170.744 437.171 170.812 437.254 170.864  c
437.337 170.916 437.457 170.942 437.613 170.942  c
437.738 170.942 437.895 170.931 438.082 170.910  c
h
443.182 171.082 m
442.786 171.416 442.408 171.650 442.049 171.785  c
441.689 171.921 441.301 171.989 440.885 171.989  c
440.197 171.989 439.671 171.822 439.307 171.489  c
438.942 171.155 438.760 170.728 438.760 170.207  c
438.760 169.905 438.827 169.627 438.963 169.371  c
439.098 169.116 439.281 168.913 439.510 168.762  c
439.739 168.611 439.994 168.499 440.275 168.426  c
440.473 168.364 440.786 168.306 441.213 168.254  c
442.057 168.160 442.682 168.041 443.088 167.895  c
443.088 167.749 443.088 167.660 443.088 167.629  c
443.088 167.192 442.989 166.884 442.791 166.707  c
442.520 166.478 442.119 166.364 441.588 166.364  c
441.098 166.364 440.734 166.450 440.494 166.621  c
440.255 166.793 440.077 167.098 439.963 167.535  c
438.932 167.395 l
439.025 166.957 439.182 166.603 439.400 166.332  c
439.619 166.062 439.932 165.853 440.338 165.707  c
440.744 165.562 441.213 165.489 441.744 165.489  c
442.275 165.489 442.708 165.551 443.041 165.676  c
443.374 165.801 443.619 165.957 443.775 166.145  c
443.932 166.332 444.041 166.572 444.103 166.864  c
444.135 167.041 444.150 167.364 444.150 167.832  c
444.150 169.239 l
444.150 170.218 444.174 170.838 444.221 171.098  c
444.268 171.358 444.359 171.608 444.494 171.848  c
443.385 171.848 l
443.281 171.629 443.213 171.374 443.182 171.082  c
h
443.088 168.723 m
442.702 168.879 442.130 169.015 441.369 169.129  c
440.932 169.192 440.624 169.262 440.447 169.340  c
440.270 169.418 440.132 169.530 440.033 169.676  c
439.934 169.822 439.885 169.989 439.885 170.176  c
439.885 170.457 439.992 170.692 440.205 170.879  c
440.419 171.067 440.728 171.160 441.135 171.160  c
441.541 171.160 441.903 171.072 442.221 170.895  c
442.538 170.718 442.770 170.473 442.916 170.160  c
443.031 169.921 443.088 169.572 443.088 169.114  c
443.088 168.723 l
h
448.090 170.910 m
448.246 171.832 l
447.944 171.895 447.678 171.926 447.449 171.926  c
447.064 171.926 446.767 171.866 446.559 171.746  c
446.350 171.627 446.202 171.468 446.113 171.270  c
446.025 171.072 445.980 170.655 445.980 170.020  c
445.980 166.442 l
445.215 166.442 l
445.215 165.629 l
445.980 165.629 l
445.980 164.082 l
447.027 163.457 l
447.027 165.629 l
448.090 165.629 l
448.090 166.442 l
447.027 166.442 l
447.027 170.082 l
447.027 170.384 447.046 170.577 447.082 170.660  c
447.118 170.744 447.178 170.812 447.262 170.864  c
447.345 170.916 447.465 170.942 447.621 170.942  c
447.746 170.942 447.902 170.931 448.090 170.910  c
h
453.377 169.848 m
454.471 169.973 l
454.304 170.608 453.986 171.103 453.518 171.457  c
453.049 171.812 452.455 171.989 451.736 171.989  c
450.830 171.989 450.109 171.707 449.572 171.145  c
449.036 170.582 448.768 169.796 448.768 168.785  c
448.768 167.744 449.038 166.934 449.580 166.356  c
450.122 165.778 450.820 165.489 451.674 165.489  c
452.507 165.489 453.187 165.770 453.713 166.332  c
454.239 166.895 454.502 167.692 454.502 168.723  c
454.502 168.785 454.502 168.879 454.502 169.004  c
449.861 169.004 l
449.903 169.692 450.096 170.215 450.439 170.575  c
450.783 170.934 451.215 171.114 451.736 171.114  c
452.122 171.114 452.452 171.012 452.728 170.809  c
453.005 170.606 453.221 170.285 453.377 169.848  c
h
449.924 168.145 m
453.393 168.145 l
453.351 167.614 453.221 167.218 453.002 166.957  c
452.658 166.551 452.221 166.348 451.689 166.348  c
451.200 166.348 450.791 166.509 450.463 166.832  c
450.135 167.155 449.955 167.593 449.924 168.145  c
h
f
2 J
10.0000 M
0 J
1.45000 M
newpath
.500000 -33.7188 m
.500000 -56.0000 l
6.50000 -62.0000 l
23.0000 -62.0000 l
29.0000 -56.0000 l
29.0000 -39.5000 l
23.0000 -33.5000 l
14.0020 -33.5000 l
S
newpath
6.00201 -33.5000 m
18.0020 -28.5000 l
15.0020 -33.5000 l
18.0020 -38.5000 l
h
f
newpath
28.0293 -47.2441 m
24.7480 -47.5254 l
25.1230 -48.6296 25.7793 -49.4941 26.7168 -50.1191  c
27.6543 -50.7441 28.8887 -51.0566 30.4199 -51.0566  c
32.0241 -51.0566 33.2090 -50.7363 33.9746 -50.0957  c
34.7402 -49.4551 35.1230 -48.6660 35.1230 -47.7285  c
35.1230 -47.3535 35.0892 -46.9551 35.0215 -46.5332  c
34.9538 -46.1113 34.7220 -45.0046 34.3262 -43.2129  c
34.0033 -41.7233 33.8418 -40.6816 33.8418 -40.0879  c
33.8418 -39.5566 33.9355 -38.9681 34.1230 -38.3223  c
30.8418 -38.3223 l
30.7168 -38.7806 30.6387 -39.2493 30.6074 -39.7285  c
30.1074 -39.1868 29.5371 -38.7676 28.8965 -38.4707  c
28.2559 -38.1738 27.6126 -38.0254 26.9668 -38.0254  c
25.9355 -38.0254 25.0840 -38.3639 24.4121 -39.0410  c
23.7402 -39.7181 23.4043 -40.5879 23.4043 -41.6504  c
23.4043 -42.8379 23.7741 -43.7884 24.5137 -44.5020  c
25.2533 -45.2155 26.5710 -45.6452 28.4668 -45.7910  c
30.0710 -45.9264 31.1439 -46.0879 31.6855 -46.2754  c
31.8210 -46.7441 31.8887 -47.1191 31.8887 -47.4004  c
31.8887 -47.7546 31.7454 -48.0540 31.4590 -48.2988  c
31.1725 -48.5436 30.7428 -48.6660 30.1699 -48.6660  c
29.5658 -48.6660 29.0892 -48.5410 28.7402 -48.2910  c
28.3913 -48.0410 28.1543 -47.6921 28.0293 -47.2441  c
h
31.2324 -44.1191 m
31.0345 -44.0671 30.7637 -44.0202 30.4199 -43.9785  c
28.7324 -43.7702 27.6335 -43.4733 27.1230 -43.0879  c
26.7585 -42.8066 26.5762 -42.4264 26.5762 -41.9473  c
26.5762 -41.5514 26.7168 -41.2207 26.9980 -40.9551  c
27.2793 -40.6895 27.6491 -40.5566 28.1074 -40.5566  c
28.6178 -40.5566 29.0970 -40.6790 29.5449 -40.9238  c
29.9928 -41.1686 30.3288 -41.4837 30.5527 -41.8691  c
30.7767 -42.2546 30.9720 -42.8587 31.1387 -43.6816  c
31.2324 -44.1191 l
h
f
2 J
10.0000 M
0 J
1.45000 M
newpath
-2.98914 -17.4532 m
88.5775 177.668 l
S
newpath
91.9762 184.910 m
91.4046 171.923 l
88.1527 176.763 l
82.3518 176.171 l
h
f
newpath
48.2031 88.6076 m
50.2812 88.8732 l
50.0521 90.3107 49.4714 91.4331 48.5391 92.2404  c
47.6068 93.0477 46.4583 93.4513 45.0938 93.4513  c
43.3958 93.4513 42.0286 92.8940 40.9922 91.7795  c
39.9557 90.6649 39.4375 89.0711 39.4375 86.9982  c
39.4375 85.6545 39.6615 84.4774 40.1094 83.4670  c
40.5573 82.4565 41.2344 81.6987 42.1406 81.1935  c
43.0469 80.6883 44.0365 80.4357 45.1094 80.4357  c
46.4635 80.4357 47.5703 80.7795 48.4297 81.4670  c
49.2891 82.1545 49.8385 83.1232 50.0781 84.3732  c
48.0312 84.7013 l
47.8333 83.8576 47.4870 83.2248 46.9922 82.8029  c
46.4974 82.3810 45.8958 82.1701 45.1875 82.1701  c
44.1250 82.1701 43.2630 82.5529 42.6016 83.3185  c
41.9401 84.0841 41.6094 85.2899 41.6094 86.9357  c
41.6094 88.6024 41.9297 89.8159 42.5703 90.5763  c
43.2109 91.3367 44.0469 91.7170 45.0781 91.7170  c
45.9010 91.7170 46.5911 91.4617 47.1484 90.9513  c
47.7057 90.4409 48.0573 89.6597 48.2031 88.6076  c
h
f
2 J
10.0000 M
0 J
1.45000 M
newpath
88.5000 201.203 m
88.5000 223.485 l
82.5000 229.485 l
66.0000 229.485 l
60.0000 223.485 l
60.0000 206.985 l
66.0000 200.985 l
74.9980 200.985 l
S
newpath
82.9980 200.985 m
70.9980 195.985 l
73.9980 200.985 l
70.9980 205.985 l
h
f
newpath
62.2031 220.850 m
64.2812 221.116 l
64.0521 222.553 63.4714 223.675 62.5391 224.483  c
61.6068 225.290 60.4583 225.694 59.0938 225.694  c
57.3958 225.694 56.0286 225.136 54.9922 224.022  c
53.9557 222.907 53.4375 221.313 53.4375 219.241  c
53.4375 217.897 53.6615 216.720 54.1094 215.709  c
54.5573 214.699 55.2344 213.941 56.1406 213.436  c
57.0469 212.931 58.0365 212.678 59.1094 212.678  c
60.4635 212.678 61.5703 213.022 62.4297 213.709  c
63.2891 214.397 63.8385 215.366 64.0781 216.616  c
62.0312 216.944 l
61.8333 216.100 61.4870 215.467 60.9922 215.045  c
60.4974 214.623 59.8958 214.412 59.1875 214.412  c
58.1250 214.412 57.2630 214.795 56.6016 215.561  c
55.9401 216.326 55.6094 217.532 55.6094 219.178  c
55.6094 220.845 55.9297 222.058 56.5703 222.819  c
57.2109 223.579 58.0469 223.959 59.0781 223.959  c
59.9010 223.959 60.5911 223.704 61.1484 223.194  c
61.7057 222.683 62.0573 221.902 62.2031 220.850  c
h
f
2 J
10.0000 M
0 J
1.45000 M
newpath
2.76001 -24.6082 m
225.987 7.22499 l
S
newpath
233.907 8.35440 m
222.733 1.71037 l
224.997 7.08382 l
221.321 11.6102 l
h
f
newpath
115.177 1.29891 m
113.224 1.29891 l
113.224 -15.8886 l
115.333 -15.8886 l
115.333 -9.74797 l
116.219 -10.8730 117.354 -11.4355 118.740 -11.4355  c
119.500 -11.4355 120.224 -11.2792 120.912 -10.9667  c
121.599 -10.6542 122.162 -10.2193 122.599 -9.66203  c
123.037 -9.10474 123.380 -8.43286 123.630 -7.64641  c
123.880 -6.85995 124.005 -6.01359 124.005 -5.10734  c
124.005 -2.98234 123.479 -1.33651 122.427 -.169843  c
121.375 .996824 120.110 1.58016 118.630 1.58016  c
117.162 1.58016 116.011 .965574 115.177 -.263593  c
115.177 1.29891 l
h
115.146 -5.01359 m
115.146 -3.52401 115.349 -2.44588 115.755 -1.77922  c
116.422 -.695884 117.323 -.154218 118.458 -.154218  c
119.375 -.154218 120.169 -.555259 120.841 -1.35734  c
121.513 -2.15943 121.849 -3.35213 121.849 -4.93547  c
121.849 -6.56047 121.529 -7.76099 120.888 -8.53703  c
120.248 -9.31307 119.469 -9.70109 118.552 -9.70109  c
117.625 -9.70109 116.826 -9.30005 116.154 -8.49797  c
115.482 -7.69588 115.146 -6.53443 115.146 -5.01359  c
h
f
2 J
10.0000 M
0 J
1.45000 M
newpath
251.140 2.02360 m
251.140 -20.2577 l
257.140 -26.2577 l
273.640 -26.2577 l
279.640 -20.2577 l
279.640 -3.75765 l
273.640 2.24235 l
264.642 2.24235 l
S
newpath
256.642 2.24235 m
268.642 7.24235 l
265.642 2.24235 l
268.642 -2.75765 l
h
f
newpath
277.997 -3.32992 m
276.044 -3.32992 l
276.044 -20.5174 l
278.153 -20.5174 l
278.153 -14.3768 l
279.039 -15.5018 280.174 -16.0643 281.560 -16.0643  c
282.320 -16.0643 283.044 -15.9080 283.731 -15.5955  c
284.419 -15.2830 284.981 -14.8481 285.419 -14.2909  c
285.856 -13.7336 286.200 -13.0617 286.450 -12.2752  c
286.700 -11.4888 286.825 -10.6424 286.825 -9.73617  c
286.825 -7.61117 286.299 -5.96534 285.247 -4.79867  c
284.195 -3.63200 282.929 -3.04867 281.450 -3.04867  c
279.981 -3.04867 278.830 -3.66325 277.997 -4.89242  c
277.997 -3.32992 l
h
277.966 -9.64242 m
277.966 -8.15284 278.169 -7.07471 278.575 -6.40804  c
279.242 -5.32471 280.143 -4.78304 281.278 -4.78304  c
282.195 -4.78304 282.989 -5.18409 283.661 -5.98617  c
284.333 -6.78825 284.669 -7.98096 284.669 -9.56429  c
284.669 -11.1893 284.349 -12.3898 283.708 -13.1659  c
283.067 -13.9419 282.289 -14.3299 281.372 -14.3299  c
280.445 -14.3299 279.645 -13.9289 278.974 -13.1268  c
278.302 -12.3247 277.966 -11.1633 277.966 -9.64242  c
h
f
2 J
10.0000 M
0 J
1.45000 M
newpath
237.422 17.4805 m
107.243 179.492 l
S
newpath
102.232 185.729 m
113.646 179.506 l
107.869 178.713 l
105.851 173.242 l
h
f
newpath
173.523 106.479 m
175.601 106.744 l
175.372 108.182 174.791 109.304 173.859 110.112  c
172.927 110.919 171.778 111.323 170.414 111.323  c
168.716 111.323 167.348 110.765 166.312 109.651  c
165.276 108.536 164.757 106.942 164.757 104.869  c
164.757 103.526 164.981 102.349 165.429 101.338  c
165.877 100.328 166.554 99.5699 167.460 99.0647  c
168.367 98.5595 169.356 98.3069 170.429 98.3069  c
171.783 98.3069 172.890 98.6506 173.749 99.3381  c
174.609 100.026 175.158 100.994 175.398 102.244  c
173.351 102.573 l
173.153 101.729 172.807 101.096 172.312 100.674  c
171.817 100.252 171.216 100.041 170.507 100.041  c
169.445 100.041 168.583 100.424 167.921 101.190  c
167.260 101.955 166.929 103.161 166.929 104.807  c
166.929 106.474 167.249 107.687 167.890 108.448  c
168.531 109.208 169.367 109.588 170.398 109.588  c
171.221 109.588 171.911 109.333 172.468 108.823  c
173.026 108.312 173.377 107.531 173.523 106.479  c
h
f
2 J
10.0000 M
Q
[ 1.00000 0.00000 0.00000 1.00000 0.00000 0.00000 ] defaultmatrix matrix concatmatrix setmatrix
cliprestore

%%Trailer
%%EOF
